Analyst,Customer_Name,AM_Name,Fuel_Type,Start Date,End Date,Profile,MTS,LLF,Meter_Number,Site_Name,UML_Site_Reference,Footprint_Client_Reference,Meter_Type_Elec,Footprint_Site_Reference,Supplier_Name,Customer Class,Address,Address 2,Address 3,County,Postcode,Voltage,ASC,All Unit Rate,Day Rate,Night Rate,standing charge month,All Unit Usage,Day Usage,Night Usage,Commission p kwh,Fixed Commission Per year,Contract Type,Tender Status,Termination Opt Out,Registration Confirmed
Ferenc Gall,Sanctuary Housing Association,Balint Fabok,Elec,01/04/2013,31/03/2014,02,809,007,1012794408724,39 New Street,27056,,NHH,,British Gas,Corporate,Landlord Supply ,39 New Street,Ely,Cambridgeshire,CB7 5QF,LV,0,1,,,0,1726,,,,,Fixed Contract,Tender Complete,No,Yes
Ferenc Gall,Sanctuary Housing Association,Balint Fabok,Elec,01/04/2013,31/03/2014,01,801,003,1012795589312,Paddock Street,27057,,NHH,,British Gas,Corporate,Landlord Supply,Paddock Street,Soham,Cambridgeshire,CB7 5JA,LV,0,1,,,0,1198,,,,,Fixed Contract,Tender Complete,No,Yes
Ferenc Gall,Sanctuary Housing Association,Balint Fabok,Elec,01/04/2013,31/03/2014,02,810,007,1012895401497,156 Colchester Road,27058,,NHH,,Npower Limited,Corporate,156 Colchester Road,,Ipswich,Suffolk,IP4 4RS,LV,0,1,,,0,4828,,,,,Fixed Contract,Tender Complete,No,Yes
Ferenc Gall,Sanctuary Housing Association,Balint Fabok,Elec,01/04/2013,31/03/2014,01,801,003,1012905977354,43 Portland Crescent,27059,,NHH,,Opus Energy,Corporate,43 Portland Crescent,,Woodbridge,Suffolk,IP12 4TP,LV,0,1,,,0,1,,,,,Fixed Contract,Tender Complete,No,Yes
Ferenc Gall,Sanctuary Housing Association,Balint Fabok,Elec,01/04/2013,31/03/2014,04,809,242,1012986446761,21 Henry Street,27060,,NHH,,Opus Energy,Corporate,21 Henry Street,,Debenham,Suffolk,IP14 6RH,LV,0,1,,,0,1,,,,,Fixed Contract,Tender Complete,No,Yes
Ferenc Gall,Sanctuary Housing Association,Balint Fabok,Elec,27/10/2013,26/10/2013,01,0,0,1013054842326,40 44 Solomon Avenue ,27061,,NHH,,EON,Corporate,Landlord Supply,40-44 Solomon Avenue,London,Greater London,N9 0SQ,LV,0,1,,,0,1,,,,,Fixed Contract,Tender Complete,No,Yes
Ferenc Gall,Sanctuary Housing Association,Balint Fabok,Elec,26/10/2013,25/10/2013,02,669,022,1013054842558,40 44 Solomon Avenue ,27061,,NHH,,EON,Corporate,Landlord Supply,40 44 Solomon Avenue,London,Greater London,N9 0SQ,LV,0,1,,,0,2096,,,,,Fixed Contract,Tender Complete,No,Yes
Ferenc Gall,Sanctuary Housing Association,Balint Fabok,Elec,01/04/2013,31/03/2014,03,801,239,1013070036350,Compass West Estate,27063,,NHH,,Npower Limited,Corporate,Compass West Estate Unit 1,32 West Road,London,Greater London,N17 0XL,LV,0,1,,,0,191525,,,,,Fixed Contract,Tender Complete,No,Yes
Ferenc Gall,Sanctuary Housing Association,Balint Fabok,Elec,01/04/2013,31/03/2014,03,801,003,1013078031614,Woodeside Gardens,27064,,NHH,,EON,Corporate,Landlord Supply ,66 Woodside Gardens,London,Greater London,N17 6UW,LV,0,1,,,0,1,,,,,Fixed Contract,Tender Complete,No,Yes
Ferenc Gall,Sanctuary Housing Association,Balint Fabok,Elec,01/04/2013,31/03/2014,03,801,201,1013085962934,62 Cranleigh Road,27065,,NHH,,British Gas,Corporate,Communal Supply ,62 Cranleigh Road,Tottenham,,N15 3AD,LV,0,1,,,0,1,,,,,Fixed Contract,Tender Complete,No,Yes
Ferenc Gall,Sanctuary Housing Association,Balint Fabok,Elec,01/04/2013,31/03/2014,03,801,201,1013085974665,22 Etherley Road,27066,,NHH,,EON,Corporate,Landlord Supply ,22 Etherley Road,London,Greater London,N15 3AJ,LV,0,1,,,0,1,,,,,Fixed Contract,Tender Complete,No,Yes
Ferenc Gall,Sanctuary Housing Association,Balint Fabok,Elec,01/04/2013,31/03/2014,03,801,201,1023471972424,A H Mountford House,27067,,NHH,,British Gas,Corporate,Landlord Supply ,A-H Mountford House,Tottenham Green East Tottenham,Greater London,N15 4UU,LV,0,1,,,0,675,,,,,Fixed Contract,Tender Complete,No,Yes
Ferenc Gall,Sanctuary Housing Association,Balint Fabok,Elec,01/04/2013,31/03/2014,01,801,003,1023472039350,The Crescent,27068,,NHH,,British Gas,Corporate,Landlord Street Lighting,The Crescent,Littleport,Cambridgeshire,CB6 1HS,LV,0,1,,,0,707,,,,,Fixed Contract,Tender Complete,No,Yes
Ferenc Gall,Sanctuary Housing Association,Balint Fabok,Elec,01/04/2013,31/03/2014,01,801,003,1023477309572,Parking Area Queensway,27069,,NHH,,British Gas,Corporate,Landlord Supply Parking Area,Queensway Soham,Ely,Cambridgeshire,CB7 5BU,LV,0,1,,,0,359,,,,,Fixed Contract,Tender Complete,No,Yes
Ferenc Gall,Sanctuary Housing Association,Balint Fabok,Elec,01/08/2013,31/07/2013,03,801,201,1023496562642,Mepal Road,27070,,NHH,,EON,Corporate,Landlord Supply,Mepal Road,Sutton,Cambridgeshire,CB6 2PZ,LV,0,1,,,0,2562,,,,,Fixed Contract,Tender Complete,No,Yes
Ferenc Gall,Sanctuary Housing Association,Balint Fabok,Elec,01/04/2013,31/03/2014,01,801,003,1023511267004,Columbine Road,27071,,NHH,,British Gas,Corporate,Landlord Supply ,Columbine Road Plot 33,Ely,Cambridgeshire,CB6 3WL,LV,0,1,,,0,1528,,,,,Fixed Contract,Tender Complete,No,Yes
Ferenc Gall,Sanctuary Housing Association,Balint Fabok,Elec,01/04/2013,31/03/2014,03,801,201,1023525570930,Frances Cottee Lodge Block,27074,,NHH,,EON,Corporate,Landlord Supply Block 10-16,Frances Cottee Lodge ,,Essex,SS6 8SQ,LV,0,1,,,0,1,,,,,Fixed Contract,Tender Complete,No,Yes
Ferenc Gall,Sanctuary Housing Association,Balint Fabok,Elec,20/05/2014,19/05/2014,03,801,201,1023525728026,2 8 Frances Cottee Lodge,27075,,NHH,,EON,Corporate,Landlord Supply ,2-8 Frances Cottee Lodge,,Essex,SS6 8SQ,LV,0,1,,,0,1,,,,,Fixed Contract,Tender Complete,No,Yes
Ferenc Gall,Sanctuary Housing Association,Balint Fabok,Elec,01/04/2013,31/03/2014,01,801,003,1023530270989,69 74 Bawden Way,27076,,NHH,,British Gas,Corporate,Landlord 4 Plots,69-74 Bawden Way,Chelmsford,Essex,CM2 9GY,LV,0,1,,,0,31340,,,,,Fixed Contract,Tender Complete,No,Yes
Ferenc Gall,Sanctuary Housing Association,Balint Fabok,Elec,01/04/2013,31/03/2014,03,801,239,1023544507987,Elizabeth Gardens,27077,,NHH,,British Gas,Corporate,Landlord Supply,Elizabeth Gardens 173 Wherstead Road,Ipswich,Suffolk,IP2 8JX,LV,0,1,,,0,15767,,,,,Fixed Contract,Tender Complete,No,Yes
Ferenc Gall,Sanctuary Housing Association,Balint Fabok,Elec,01/04/2013,31/03/2014,03,801,239,1023544508216,1 8 Fitzgerald,27078,,NHH,,British Gas,Corporate,1-8 Fitzgerald,175 Wherstead Road,Ipswich,Suffolk,IP2 8JX,LV,0,1,,,0,121943,,,,,Fixed Contract,Tender Complete,No,Yes
Ferenc Gall,Sanctuary Housing Association,Balint Fabok,Elec,01/04/2013,31/03/2014,01,801,003,1023545526216,West Fen Road,27079,,NHH,,British Gas,Corporate,Landlord Supply,West Fen Road,Ely,Cambridgeshire,CB6 1AL,LV,0,1,,,0,1,,,,,Fixed Contract,Tender Complete,No,Yes
Ferenc Gall,Sanctuary Housing Association,Balint Fabok,Elec,01/04/2013,31/03/2014,03,801,201,1030022591986,St Andrews Close 986,27080,,NHH,,British Gas,Corporate,St Andrews Close,Sutton,Ely,Cambridgeshire,CB6 2QX,LV,0,1,,,0,1,,,,,Fixed Contract,Tender Complete,No,Yes
Ferenc Gall,Sanctuary Housing Association,Balint Fabok,Elec,01/04/2013,31/03/2014,03,801,201,1030022592215,St Andrews Close 215,27081,,NHH,,British Gas,Corporate,St Andrews Close,Sutton,Ely,Cambridgeshire,CB6 2QX,LV,0,1,,,0,1,,,,,Fixed Contract,Tender Complete,No,Yes
Ferenc Gall,Sanctuary Housing Association,Balint Fabok,Elec,01/04/2013,31/03/2014,01,801,003,1030030849446,205 Station Road,27082,,NHH,,British Gas,Corporate,205 Station Road,,March,Cambridgeshire,PE15 8SQ,LV,0,1,,,0,1,,,,,Fixed Contract,Tender Complete,No,Yes
Ferenc Gall,Sanctuary Housing Association,Balint Fabok,Elec,01/04/2013,31/03/2014,01,801,007,1030038626434,86 Hundred Acre Way,27083,,NHH,,British Gas,Corporate,86 Hundred Acre Way,Red Lodge,,Suffolk,IP28 8FQ,LV,0,1,,,0,1,,,,,Fixed Contract,Tender Complete,No,Yes
Ferenc Gall,Sanctuary Housing Association,Balint Fabok,Elec,01/04/2013,31/03/2014,01,801,007,1030043504047,20 30 Edson Close,27084,,NHH,,EON,Corporate,Landlord Supply,20 30 Edson Close,Watford,Greater London,WD25 7BX,LV,0,1,,,0,1,,,,,Fixed Contract,Tender Complete,No,Yes
Ferenc Gall,Sanctuary Housing Association,Balint Fabok,Elec,01/04/2013,31/03/2014,01,801,003,1030060907913,Conder House,27085,,NHH,,EDF Energy,Corporate,Landlord Supply,Condor House 50 Newton Road,London,Greater London,N15 4PJ,LV,0,1,,,0,1000,,,,,Fixed Contract,Tender Complete,No,Yes
Ferenc Gall,Sanctuary Housing Association,Balint Fabok,Elec,01/04/2013,31/03/2014,03,801,201,1030065436387,65 75 Ellerby Drive,27086,,NHH,,EON,Corporate,Landlord Supply,65 75 Ellerby Drive,Wisbech,Cambridgeshire,PE14 0TA,LV,0,1,,,0,1,,,,,Fixed Contract,Tender Complete,No,Yes
Ferenc Gall,Sanctuary Housing Association,Balint Fabok,Elec,01/04/2013,31/03/2014,03,801,201,1030065436615,30 35 Cox Close,27087,,NHH,,EON,Corporate,Landlord Supply,Cox Close Plots 30-35,Wisbech,Cambridgeshire,PE14 0TB,LV,0,1,,,0,1,,,,,Fixed Contract,Tender Complete,No,Yes
Ferenc Gall,Sanctuary Housing Association,Balint Fabok,Elec,01/04/2013,31/03/2014,03,801,201,1030065436847,15 25 Cox Close,27088,,NHH,,EON,Corporate,Landlord Supply,15 25 Cox Close,Wisbech,Cambridgeshire,PE14 0TB,LV,0,1,,,0,1,,,,,Fixed Contract,Tender Complete,No,Yes
Ferenc Gall,Sanctuary Housing Association,Balint Fabok,Elec,01/04/2013,31/03/2014,03,801,201,1030065437070,27 37 Cox Close,27089,,NHH,,EON,Corporate,Landlord Supply,27 37 Cox Close,Wisbech,Cambridgeshire,PE14 0TB,LV,0,1,,,0,1,,,,,Fixed Contract,Tender Complete,No,Yes
Ferenc Gall,Sanctuary Housing Association,Balint Fabok,Elec,01/04/2013,31/03/2014,03,801,201,1030065437308,55 58 Cox Close,27090,,NHH,,EON,Corporate,Landlord Supply,Cox Close Plots 55-58,Wisbech,Cambridgeshire,PE14 0TB,LV,0,1,,,0,1,,,,,Fixed Contract,Tender Complete,No,Yes
Ferenc Gall,Sanctuary Housing Association,Balint Fabok,Elec,01/04/2013,31/03/2014,03,801,239,1030065720438,40 50 Leafere Way,27091,,NHH,,EON,Corporate,Landlord Supply ,40 50 Leafere Way,,Cambridgeshire,PE13 5PW,LV,0,1,,,0,1,,,,,Fixed Contract,Tender Complete,No,Yes
Ferenc Gall,Sanctuary Housing Association,Balint Fabok,Elec,01/04/2013,31/03/2014,03,801,239,1030065720660,Leafere Way,27092,,NHH,,EON,Corporate,Landlord Supply,25 29 Leafere Way,Wisbech,Cambridgeshire,PE13 5PW,LV,0,1,,,0,1,,,,,Fixed Contract,Tender Complete,No,Yes
Ferenc Gall,Sanctuary Housing Association,Balint Fabok,Elec,01/04/2013,31/03/2014,06,801,271,1030066816847,Nichols Court,27093,,NHH,,British Gas,Corporate,Landlord Supply,Nichols Court,Flaxfield Linton,Cambridgeshire,CB21 4AF,LV,0,1,,,0,1,,,,,Fixed Contract,Tender Complete,No,Yes
Ferenc Gall,Sanctuary Housing Association,Balint Fabok,Elec,01/04/2013,31/03/2014,03,801,239,1030071705498,8 Bridge Road,27094,,NHH,,EON,Corporate,"Landlord Pump and Lighting, Adj 8",8 Bridge Road,Mepal,Cambridgeshire,CB6 2 AR,LV,0,1,,,0,1,,,,,Fixed Contract,Tender Complete,No,Yes
Ferenc Gall,Sanctuary Housing Association,Balint Fabok,Elec,01/04/2013,31/03/2014,03,801,239,1030071899154,15 18 Cameron Terrace,27095,,NHH,,EON,Corporate,Landlord Supply 15 18 Cameron Terrace,Herbert Road,London,Greater London,N15 4FG,LV,0,1,,,0,1,,,,,Fixed Contract,Tender Complete,No,Yes
Ferenc Gall,Sanctuary Housing Association,Balint Fabok,Elec,01/04/2013,31/03/2014,03,801,239,1030071899614,3 4 Cameron Terrace,27096,,NHH,,EON,Corporate,Cameron Terrace Block 3-4,Herbert Road,London,Greater London,N15 4FG,LV,0,1,,,0,1,,,,,Fixed Contract,Tender Complete,No,Yes
Ferenc Gall,Sanctuary Housing Association,Balint Fabok,Elec,01/04/2013,31/03/2014,03,801,201,1030072529585,High Barns Avenue,27097,,NHH,,EON,Corporate,Landlord Supply,171 High Barns Avenue,Ely,Cambridgeshire,CB7 7RJ,LV,0,1,,,0,1,,,,,Fixed Contract,Tender Complete,No,Yes
Ferenc Gall,Sanctuary Housing Association,Balint Fabok,Elec,01/04/2013,31/03/2014,03,801,201,1030072923570,West Fen Road,27098,,NHH,,EON,Corporate,Landlord Block G,West Fen Road,Ely,Cambridgeshire,CB6 1AL,LV,0,1,,,0,1,,,,,Fixed Contract,Tender Complete,No,Yes
Ferenc Gall,Sanctuary Housing Association,Balint Fabok,Elec,01/04/2013,31/03/2014,03,801,201,1030073755481,Walsingham Way,27099,,NHH,,EON,Corporate,Landlord Flats 1A 1D,Walshingham Way West Fen Road,Ely,Cambridgeshire,CB6 3AD,LV,0,1,,,0,1,,,,,Fixed Contract,Tender Complete,No,Yes
Ferenc Gall,Sanctuary Housing Association,Balint Fabok,Elec,01/04/2013,31/03/2014,03,801,201,1030073757780,Walsingham Way,27100,,NHH,,EON,Corporate,Landlord Flats 2 8,Walshingham Way West Fen Road,Ely,Cambridgeshire,CB6 3AD,LV,0,1,,,0,1,,,,,Fixed Contract,Tender Complete,No,Yes
Ferenc Gall,Sanctuary Housing Association,Balint Fabok,Elec,01/04/2013,31/03/2014,03,801,201,1030073805167,Noble House,27101,,NHH,,EON,Corporate,3 Noble House,Clitheroe Gardens,,,WD19 6AD,LV,0,1,,,0,1,,,,,Fixed Contract,Tender Complete,No,Yes
Ferenc Gall,Sanctuary Housing Association,Balint Fabok,Elec,01/04/2013,31/03/2014,03,801,201,1050000077930,Brewhouse Lane,27102,,NHH,,EON,Corporate,Feeder Pillar,Brewhouse Lane,Soham,Cambridgeshire,CB7 5JD,LV,0,1,,,0,1,,,,,Fixed Contract,Tender Complete,No,Yes
Ferenc Gall,Sanctuary Housing Association,Balint Fabok,Elec,01/04/2013,31/03/2014,01,801,001,1160001152580,5 Aldfield Green,27104,,NHH,,British Gas,Corporate,5 Aldfield Green,Hamilton,Leicester,Leicestershire,LE5 1BP,LV,0,1,,,0,1,,,,,Fixed Contract,Tender Complete,No,Yes
Ferenc Gall,Sanctuary Housing Association,Balint Fabok,Elec,01/04/2013,31/03/2014,03,801,952,1200022010814,Kingsmead House,27105,,NHH,,British Gas,Corporate,Stair Lighting,Kingsmead House Homerton Road,London,Greater London,E49 5QH,LV,0,1,,,0,13888,,,,,Fixed Contract,Tender Complete,No,Yes
Ferenc Gall,Sanctuary Housing Association,Balint Fabok,Elec,01/04/2013,31/03/2014,03,801,953,1200022010823,Kingsmead House,27106,,NHH,,British Gas,Corporate,Stair Lighting,Kingsmead House Homerton Road,London,Greater London,E49 5QH,LV,0,1,,,0,36836,,,,,Fixed Contract,Tender Complete,No,Yes
Ferenc Gall,Sanctuary Housing Association,Balint Fabok,Elec,01/04/2013,31/03/2014,03,801,970,1200023585291,Redbridge Lane West,27107,,NHH,,EDF Energy,Corporate,Staircase Lighting,10 Redbridge Lane West,London,Greater London,E11 2JU,LV,0,1,,,0,4196,,,,,Fixed Contract,Tender Complete,No,Yes
Ferenc Gall,Sanctuary Housing Association,Balint Fabok,Elec,01/04/2013,31/03/2014,03,801,952,1200024173158,Fairmead House,27108,,NHH,,British Gas,Corporate,Stair Lighting,Fairmead House Homerton Road,London,Greater London,E9 5QL,LV,0,1,,,0,1,,,,,Fixed Contract,Tender Complete,No,Yes
Ferenc Gall,Sanctuary Housing Association,Balint Fabok,Elec,01/04/2013,31/03/2014,01,801,902,1200024951304,3 Shaftsbury Court,27109,,NHH,,EDF Energy,Corporate,3 Shaftesbury Court ,Selkirk Drive,Erith,Kent,DA8 3QP,LV,0,1,,,0,1,,,,,Fixed Contract,Tender Complete,No,Yes
Ferenc Gall,Sanctuary Housing Association,Balint Fabok,Elec,01/04/2013,31/03/2014,02,811,906,1200024951340,7 Shaftsbury Close,27110,,NHH,,EDF Energy,Corporate,7 Shaftesbury Court ,Selkirk Drive,Erith,Kent,DA8 3QP,LV,0,1,,,0,1,,,,,Fixed Contract,Tender Complete,No,Yes
Ferenc Gall,Sanctuary Housing Association,Balint Fabok,Elec,01/04/2013,31/03/2014,02,060,906,1200024951518,24 Shaftsbury Close,27111,,NHH,,EDF Energy,Corporate,Flat 24 Shaftesbury Court ,Selkirk Drive,Erith,Kent,DA8 3QP,LV,0,1,,,0,1,,,,,Fixed Contract,Tender Complete,No,Yes
Ferenc Gall,Sanctuary Housing Association,Balint Fabok,Elec,01/04/2013,31/03/2014,03,801,952,1200026069227,305 Victoria Road,27112,,NHH,,EDF Energy,Corporate,Landlord Supply,305 Victoria Road,London,Greater London,E9 5DY,LV,0,1,,,0,4630,,,,,Fixed Contract,Tender Complete,No,Yes
Ferenc Gall,Sanctuary Housing Association,Balint Fabok,Elec,01/04/2013,31/03/2014,03,801,952,1200026325274,Ashmead House,27114,,NHH,,British Gas,Corporate,Stair Lighting,Ashmead House Homerton Road,London,Greater London,E9 5QP,LV,0,1,,,0,1,,,,,Fixed Contract,Tender Complete,No,Yes
Ferenc Gall,Sanctuary Housing Association,Balint Fabok,Elec,01/04/2013,31/03/2014,04,807,956,1200026325283,Ashmead House,27115,,NHH,,British Gas,Corporate,Stair Lighting,Ashmead House Homerton Road,London,Greater London,E9 5QP,LV,0,1,,,0,1,,,,,Fixed Contract,Tender Complete,No,Yes
Ferenc Gall,Sanctuary Housing Association,Balint Fabok,Elec,01/04/2013,31/03/2014,04,521,964,1200029968419,60 Greenleaf Road,27116,,NHH,,EDF Energy,Corporate,60 Greenleaf Road,,London,Greater London,E17 6QN,LV,0,1,,,0,1,,,,,Fixed Contract,Tender Complete,No,Yes
Ferenc Gall,Sanctuary Housing Association,Balint Fabok,Elec,01/04/2013,31/03/2014,01,801,952,1200030953537,Templemead House,27117,,NHH,,Npower Limited,Corporate,Templemead House,Homerton Road,,,E9 5PW,LV,0,1,,,0,1,,,,,Fixed Contract,Tender Complete,No,Yes
Ferenc Gall,Sanctuary Housing Association,Balint Fabok,Elec,01/04/2013,31/03/2014,04,807,956,1200035333226,Athelstan House,27118,,NHH,,British Gas,Corporate,Athelstan House,Homerton Road,London,Greater London,E9 5PH,LV,0,1,,,0,1,,,,,Fixed Contract,Tender Complete,No,Yes
Ferenc Gall,Sanctuary Housing Association,Balint Fabok,Elec,01/04/2013,31/03/2014,03,801,952,1200037495986,Alfred House,27119,,NHH,,British Gas,Corporate,Stair Lighting,Alfred House Homerton Road,London,Greater London,E9 5QD,LV,0,1,,,0,25060,,,,,Fixed Contract,Tender Complete,No,Yes
Ferenc Gall,Sanctuary Housing Association,Balint Fabok,Elec,01/04/2013,31/03/2014,03,801,970,1200037742185,13 14 Denbigh Place,27120,,NHH,,EDF Energy,Corporate,Landlord Supply ,13  14 Denbigh Place,London,Greater London,SW1V 2HB,LV,0,1,,,0,4090,,,,,Fixed Contract,Tender Complete,No,Yes
Ferenc Gall,Sanctuary Housing Association,Balint Fabok,Elec,01/04/2013,31/03/2014,03,801,970,1200039475680,Shafton Road,27121,,NHH,,EDF Energy,Corporate,Landlord Supply,Shafton Road,London,Greater London,E9 7HH,LV,0,1,,,0,4212,,,,,Fixed Contract,Tender Complete,No,Yes
Ferenc Gall,Sanctuary Housing Association,Balint Fabok,Elec,01/04/2013,31/03/2014,03,801,952,1200039710938,Edgar House,27122,,NHH,,British Gas,Corporate,Stair Lighting,Edgar House Homerton Road,London,Greater London,E9 5QE,LV,0,1,,,0,26171,,,,,Fixed Contract,Tender Complete,No,Yes
Ferenc Gall,Sanctuary Housing Association,Balint Fabok,Elec,01/04/2013,31/03/2014,03,801,952,1200039711338,Watermead House,27123,,NHH,,EDF Energy,Corporate,Stair Lighting and Lift,Watermead Houses Homerton Road,London,Greater London,E9 5RS,LV,0,1,,,0,1,,,,,Fixed Contract,Tender Complete,No,Yes
Ferenc Gall,Sanctuary Housing Association,Balint Fabok,Elec,01/04/2013,31/03/2014,03,801,952,1200041945960,Malmsmead House,27124,,NHH,,British Gas,Corporate,Malmsmead House,Homerton Road,,,E9 6ED,LV,0,1,,,0,1,,,,,Fixed Contract,Tender Complete,No,Yes
Ferenc Gall,Sanctuary Housing Association,Balint Fabok,Elec,01/04/2013,31/03/2014,03,801,952,1200050989031,Rivermead House Lift,27125,,NHH,,British Gas,Corporate,Lift Supply,Rivermead House Homerton Road,London,Greater London,E9 5QS,LV,0,1,,,0,3704,,,,,Fixed Contract,Tender Complete,No,Yes
Ferenc Gall,Sanctuary Housing Association,Balint Fabok,Elec,01/04/2013,31/03/2014,03,801,952,1200051041682,Fairmead House,27126,,NHH,,EDF Energy,Corporate,Stair Lighting,Fairmead House Homerton Road,London,Greater London,E9 5QH,LV,0,1,,,0,1,,,,,Fixed Contract,Tender Complete,No,Yes
Ferenc Gall,Sanctuary Housing Association,Balint Fabok,Elec,01/04/2013,31/03/2014,03,801,952,1200051451180,Sonali Gardens,27127,,NHH,,EDF Energy,Corporate,Sonali Gardens,,London,Greater London,E1 0AG,LV,0,1,,,0,1,,,,,Fixed Contract,Tender Complete,No,Yes
Ferenc Gall,Sanctuary Housing Association,Balint Fabok,Elec,01/04/2013,31/03/2014,03,801,952,1200051466813,Malmsmead House,27128,,NHH,,British Gas,Corporate,Stair Lighting,Malmsmead House Homerton Road,London,Greater London,E9 5RP,LV,0,1,,,0,1,,,,,Fixed Contract,Tender Complete,No,Yes
Ferenc Gall,Sanctuary Housing Association,Balint Fabok,Elec,01/04/2013,31/03/2014,03,802,952,1200060492670,Kingsmead Way,27129,,NHH,,EDF Energy,Corporate,Landlord Supply,Kingsmead Way,London,Greater London,E9 5QG,LV,0,1,,,0,1,,,,,Fixed Contract,Tender Complete,No,Yes
Ferenc Gall,Sanctuary Housing Association,Balint Fabok,Elec,01/04/2013,31/03/2014,03,802,952,1200060819123,34 Denbigh Place,27130,,NHH,,EDF Energy,Corporate,Landlord Supply ,34 Denbigh Place,London,Greater London,SW1V 2HA,LV,0,1,,,0,1,,,,,Fixed Contract,Tender Complete,No,Yes
Ferenc Gall,Sanctuary Housing Association,Balint Fabok,Elec,01/04/2013,31/03/2014,03,801,952,1200060876326,35 Greenleaf Road,27131,,NHH,,EDF Energy,Corporate,35 Greenleaf Road,,London,Greater London,E17 6QN,LV,0,1,,,0,1,,,,,Fixed Contract,Tender Complete,No,Yes
Ferenc Gall,Sanctuary Housing Association,Balint Fabok,Elec,01/04/2013,31/03/2014,01,801,101,1300053535863,Honeysuckle Drive,27132,,NHH,,British Gas,Corporate,Landlord Supply,Honeysuckle Drive Hazel Grove,Oswestry,Shropshire,SY11 2NX,LV,0,1,,,0,300,,,,,Fixed Contract,Tender Complete,No,Yes
Ferenc Gall,Sanctuary Housing Association,Balint Fabok,Elec,01/04/2013,31/03/2014,03,801,007,1410216871003,5 8 East Close,27133,,NHH,,British Gas,Corporate,Landlords Supply ,5 8 East Close,Banbury,Oxfordshire,OX16 3LW,LV,0,1,,,0,160,,,,,Fixed Contract,Tender Complete,No,Yes
Ferenc Gall,Sanctuary Housing Association,Balint Fabok,Elec,01/04/2013,31/03/2014,03,801,007,1410283281001,Gillett Road,27134,,NHH,,British Gas,Corporate,Gillett Road,,Banbury,Oxfordshire,OX16 0EA,LV,0,1,,,0,922,,,,,Fixed Contract,Tender Complete,No,Yes
Ferenc Gall,Sanctuary Housing Association,Balint Fabok,Elec,01/04/2013,31/03/2014,03,801,007,1410408871009,149 Middleton Road,27135,,NHH,,British Gas,Corporate,Landlord Supply ,149 Middleton Road,Banbury,Oxfordshire,OX16 3QS,LV,0,1,,,0,440,,,,,Fixed Contract,Tender Complete,No,Yes
Ferenc Gall,Sanctuary Housing Association,Balint Fabok,Elec,01/04/2013,31/03/2014,03,801,007,1411824381000,9 12 Penrose Close,27136,,NHH,,British Gas,Corporate,Landlord Supply ,9 12 Penrose Close,Banbury,Oxfordshire,OX16 0QS,LV,0,1,,,0,548,,,,,Fixed Contract,Tender Complete,No,Yes
Ferenc Gall,Sanctuary Housing Association,Balint Fabok,Elec,01/04/2013,31/03/2014,03,801,007,1412223641004,Pailton Road,27137,,NHH,,Npower Limited,Corporate,Pailton Road,,,West Midlands,B90 3NY,LV,0,1,,,0,1029,,,,,Fixed Contract,Tender Complete,No,Yes
Ferenc Gall,Sanctuary Housing Association,Balint Fabok,Elec,01/04/2013,31/03/2014,03,801,007,1412380281008,Lennox Gardens Bl 17,27138,,NHH,,British Gas,Corporate,Communal Supply,Lennox Gardens Block 17,Banbury,Oxfordshire,OX16 0LQ,LV,0,1,,,0,788,,,,,Fixed Contract,Tender Complete,No,Yes
Ferenc Gall,Sanctuary Housing Association,Balint Fabok,Elec,01/04/2013,31/03/2014,03,801,007,1412801281008,10 16 Stanbridge Close,27139,,NHH,,British Gas,Corporate,Landlords Supply ,10-16 Stanbridge Close,Banbury,Oxfordshire,OX16 0NR,LV,0,1,,,0,981,,,,,Fixed Contract,Tender Complete,No,Yes
Ferenc Gall,Sanctuary Housing Association,Balint Fabok,Elec,01/04/2013,31/03/2014,03,801,007,1412924381007,1 2 Penrose Close,27140,,NHH,,British Gas,Corporate,Landlords Supply ,1-2 Penrose Close,Banbury,Oxfordshire,OX16 0QS,LV,0,1,,,0,770,,,,,Fixed Contract,Tender Complete,No,Yes
Ferenc Gall,Sanctuary Housing Association,Balint Fabok,Elec,01/04/2013,31/03/2014,01,801,001,1413235371000,Heathlands,27141,,NHH,,Scottish and Southern Energy PLC,Corporate,Landlords Supply ,Heathlands Station Road,Pershore,Oxfordshire,WR10 1NG,LV,0,1,,,0,1,,,,,Fixed Contract,Tender Complete,No,Yes
Ferenc Gall,Sanctuary Housing Association,Balint Fabok,Elec,01/04/2013,31/03/2014,03,801,007,1413672281000,34 Penrose Drive,27142,,NHH,,British Gas,Corporate,Landlords Supply ,34 Penrose Drive,Banbury,Oxfordshire,OX16 0PS,LV,0,1,,,0,1109,,,,,Fixed Contract,Tender Complete,No,Yes
Ferenc Gall,Sanctuary Housing Association,Balint Fabok,Elec,01/04/2013,31/03/2014,03,031,007,1413772281006,18 24 Penrose Drive,27143,,NHH,,British Gas,Corporate,Landlords Supply ,18 24 Penrose Drive,Banbury,Oxfordshire,OX16 0PS,LV,0,1,,,0,1024,,,,,Fixed Contract,Tender Complete,No,Yes
Ferenc Gall,Sanctuary Housing Association,Balint Fabok,Elec,01/04/2013,31/03/2014,03,031,007,1413872281001,2 8 Penrose Drive,27144,,NHH,,British Gas,Corporate,Landlords Supply ,2 8 Penrose Drive,Banbury,Oxfordshire,OX16 0PS,LV,0,1,,,0,1239,,,,,Fixed Contract,Tender Complete,No,Yes
Ferenc Gall,Sanctuary Housing Association,Balint Fabok,Elec,01/04/2013,31/03/2014,01,801,001,1414123980000,5 9 Wye House,27145,,NHH,,British Gas,Corporate,5  8 Wye House,Peak Drive,Dudley,West Midlands,DY3 2BZ,LV,0,1,,,0,1226,,,,,Fixed Contract,Tender Complete,No,Yes
Ferenc Gall,Sanctuary Housing Association,Balint Fabok,Elec,01/04/2013,31/03/2014,03,031,007,1414730381003,153 187 Bretch Hill,27146,,NHH,,British Gas,Corporate,153 187 Bretch Hill,,Banbury,Oxfordshire,OX16 0JZ,LV,0,1,,,0,7160,,,,,Fixed Contract,Tender Complete,No,Yes
Ferenc Gall,Sanctuary Housing Association,Balint Fabok,Elec,01/04/2013,31/03/2014,03,031,007,1414868381008,28 54 Hearthway,27147,,NHH,,British Gas,Corporate,28 54 Hearthway,Hearthway,Banbury,Oxfordshire,OX16 1QP,LV,0,1,,,0,5785,,,,,Fixed Contract,Tender Complete,No,Yes
Ferenc Gall,Sanctuary Housing Association,Balint Fabok,Elec,01/04/2013,31/03/2014,03,801,007,1415283281000,Gillett Road,27150,,NHH,,British Gas,Corporate,Gillett Road,,Banbury,Oxfordshire,OX16 0EA,LV,0,1,,,0,934,,,,,Fixed Contract,Tender Complete,No,Yes
Ferenc Gall,Sanctuary Housing Association,Balint Fabok,Elec,01/04/2013,31/03/2014,03,031,007,1415530381004,189 223 Bretch Hill,27151,,NHH,,British Gas,Corporate,189 223 Bretch Hill,,Banbury,Oxfordshire,OX16 0JZ,LV,0,1,,,0,23628,,,,,Fixed Contract,Tender Complete,No,Yes
Ferenc Gall,Sanctuary Housing Association,Balint Fabok,Elec,01/04/2013,31/03/2014,03,031,007,1415658281005,55 Orchard Way,27152,,NHH,,British Gas,Corporate,Landlord Supply,55 Orchard Way,Banbury,Oxfordshire,OX16 0HR,LV,0,1,,,0,1031,,,,,Fixed Contract,Tender Complete,No,Yes
Ferenc Gall,Sanctuary Housing Association,Balint Fabok,Elec,01/04/2013,31/03/2014,02,811,004,1415976501008,2 Chad Valley Close Fl 3,27153,,NHH,,Npower Limited,Corporate,Landlord Supply ,Flat 3 2 Chad Valley Close,,West Midlands,B17 9LN,LV,0,1,,,0,1958,,,,,Fixed Contract,Tender Complete,No,Yes
Ferenc Gall,Sanctuary Housing Association,Balint Fabok,Elec,01/04/2013,31/03/2014,02,811,004,1415994803007,Mawle Court Flat 7,27154,,NHH,,Npower Limited,Corporate,Mawle Court Flat 7,,,Oxfordshire,OX16 5BP,LV,0,1,,,0,1,,,,,Fixed Contract,Tender Complete,No,Yes
Ferenc Gall,Sanctuary Housing Association,Balint Fabok,Elec,01/04/2013,31/03/2014,03,031,007,1416330381005,225 259 Bretch Hill,27155,,NHH,,British Gas,Corporate,225 259 Bretch Hill,,Banbury,Oxfordshire,OX16 0JZ,LV,0,1,,,0,9470,,,,,Fixed Contract,Tender Complete,No,Yes
Ferenc Gall,Sanctuary Housing Association,Balint Fabok,Elec,01/04/2013,31/03/2014,03,801,007,1416808871001,76 78 Middleton Road,27156,,NHH,,British Gas,Corporate,Landlord Supply ,76 78 Middleton Road,Banbury,Oxfordshire,OX16 4RE,LV,0,1,,,0,520,,,,,Fixed Contract,Tender Complete,No,Yes
Ferenc Gall,Sanctuary Housing Association,Balint Fabok,Elec,01/04/2013,31/03/2014,03,801,007,1416824381009,5 8 Penrose Close,27157,,NHH,,British Gas,Corporate,Landlord Supply ,5 8 Penrose Close,Banbury,Oxfordshire,OX16 0QS,LV,0,1,,,0,783,,,,,Fixed Contract,Tender Complete,No,Yes
Ferenc Gall,Sanctuary Housing Association,Balint Fabok,Elec,01/04/2013,31/03/2014,02,811,004,1416994803009,Mawle Court Bedsit 8,27158,,NHH,,British Gas,Corporate,Mawle Court Bedsit 8,,,Oxfordshire,OX16 5BP,LV,0,1,,,0,4997,,,,,Fixed Contract,Tender Complete,No,Yes
Ferenc Gall,Sanctuary Housing Association,Balint Fabok,Elec,01/04/2013,31/03/2014,03,801,007,1417306871004,23 25 Old Grimsbury Road,27159,,NHH,,British Gas,Corporate,Landlord Supply ,23 25 Old Grimsbury Road,Banbury,Oxfordshire,OX16 3HG,LV,0,1,,,0,300,,,,,Fixed Contract,Tender Complete,No,Yes
Ferenc Gall,Sanctuary Housing Association,Balint Fabok,Elec,01/04/2013,31/03/2014,03,801,007,1418183281000,Gillett Road,27160,,NHH,,British Gas,Corporate,Gillett Road,,Banbury,Oxfordshire,OX16 0EA,LV,0,1,,,0,1006,,,,,Fixed Contract,Tender Complete,No,Yes
Ferenc Gall,Sanctuary Housing Association,Balint Fabok,Elec,01/04/2013,31/03/2014,03,801,007,1418540081008,Newbridge House,27161,,NHH,,British Gas,Corporate,1 6 Newbridge House,Lambs Crescent,Banbury,Oxfordshire,OX16 9BZ,LV,0,1,,,0,413,,,,,Fixed Contract,Tender Complete,No,Yes
Ferenc Gall,Sanctuary Housing Association,Balint Fabok,Elec,01/04/2013,31/03/2014,03,801,007,1418672281000,26 32 Penrose Drive,27164,,NHH,,British Gas,Corporate,Landlord Supply ,26 32 Penrose Drive,Banbury,Oxfordshire,OX16 0PS,LV,0,1,,,0,1172,,,,,Fixed Contract,Tender Complete,No,Yes
Ferenc Gall,Sanctuary Housing Association,Balint Fabok,Elec,01/04/2013,31/03/2014,03,031,007,1418772281005,10 16 Penrose Drive,27165,,NHH,,British Gas,Corporate,Landlord Supply ,10 16 Penrose Drive,Banbury,Oxfordshire,OX16 0PS,LV,0,1,,,0,1356,,,,,Fixed Contract,Tender Complete,No,Yes
Ferenc Gall,Sanctuary Housing Association,Balint Fabok,Elec,01/04/2013,31/03/2014,03,801,007,1418801281009,2 8 Stanbridge Close,27166,,NHH,,British Gas,Corporate,Landlord Supply ,2 8 Stanbridge Close,Banbury,Oxfordshire,OX16 0NR,LV,0,1,,,0,984,,,,,Fixed Contract,Tender Complete,No,Yes
Ferenc Gall,Sanctuary Housing Association,Balint Fabok,Elec,01/04/2013,31/03/2014,02,814,004,1419361271009,Shaftsbury Place Fl 27,27167,,NHH,,Npower Limited,Corporate,52 Marsland Road,Shaftesbury Place,,,GL51 0JA,LV,0,1,,,0,1,,,,,Fixed Contract,Tender Complete,No,Yes
Ferenc Gall,Sanctuary Housing Association,Balint Fabok,Elec,01/04/2013,31/03/2014,03,801,007,1419426871008,1 6 East Close,27168,,NHH,,British Gas,Corporate,Landlords Supply 1 6 East Close,East Street,Banbury,Oxfordshire,OX16 3LN,LV,0,1,,,0,1216,,,,,Fixed Contract,Tender Complete,No,Yes
Ferenc Gall,Sanctuary Housing Association,Balint Fabok,Elec,01/04/2013,31/03/2014,03,801,007,1419597871005,97 99 Middleton Road,27169,,NHH,,British Gas,Corporate,Landlord Supply ,97 99 Middleton Road,Banbury,Oxfordshire,OX16 3QS,LV,0,1,,,0,253,,,,,Fixed Contract,Tender Complete,No,Yes
Ferenc Gall,Sanctuary Housing Association,Balint Fabok,Elec,01/04/2013,31/03/2014,03,801,007,1419609530001,Bateman Memorial Almhouses,27170,,NHH,,British Gas,Corporate,Bateman Memorial Almshouses,Grange Road,Biddulph,Staffordshire,ST8 7SB,LV,0,1,,,0,526,,,,,Fixed Contract,Tender Complete,No,Yes
Ferenc Gall,Sanctuary Housing Association,Balint Fabok,Elec,01/04/2013,31/03/2014,03,801,007,1419824381004,3 4 Penrose Close,27171,,NHH,,British Gas,Corporate,Landlords Supply ,3 4 Penrose Close,Banbury,Oxfordshire,OX16 0QS,LV,0,1,,,0,430,,,,,Fixed Contract,Tender Complete,No,Yes
Ferenc Gall,Sanctuary Housing Association,Balint Fabok,Elec,01/04/2013,31/03/2014,08,034,021,1427556100002,Margaret House,27172,,NHH,,British Gas,Corporate,Margaret House,Berryfields Road,Sutton Coldfield,West Midlands,B76 2UG,LV,0,1,,,0,36654,,,,,Fixed Contract,Tender Complete,No,Yes
Ferenc Gall,Sanctuary Housing Association,Balint Fabok,Elec,01/04/2013,31/03/2014,02,811,004,1460000258252,The Old Mill House,27173,,NHH,,British Gas,Corporate,Landlord Supply ,The Old Mill House,Hanley,,TF2 7BQ,LV,0,1,,,0,1,,,,,Fixed Contract,Tender Complete,No,Yes
Ferenc Gall,Sanctuary Housing Association,Balint Fabok,Elec,01/04/2013,31/03/2014,01,801,007,1460000516298,Maguire Court,27174,,NHH,,British Gas,Corporate,Landlord Supply,Hampton Street,Hanley,,ST1 3ES,LV,0,1,,,0,15872,,,,,Fixed Contract,Tender Complete,No,Yes
Ferenc Gall,Sanctuary Housing Association,Balint Fabok,Elec,01/04/2013,31/03/2014,01,801,007,1460001187578,24 35 Bamford House,27176,,NHH,,EON,Corporate,Landlord Supply ,24 35 Bamford House Hollins Drive,Stafford,,ST16 1FA,LV,0,1,,,0,1,,,,,Fixed Contract,Tender Complete,No,Yes
Ferenc Gall,Sanctuary Housing Association,Balint Fabok,Elec,01/04/2013,31/03/2014,01,801,001,1460001330087,Pitts Farm Road,27177,,NHH,,British Gas,Corporate,Apartment 5 ,44 Pitts Farm Road,Erdington,West Midlands,B24 0HF,LV,0,1,,,0,1,,,,,Fixed Contract,Tender Complete,No,Yes
Ferenc Gall,Sanctuary Housing Association,Balint Fabok,Elec,01/04/2013,31/03/2014,03,801,007,1460001603320,16 18 Scholars Gate,27178,,NHH,,British Gas,Corporate,Landlord Supp 16-18,Scholars Gate The Garthlands,Stafford,,ST17 9ZP,LV,0,1,,,0,11392,,,,,Fixed Contract,Tender Complete,No,Yes
Ferenc Gall,Sanctuary Housing Association,Balint Fabok,Elec,01/04/2013,31/03/2014,03,801,001,1460001632570,Castle Moat Court Fl 1 3,27179,,NHH,,EON,Corporate,Landlord Supply Flats 1 3,1 Castle Moat Court Stanier Street,Newcastle-under-Lyme,Staffordshire,ST5 2SU,LV,0,1,,,0,1,,,,,Fixed Contract,Tender Complete,No,Yes
Ferenc Gall,Sanctuary Housing Association,Balint Fabok,Elec,01/04/2013,31/03/2014,03,801,001,1460001632580,Castle Moat Court Fl 4 9,27180,,NHH,,EON,Corporate,Landlord Supply Flats 4 9,2 Castle Moat Court Stanier Street,Newcastle-under-Lyme,Staffordshire,ST5 2SU,LV,0,1,,,0,1,,,,,Fixed Contract,Tender Complete,No,Yes
Ferenc Gall,Sanctuary Housing Association,Balint Fabok,Elec,01/04/2013,31/03/2014,03,801,001,1460001632613,Castle Moat Court Fl 19 24,27181,,NHH,,British Gas,Corporate,Landlord Supply Flats 19 24,5 Castle Moat Court Stanier Street,Newcastle-under-Lyme,Staffordshire,ST5 2SU,LV,0,1,,,0,6858,,,,,Fixed Contract,Tender Complete,No,Yes
Ferenc Gall,Sanctuary Housing Association,Balint Fabok,Elec,01/04/2013,31/03/2014,03,801,001,1460001632622,Castle Moat Court Fl 25 30,27182,,NHH,,British Gas,Corporate,Landlord Supply Flats 25 30,6 Castle Moat Court Stanier Street,Newcastle-under-Lyme,Staffordshire,ST5 2SU,LV,0,1,,,0,1,,,,,Fixed Contract,Tender Complete,No,Yes
Ferenc Gall,Sanctuary Housing Association,Balint Fabok,Elec,01/04/2013,31/03/2014,03,801,001,1460001632640,Castle Moat Court Fl 31 36,27183,,NHH,,British Gas,Corporate,Landlord Supply Flats 31 36,8 Castle Moat Court Stanier Street,Newcastle-under-Lyme,Staffordshire,ST5 2SU,LV,0,1,,,0,2499,,,,,Fixed Contract,Tender Complete,No,Yes
Ferenc Gall,Sanctuary Housing Association,Balint Fabok,Elec,01/04/2013,31/03/2014,01,801,001,1460001704524,43 Clips Moor,27184,,NHH,,EDF Energy,Corporate,43 Clips Moor,,Telford,Shropshire,TF4 2FL,LV,0,1,,,0,1,,,,,Fixed Contract,Tender Complete,No,Yes
Ferenc Gall,Sanctuary Housing Association,Balint Fabok,Elec,01/04/2013,31/03/2014,03,801,007,1460002236580,Ralphs Close,27185,,NHH,,EON,Corporate,Landlord Supply,Ralphs Close,Lawley Telford,Shropshire,TF4 2FX,LV,0,1,,,0,1,,,,,Fixed Contract,Tender Complete,No,Yes
Ferenc Gall,Sanctuary Housing Association,Balint Fabok,Elec,01/04/2013,31/03/2014,06,801,021,1460002241385,Lime Tree Court,27186,,NHH,,EON,Corporate,Lime Tree Ct 108 Ettingshall Road,Bilston,Wolverhampton,Staffordshire,WV14 9UG,LV,0,1,,,0,1,,,,,Fixed Contract,Tender Complete,No,Yes
Ferenc Gall,Sanctuary Housing Association,Balint Fabok,Elec,01/04/2013,31/03/2014,01,801,001,1591057371639,Eastfield Link Ctr Bl 1 Units 1 9,27187,,NHH,,EDF Energy,Corporate,Eastfield Link Centre Block 1 Units 1 9,Link Walk Eastfield,Scarborough,,YO11 3LR,LV,0,1,,,0,1010.4,,,,,Fixed Contract,Tender Complete,No,Yes
Ferenc Gall,Sanctuary Housing Association,Balint Fabok,Elec,01/04/2013,31/03/2014,03,801,131,1610023725625,The Plantation,27188,,NHH,,EON,Corporate,Sewage Pump,The Plantation Sheltered Housing,Tosside,West Yorkshire,BD23 4SD,LV,0,1,,,0,1,,,,,Fixed Contract,Tender Complete,No,Yes
Ferenc Gall,Sanctuary Housing Association,Balint Fabok,Elec,01/04/2013,31/03/2014,01,801,100,1700051168275,Station Road,27189,,NHH,,EDF Energy,Corporate,Landlord Supply,Station Road,Kemnay,Aberdeenshire,AB51 5RE,LV,0,1,,,0,214,,,,,Fixed Contract,Tender Complete,No,Yes
Ferenc Gall,Sanctuary Housing Association,Balint Fabok,Elec,01/04/2013,31/03/2014,01,801,100,1700051259825,1 5 Scotscraig Street,27190,,NHH,,British Gas,Corporate,Landlord Supply,1 5 Scotscraig Street,Dundee,,DD2 3GX,LV,0,1,,,0,4356,,,,,Fixed Contract,Tender Complete,No,Yes
Ferenc Gall,Sanctuary Housing Association,Balint Fabok,Elec,01/04/2013,31/03/2014,01,801,100,1700051733642,Caledonia Court,27191,,NHH,,EDF Energy,Corporate,9 High Street,Caledonia Court Landlord Supply,Fraserburgh,Aberdeenshire,AB43 9HJ,LV,0,1,,,0,27521,,,,,Fixed Contract,Tender Complete,No,Yes
Ferenc Gall,Sanctuary Housing Association,Balint Fabok,Elec,01/04/2013,31/03/2014,01,801,100,1700052034191,Cooperage House,27192,,NHH,,EDF Energy,Corporate,Landlord Supply,Cooperage House,Peterhead,Aberdeenshire,AB42 1AP,LV,0,1,,,0,5401,,,,,Fixed Contract,Tender Complete,No,Yes
Ferenc Gall,Sanctuary Housing Association,Balint Fabok,Elec,01/04/2013,31/03/2014,01,801,100,1700052296535,Sunnyside Court,27193,,NHH,,EDF Energy,Corporate,Landlord Supply,1 12 Sunnyside Court,Portlethen,Aberdeenshire,AB12 4LY,LV,0,1,,,0,2674,,,,,Fixed Contract,Tender Complete,No,Yes
Ferenc Gall,Sanctuary Housing Association,Balint Fabok,Elec,01/04/2013,31/03/2014,01,801,100,1700052388656,Old Mart Place,27194,,NHH,,EDF Energy,Corporate,Landlord Supply,Old Mart Place,Aboyne,Aberdeenshire,AB34 5NL,LV,0,1,,,0,3847,,,,,Fixed Contract,Tender Complete,No,Yes
Ferenc Gall,Sanctuary Housing Association,Balint Fabok,Elec,01/04/2013,31/03/2014,03,110,0,1714734195000,Park St Common Room,27195,,NHH,,EDF Energy,Corporate,Park Street Common Room,47 Park Street,Aberdeen,Aberdeenshire,AB24 1LH,LV,0,1,,,0,18106,,,,,Fixed Contract,Tender Complete,No,Yes
Ferenc Gall,Sanctuary Housing Association,Balint Fabok,Elec,01/04/2013,31/03/2014,01,110,0,1714764700036,Aboyne Terrace Common Room,27196,,NHH,,EDF Energy,Corporate,Aboyne Terrace Common Room,Garthdee,Aberdeen,Aberdeenshire,AB10 7DZ,LV,0,1,,,0,17029,,,,,Fixed Contract,Tender Complete,No,Yes
Ferenc Gall,Sanctuary Housing Association,Balint Fabok,Elec,01/04/2013,31/03/2014,01,801,100,1714766965809,32 Pitmedden Crescent,27197,,NHH,,EDF Energy,Corporate,32 Pitmedden Crescent LL,Garthdee,Aberdeen,Aberdeenshire,AB10 7FH,LV,0,1,,,0,974,,,,,Fixed Contract,Tender Complete,No,Yes
Ferenc Gall,Sanctuary Housing Association,Balint Fabok,Elec,01/04/2013,31/03/2014,01,105,801,1714766966157,30 Pitmedden Crescent,27198,,NHH,,EDF Energy,Corporate,30 Pitmedden Crescent LL,Garthdee,Aberdeen,Aberdeenshire,AB10 7FH,LV,0,1,,,0,1188,,,,,Fixed Contract,Tender Complete,No,Yes
Ferenc Gall,Sanctuary Housing Association,Balint Fabok,Elec,01/04/2013,31/03/2014,01,105,801,1714766966403,28 Pitmedden Crescent,27199,,NHH,,EDF Energy,Corporate,28 Pitmedden Crescent LL,Garthdee,Aberdeen,Aberdeenshire,AB10 7FH,LV,0,1,,,0,1295,,,,,Fixed Contract,Tender Complete,No,Yes
Ferenc Gall,Sanctuary Housing Association,Balint Fabok,Elec,01/04/2013,31/03/2014,01,105,801,1714766966653,26 Pitmedden Crescent,27200,,NHH,,EDF Energy,Corporate,26 Pitmedden Crescent LL,Garthdee,Aberdeen,Aberdeenshire,AB10 7FH,LV,0,1,,,0,2444,,,,,Fixed Contract,Tender Complete,No,Yes
Ferenc Gall,Sanctuary Housing Association,Balint Fabok,Elec,01/04/2013,31/03/2014,03,110,0,1714854520507,Bressay Brae Common Room,27201,,NHH,,EDF Energy,Corporate,Bressay Brae Common Room,20 Bressay Brae,Aberdeen,Aberdeenshire,AB15 6WJ,LV,0,1,,,0,11380,,,,,Fixed Contract,Tender Complete,No,Yes
Ferenc Gall,Sanctuary Housing Association,Balint Fabok,Elec,01/04/2013,31/03/2014,01,110,050,1715012860037,8 Burnside Court,27202,,NHH,,EDF Energy,Corporate,Burnside Court Stairlift ,8 Burnside Court,Mintlaw,Aberdeenshire,AB42 5FP,LV,0,1,,,0,250,,,,,Fixed Contract,Tender Complete,No,Yes
Ferenc Gall,Sanctuary Housing Association,Balint Fabok,Elec,01/04/2013,31/03/2014,01,105,801,1715012860997,20 Burnside Court Stair Lift,27203,,NHH,,EDF Energy,Corporate,Burnside Court Stairlift ,20 Burnside Court,Mintlaw,Aberdeenshire,AB42 5FP,LV,0,1,,,0,315,,,,,Fixed Contract,Tender Complete,No,Yes
Ferenc Gall,Sanctuary Housing Association,Balint Fabok,Elec,01/04/2013,31/03/2014,01,801,100,1715012861147,23 Burnside Court Stair Lift,27204,,NHH,,EDF Energy,Corporate,Burnside Court Stairlift ,23 Burnside Court,Mintlaw,Aberdeenshire,AB42 5FP,LV,0,1,,,0,320,,,,,Fixed Contract,Tender Complete,No,Yes
Ferenc Gall,Sanctuary Housing Association,Balint Fabok,Elec,01/04/2013,31/03/2014,01,801,100,1715012861290,26 Burnside Court Stair Lift,27205,,NHH,,EDF Energy,Corporate,Burnside Court Stairlift ,26 Burnside Court,Mintlaw,Aberdeenshire,AB42 5FP,LV,0,1,,,0,300,,,,,Fixed Contract,Tender Complete,No,Yes
Ferenc Gall,Sanctuary Housing Association,Balint Fabok,Elec,01/04/2013,31/03/2014,03,110,0,1715050790938,Roanheads Common Room,27206,,NHH,,EDF Energy,Corporate,Roanheads Common Room,Great Stuart Street,Peterhead,Aberdeenshire,AB42 1JX,LV,0,1,,,0,2021,,,,,Fixed Contract,Tender Complete,No,Yes
Ferenc Gall,Sanctuary Housing Association,Balint Fabok,Elec,01/04/2013,31/03/2014,01,105,801,1715401111215,9 12 Wilson Court,27207,,NHH,,EDF Energy,Corporate,9 12 Wilson Court LL,Port Elphinstone,Inverurie,Aberdeenshire,AB51 3JA,LV,0,1,,,0,891,,,,,Fixed Contract,Tender Complete,No,Yes
Ferenc Gall,Sanctuary Housing Association,Balint Fabok,Elec,01/04/2013,31/03/2014,01,105,801,1715401111224,1 8 Wilson Court,27208,,NHH,,EDF Energy,Corporate,1 8 Wilson Court LL,Port Elphinstone,Inverurie,Aberdeenshire,AB51 3JA,LV,0,1,,,0,1763,,,,,Fixed Contract,Tender Complete,No,Yes
Ferenc Gall,Sanctuary Housing Association,Balint Fabok,Elec,01/04/2013,31/03/2014,01,105,801,1715401111916,14 19 Wilson Court,27209,,NHH,,British Gas,Corporate,14 19 Wilson Court LL,Port Elphinstone,Inverurie,Aberdeenshire,AB51 3JA,LV,0,1,,,0,1036,,,,,Fixed Contract,Tender Complete,No,Yes
Ferenc Gall,Sanctuary Housing Association,Balint Fabok,Elec,01/04/2013,31/03/2014,01,801,100,1716113375509,10 Maplewood Drive,27210,,NHH,,Npower Limited,Corporate,10 Maplewood Drive,,Dundee,,DD2 3GF,LV,0,1,,,0,1014,,,,,Fixed Contract,Tender Complete,No,Yes
Ferenc Gall,Sanctuary Housing Association,Balint Fabok,Elec,01/04/2013,31/03/2014,01,500,100,1716153638505,10 Turnberry Avenue,27211,,NHH,,British Gas,Corporate,10 Turnberry Avenue,,Dundee,,DD2 3TU,LV,0,1,,,0,1,,,,,Fixed Contract,Tender Complete,No,Yes
Ferenc Gall,Sanctuary Housing Association,Balint Fabok,Elec,01/04/2013,31/03/2014,01,801,300,1900040400240,11 14 Dennis Hobden,27212,,NHH,,EDF Energy,Corporate,Landlord Supply 11 - 15,11 15 Dennis Hobden,Brighton,West Sussex,BN2 4BZ,LV,0,1,,,0,4174,,,,,Fixed Contract,Tender Complete,No,Yes
Ferenc Gall,Sanctuary Housing Association,Balint Fabok,Elec,01/04/2013,31/03/2014,03,801,320,1900047332180,1 7 Eady Close,27213,,NHH,,British Gas,Corporate,Landlord Supply 1 - 7,1 7 Eady Close,Horsham,,RH13 5LZ,LV,0,1,,,0,1,,,,,Fixed Contract,Tender Complete,No,Yes
Ferenc Gall,Sanctuary Housing Association,Balint Fabok,Elec,01/04/2013,31/03/2014,01,801,300,1900047360044,11 12 Robin Davis Close,27214,,NHH,,EDF Energy,Corporate,Landlord Supply 11 -12,11 12 Robin Davis Close,Brighton,West Sussex,BN2 4BU,LV,0,1,,,0,4362,,,,,Fixed Contract,Tender Complete,No,Yes
Ferenc Gall,Sanctuary Housing Association,Balint Fabok,Elec,01/04/2013,31/03/2014,01,801,300,1900060321610,John Ash Court Fl 1 4,27215,,NHH,,EDF Energy,Corporate,Landlord Supply Flats 1  4 John Ash Court,13 Western Street,Brighton,West Sussex,BN1 2PG,LV,0,1,,,0,1686,,,,,Fixed Contract,Tender Complete,No,Yes
Ferenc Gall,Sanctuary Housing Association,Balint Fabok,Elec,01/04/2013,31/03/2014,03,802,320,1900090629220,The Blue Warren,27216,,NHH,,EDF Energy,Corporate,The Warren,Summer Hill,Canterbury,,CT2 8ND,LV,0,1,,,0,1,,,,,Fixed Contract,Tender Complete,No,Yes
Ferenc Gall,Sanctuary Housing Association,Balint Fabok,Elec,01/04/2013,31/03/2014,03,802,320,1900090632143,Sandison Court Fl 1 4,27217,,NHH,,EDF Energy,Corporate,Landlord Supply Flats 1 4 ,1 Lanthorne Court Lanthorne Road,Broadstairs,,CT10 3PB,LV,0,1,,,0,1,,,,,Fixed Contract,Tender Complete,No,Yes
Ferenc Gall,Sanctuary Housing Association,Balint Fabok,Elec,01/04/2013,31/03/2014,03,802,320,1900090636741,1 8 58 Maynard Avenue,27218,,NHH,,EDF Energy,Corporate,Landlord Supply ,1 8  58 Maynard Avenue,Margate,,CT9 5PT,LV,0,1,,,0,1,,,,,Fixed Contract,Tender Complete,No,Yes
Ferenc Gall,Sanctuary Housing Association,Balint Fabok,Elec,01/04/2013,31/03/2014,04,108,136,2000008360093,Bardwell Terrace,27219,,NHH,,British Gas,Corporate,Landlords Supply,Bardwell Terrace,Bicester,Oxfordshire,OX26 6RL,LV,0,1,,,0,23604,,,,,Fixed Contract,Tender Complete,No,Yes
Ferenc Gall,Sanctuary Housing Association,Balint Fabok,Elec,01/04/2013,31/03/2014,03,801,126,2000008392030,74 North Street,27220,,NHH,,British Gas,Corporate,Landlords Supply ,74 North Street,Bicester,Oxfordshire,OX26 6NF,LV,0,1,,,0,1252,,,,,Fixed Contract,Tender Complete,No,Yes
Ferenc Gall,Sanctuary Housing Association,Balint Fabok,Elec,01/04/2013,31/03/2014,03,801,126,2000008392129,North Street,27221,,NHH,,British Gas,Corporate,Landlords Supply,North Street,Bicester,Oxfordshire,OX26 6NY,LV,0,1,,,0,662,,,,,Fixed Contract,Tender Complete,No,Yes
Ferenc Gall,Sanctuary Housing Association,Balint Fabok,Elec,01/04/2013,31/03/2014,01,801,100,2000008403880,Duxford Close,27222,,NHH,,British Gas,Corporate,Landlords Area,Duxford Close,Bicester,Oxfordshire,OX26 4FW,LV,0,1,,,0,207,,,,,Fixed Contract,Tender Complete,No,Yes
Ferenc Gall,Sanctuary Housing Association,Balint Fabok,Elec,01/04/2013,31/03/2014,03,801,126,2000008406739,Woodfield Road Fl 8 9,27223,,NHH,,British Gas,Corporate,Outside Lighting ,Flats 8 9 Woodfield Road,Bicester,Oxfordshire,OX26 3HN,LV,0,1,,,0,178,,,,,Fixed Contract,Tender Complete,No,Yes
Ferenc Gall,Sanctuary Housing Association,Balint Fabok,Elec,01/04/2013,31/03/2014,03,801,126,2000008407157,44 48 Woodfield Road,27224,,NHH,,British Gas,Corporate,Lighting,44 48 Woodfield Road,Bicester,Oxfordshire,OX26 3HN,LV,0,1,,,0,287,,,,,Fixed Contract,Tender Complete,No,Yes
Ferenc Gall,Sanctuary Housing Association,Balint Fabok,Elec,01/04/2013,31/03/2014,03,801,126,2000008410363,Lerwick Croft,27225,,NHH,,British Gas,Corporate,Landlord Supply,Lerwick Croft,Bicester,Oxfordshire,OX26 4XX,LV,0,1,,,0,3232,,,,,Fixed Contract,Tender Complete,No,Yes
Ferenc Gall,Sanctuary Housing Association,Balint Fabok,Elec,01/04/2013,31/03/2014,03,801,126,2000008411241,13 19 Blake Road,27226,,NHH,,British Gas,Corporate,Landlord Lighting ,13 19 Blake Road,Bicester,Oxfordshire,OX26 3HG,LV,0,1,,,0,431,,,,,Fixed Contract,Tender Complete,No,Yes
Ferenc Gall,Sanctuary Housing Association,Balint Fabok,Elec,01/04/2013,31/03/2014,03,801,126,2000008411491,33 39 Blake Road,27227,,NHH,,Opus Energy,Corporate,Flat 5 ,33 39 Blake Road,Bicester,Oxfordshire,OX26 3HG,LV,0,1,,,0,562,,,,,Fixed Contract,Tender Complete,No,Yes
Ferenc Gall,Sanctuary Housing Association,Balint Fabok,Elec,01/04/2013,31/03/2014,01,801,100,2000008415246,Hart Place,27228,,NHH,,British Gas,Corporate,Landlords Supply,Hart Place,Bicester,Oxfordshire,OX26 4FR,LV,0,1,,,0,1572,,,,,Fixed Contract,Tender Complete,No,Yes
Ferenc Gall,Sanctuary Housing Association,Balint Fabok,Elec,01/04/2013,31/03/2014,03,801,126,2000008465558,Colne House,27229,,NHH,,British Gas,Corporate,Passage Lighting Colne House,6 Colne Close,Bicester,Oxfordshire,OX26 2AP,LV,0,1,,,0,100,,,,,Fixed Contract,Tender Complete,No,Yes
Ferenc Gall,Sanctuary Housing Association,Balint Fabok,Elec,01/04/2013,31/03/2014,04,065,129,2000008465585,Colne House 585,27230,,NHH,,British Gas,Corporate,Passage Lighting Colne House,6 Colne Close,Bicester,Oxfordshire,OX26 2AP,LV,0,1,,,0,2268,,,,,Fixed Contract,Tender Complete,No,Yes
Ferenc Gall,Sanctuary Housing Association,Balint Fabok,Elec,01/04/2013,31/03/2014,04,065,129,2000008465850,Evenlode House,27231,,NHH,,British Gas,Corporate,Passageway Lighting Evenlode House,Evenlode Close,Banbury,Oxfordshire,OX26 2AN,LV,0,1,,,0,46739,,,,,Fixed Contract,Tender Complete,No,Yes
Ferenc Gall,Sanctuary Housing Association,Balint Fabok,Elec,01/04/2013,31/03/2014,03,801,126,2000008465869,Evenlode House 869,27232,,NHH,,British Gas,Corporate,Passageway Lighting Evenlode House,Evenlode Close,Banbury,Oxfordshire,OX26 2AN,LV,0,1,,,0,389,,,,,Fixed Contract,Tender Complete,No,Yes
Ferenc Gall,Sanctuary Housing Association,Balint Fabok,Elec,01/04/2013,31/03/2014,03,801,126,2000008468451,11 14 Lodden Close,27233,,NHH,,British Gas,Corporate,Public Lighting,11 14 Lodden Close,Bicester,Oxfordshire,OX26 2AZ,LV,0,1,,,0,848,,,,,Fixed Contract,Tender Complete,No,Yes
Ferenc Gall,Sanctuary Housing Association,Balint Fabok,Elec,01/04/2013,31/03/2014,03,801,126,2000008501676,37 Spruce Road Common Room 11,27234,,NHH,,British Gas,Corporate,New Common Room 11 ,37 Spruce Road,Kidlington,Oxfordshire,OX5 1EX,LV,0,1,,,0,1710,,,,,Fixed Contract,Tender Complete,No,Yes
Ferenc Gall,Sanctuary Housing Association,Balint Fabok,Elec,01/04/2013,31/03/2014,03,801,126,2000008512180,1 4 Evans Lane,27235,,NHH,,British Gas,Corporate,Landlord Supply ,1 4 Evans Lane,Kidlington,Oxfordshire,OX5 2JA,LV,0,1,,,0,112,,,,,Fixed Contract,Tender Complete,No,Yes
Ferenc Gall,Sanctuary Housing Association,Balint Fabok,Elec,01/04/2013,31/03/2014,03,801,126,2000008512446,115 Evans Lane,27236,,NHH,,British Gas,Corporate,Landlord Supply ,115 Evans Lane,Kidlington,Oxfordshire,OX5 2JB,LV,0,1,,,0,327,,,,,Fixed Contract,Tender Complete,No,Yes
Ferenc Gall,Sanctuary Housing Association,Balint Fabok,Elec,01/04/2013,31/03/2014,02,002,116,2000008512473,115 Evans Lane,27237,,NHH,,British Gas,Corporate,Landlord Supply ,115 Evans Lane,Kidlington,Oxfordshire,OX5 2JB,LV,0,1,,,0,100,,,,,Fixed Contract,Tender Complete,No,Yes
Ferenc Gall,Sanctuary Housing Association,Balint Fabok,Elec,01/04/2013,31/03/2014,03,801,126,2000008514035,2 8 Croft Avenue,27238,,NHH,,British Gas,Corporate,Landlord Supply ,2 8 Croft Avenue,Kidlington,Oxfordshire,OX5 2HU,LV,0,1,,,0,1455,,,,,Fixed Contract,Tender Complete,No,Yes
Ferenc Gall,Sanctuary Housing Association,Balint Fabok,Elec,01/04/2013,31/03/2014,03,801,126,2000008516636,Ploughley House,27239,,NHH,,British Gas,Corporate,Landlords Supply ,Ploughley House Brasenose Drive,Kidlington,Oxfordshire,OX5 2XD,LV,0,1,,,0,820,,,,,Fixed Contract,Tender Complete,No,Yes
Ferenc Gall,Sanctuary Housing Association,Balint Fabok,Elec,01/04/2013,31/03/2014,03,801,126,2000008568990,11 Charlbury Close Day Centre,27240,,NHH,,British Gas,Corporate,Common Room Day Centre ,11 Charlbury Close,Kidlington,Oxfordshire,OX5 2BW,LV,0,1,,,0,2287,,,,,Fixed Contract,Tender Complete,No,Yes
Ferenc Gall,Sanctuary Housing Association,Balint Fabok,Elec,01/04/2013,31/03/2014,03,801,126,2000008579618,Bellenger Way,27241,,NHH,,British Gas,Corporate,Bellenger Way,Kidlington,Oxford,Oxfordshire,OX5 1TR,LV,0,1,,,0,1696,,,,,Fixed Contract,Tender Complete,No,Yes
Ferenc Gall,Sanctuary Housing Association,Balint Fabok,Elec,01/04/2013,31/03/2014,02,631,116,2000008591527,12a Annesley Close Guest Room,27242,,NHH,,British Gas,Corporate,Landlord Supply Guest Room ,12a Annesley Close,Bletchingdon,Oxfordshire,OX5 3DG,LV,0,1,,,0,83,,,,,Fixed Contract,Tender Complete,No,Yes
Ferenc Gall,Sanctuary Housing Association,Balint Fabok,Elec,01/04/2013,31/03/2014,01,501,100,2000008591536,12a Annesley Close Guest Room,27242,,NHH,,British Gas,Corporate,Landlord Supply Guest Room ,12a Annesley Close,Bletchingdon,Oxfordshire,OX5 3DG,LV,0,1,,,0,506,,,,,Fixed Contract,Tender Complete,No,Yes
Ferenc Gall,Sanctuary Housing Association,Balint Fabok,Elec,01/04/2013,31/03/2014,01,501,100,2000008693567,Park Close Guest Room,27244,,NHH,,British Gas,Corporate,Park Close Guest Room,Yarnton,Kidlington,Oxfordshire,OX5 1QQ,LV,0,1,,,0,413,,,,,Fixed Contract,Tender Complete,No,Yes
Ferenc Gall,Sanctuary Housing Association,Balint Fabok,Elec,01/04/2013,31/03/2014,01,801,100,2000011949169,6 Shaplands,27245,,NHH,,British Gas,Corporate,6 Shaplands,,Lower Stratton,,SN3 4FF,LV,0,1,,,0,1,,,,,Fixed Contract,Tender Complete,No,Yes
Ferenc Gall,Sanctuary Housing Association,Balint Fabok,Elec,01/04/2013,31/03/2014,01,801,100,2000015804954,33 Montserrat Road,27246,,NHH,,British Gas,Corporate,33 Montserrat Road,,Lee On The Solent,,PO13 9LT,LV,0,1,,,0,2338,,,,,Fixed Contract,Tender Complete,No,Yes
Ferenc Gall,Sanctuary Housing Association,Balint Fabok,Elec,01/04/2013,31/03/2014,04,065,129,2000050667478,Colne House,27247,,NHH,,British Gas,Corporate,Frost Heater Supply Colne House,Blake Road,Bicester,,OX26 2AP,LV,0,1,,,0,2651,,,,,Fixed Contract,Tender Complete,No,Yes
Ferenc Gall,Sanctuary Housing Association,Balint Fabok,Elec,01/04/2013,31/03/2014,03,801,127,2000052715910,3 Glenmore Business Park Unit C,27248,,NHH,,Npower Limited,Corporate,3 Glenmore Business Park Unit C,Telford Park,Salisbury,,SP2 7PH,LV,0,1,,,0,300,,,,,Fixed Contract,Tender Complete,No,Yes
Ferenc Gall,Sanctuary Housing Association,Balint Fabok,Elec,01/04/2013,31/03/2014,03,801,100,2000054799610,29 Tibbs Meadow Pumping Station,27249,,NHH,,EDF Energy,Corporate,29 Tibbs Meadow Pumping Station,,,,SP11 9HG,LV,0,1,,,0,1,,,,,Fixed Contract,Tender Complete,No,Yes
Ferenc Gall,Sanctuary Housing Association,Balint Fabok,Elec,01/04/2013,31/03/2014,04,562,280,2200010144716,49 60 Talbot Gardens,27250,,NHH,,EDF Energy,Corporate,Stairway Lgt,49 60 Talbot Gardens,Plymouth,,PL5 1BU,LV,0,1,,,0,1,,,,,Fixed Contract,Tender Complete,No,Yes
Ferenc Gall,Sanctuary Housing Association,Balint Fabok,Elec,01/04/2013,31/03/2014,02,807,040,2200010163471,14 Williams Avenue,27251,,NHH,,EDF Energy,Corporate,14 Williams Avenue LL,Williams Ave Radford Ave,Plymouth,,PL4 9NX,LV,0,1,,,0,1,,,,,Fixed Contract,Tender Complete,No,Yes
Ferenc Gall,Sanctuary Housing Association,Balint Fabok,Elec,01/04/2013,31/03/2014,02,042,040,2200010164002,16 Williams Avenue,27252,,NHH,,EDF Energy,Corporate,16 Williams Avenue LL,Williams Ave Radford Ave,Plymouth,,PL4 9NX,LV,0,1,,,0,1,,,,,Fixed Contract,Tender Complete,No,Yes
Ferenc Gall,Sanctuary Housing Association,Balint Fabok,Elec,01/04/2013,31/03/2014,01,801,010,2200010165984,Radford Avenue Block 1,27253,,NHH,,EDF Energy,Corporate,Block 1 Stwy Lighting,Radford Ave,Plymouth,,PL4 9PD,LV,0,1,,,0,1,,,,,Fixed Contract,Tender Complete,No,Yes
Ferenc Gall,Sanctuary Housing Association,Balint Fabok,Elec,01/04/2013,31/03/2014,03,046,270,2200012803200,The Homestead,27254,,NHH,,EDF Energy,Corporate,Landlord Supply,The Homestead Union Street,Cheddar,,BS27 3NB,LV,0,1,,,0,785.36,,,,,Fixed Contract,Tender Complete,No,Yes
Ferenc Gall,Sanctuary Housing Association,Balint Fabok,Elec,01/04/2013,31/03/2014,04,562,280,2200017758680,Edgecombe Close Block B,27255,,NHH,,EDF Energy,Corporate,Communal Supply Block B,Edgecombe Close,Kingswood,,BS15 4LX,LV,0,1,,,0,4346,,,,,Fixed Contract,Tender Complete,No,Yes
Ferenc Gall,Sanctuary Housing Association,Balint Fabok,Elec,01/04/2013,31/03/2014,03,801,110,2200023104138,21 Trevean Gardens,27256,,NHH,,EDF Energy,Corporate,Landlord Supply ,21 Trevean Gardens,Penzance,,TR18 4JD,LV,0,1,,,0,2675.01,,,,,Fixed Contract,Tender Complete,No,Yes
Ferenc Gall,Sanctuary Housing Association,Balint Fabok,Elec,01/04/2013,31/03/2014,03,801,110,2200032010080,New Cairn Road Pumping Station,27257,,NHH,,EDF Energy,Corporate,Pumping Station ,New Cairn Road Station Road,Ilfracombe,,EX34 8BP,LV,0,1,,,0,14000,,,,,Fixed Contract,Tender Complete,No,Yes
Ferenc Gall,Sanctuary Housing Association,Balint Fabok,Elec,01/04/2013,31/03/2014,04,563,281,2200032055986,Edgecombe Close Block B,27255,,NHH,,EDF Energy,Corporate,Communal Supply Block B ,Edgecombe Close,Kingswood,,BS15 4LX,LV,0,1,,,0,1498,,,,,Fixed Contract,Tender Complete,No,Yes
Ferenc Gall,Sanctuary Housing Association,Balint Fabok,Elec,01/04/2013,31/03/2014,03,801,110,2200041905279,36 38 Raleigh Close,27259,,NHH,,EON,Corporate,Landlord Supply ,36 38 Raleigh Close,Torquay,Devon,TQ2 6FE,LV,0,1,,,0,1,,,,,Fixed Contract,Tender Complete,No,Yes
Ferenc Gall,Sanctuary Housing Association,Balint Fabok,Elec,01/04/2013,31/03/2014,03,801,110,2200041905288,19 25 Raleigh Close,27260,,NHH,,EON,Corporate,Landlord Supply ,19 25 Raleigh Close,Torquay,Devon,TQ2 6FE,LV,0,1,,,0,1,,,,,Fixed Contract,Tender Complete,No,Yes
Ferenc Gall,Sanctuary Housing Association,Balint Fabok,Elec,01/04/2013,31/03/2014,06,801,570,2200042023643,Plymouth Family Station,27261,,NHH,,EDF Energy,Corporate,Plymouth Family Centre,11 13 Lower Compton Road,Plymouth,,PL3 5DH,LV,0,1,,,0,1,,,,,Fixed Contract,Tender Complete,No,Yes
Ferenc Gall,Sanctuary Housing Association,Balint Fabok,Elec,01/04/2013,31/03/2014,01,801,100,2300000959320,West Grove Terrace,27262,,NHH,,British Gas,Corporate,Landlord Supply,West Grove Terrace,Halifax,,HX1 5EX,LV,0,1,,,0,913,,,,,Fixed Contract,Tender Complete,No,Yes
Ferenc Gall,Sanctuary Housing Association,Balint Fabok,Elec,01/04/2013,31/03/2014,03,801,240,2332411190810,Shiregreen Neighbourhood Centre,27263,,NHH,,Npower Limited,Corporate,Shiregreen Neighbourhood Centre,,,,S5 0AA,LV,0,1,,,0,28442,,,,,Fixed Contract,Tender Complete,No,Yes
Ferenc Gall,Sanctuary Housing Association,Balint Fabok,Elec,01/04/2013,31/03/2014,03,500,240,2341710291410,Holt Farm Rise Block 1 4,27264,,NHH,,EDF Energy,Corporate,Landlord Block 1 4,Holt Farm Rise,Leeds,West Yorkshire,LS16 7SB,LV,0,1,,,0,3990,,,,,Fixed Contract,Tender Complete,No,Yes
Ferenc Gall,Sanctuary Housing Association,Balint Fabok,Elec,01/04/2013,31/03/2014,01,500,240,2341710291420,Holt Farm Rise Block 1 4,27264,,NHH,,EDF Energy,Corporate,Landlord Block 1 4,Holt Farm Rise,Leeds,West Yorkshire,LS16 7SB,LV,0,1,,,0,878,,,,,Fixed Contract,Tender Complete,No,Yes
Ferenc Gall,Sanctuary Housing Association,Balint Fabok,Elec,01/04/2013,31/03/2014,03,801,240,2363114723614,Unit 3D Newland Science Park,27265,,NHH,,British Gas,Corporate,Unit 3D Newland Science Park,Inglemire Lane,Hull,East Yorkshire,HU6 7TQ,LV,0,1,,,0,1,,,,,Fixed Contract,Tender Complete,No,Yes
Ferenc Gall,Sanctuary Housing Association,Balint Fabok,Elec,01/04/2013,31/03/2014,03,801,240,2372941432110,5 Cromwell Avenue,27266,,NHH,,British Gas,Corporate,Landlord Supply ,5 Cromwell Avenue,Grimsby,,DN31 2DR,LV,0,1,,,0,1,,,,,Fixed Contract,Tender Complete,No,Yes
Ferenc Gall,Sanctuary Housing Association,Balint Fabok,Elec,01/04/2013,31/03/2014,01,801,100,2380000644089,9 Meadow Side Road,27267,,NHH,,British Gas,Corporate,9 Meadow Side Road,East Ardsley,Wakefield,West Yorkshire,WF3 2LZ,LV,0,1,,,0,1,,,,,Fixed Contract,Tender Complete,No,Yes
Ferenc Gall,Sanctuary Housing Association,Balint Fabok,Elec,01/04/2013,31/03/2014,06,801,287,2380001656990,Shire Green Office,27268,,NHH,,Npower Limited,Corporate,Shire Green Office,36a Beck Road,Sheffield,South Yorkshire,S5 0GB,LV,0,1,,,0,1,,,,,Fixed Contract,Tender Complete,No,Yes
Ferenc Gall,Sanctuary Housing Association,Balint Fabok,Elec,01/04/2013,31/03/2014,01,801,542,2400000490607,20 Ketley Park Road Telford Office,27269,,NHH,,Npower Limited,Corporate,20 Ketley Park Road ,Telford Office,Telford,Shropshire,TF1 5DL,LV,0,1,,,0,1,,,,,Fixed Contract,Tender Complete,No,Yes
Ferenc Gall,Sanctuary Housing Association,Balint Fabok,Elec,01/04/2013,31/03/2014,01,801,940,2700000012138,5 Robins Meadow,27270,,NHH,,British Gas,Corporate,5 Robins Meadow,,Evesham,,WR11 4RJ,LV,0,1,,,0,1,,,,,Fixed Contract,Tender Complete,No,Yes
Ferenc Gall,Sanctuary Housing Association,Balint Fabok,Elec,01/04/2013,31/03/2014,03,801,142,2700000016452,Robins Corner Plot 10 15,27271,,NHH,,British Gas,Corporate,Landlord Supply Feedin Plot 10 15,Robins Corner ,Evesham,,WR11 4RJ,LV,0,1,,,0,312,,,,,Fixed Contract,Tender Complete,No,Yes
Ferenc Gall,Sanctuary Housing Association,Balint Fabok,Elec,01/04/2013,31/03/2014,03,801,142,2700000016461,Robins Corner Plot 16 26,27272,,NHH,,British Gas,Corporate,Landlord Supply Feeding Plots 16 26,Robins Corner,Evesham,,WR11 4RJ,LV,0,1,,,0,569,,,,,Fixed Contract,Tender Complete,No,Yes
