site_id,fuel,supplier_name,start_date,end_date,rate_allunit,rate_day,rate_night,usage_allunit,usage_day,usage_night,standingcharge_month,commission_kwh,commission_year,contract_type,tender_status,termination_optout,registration_confirmed,contract_id
6418,Elec,Total Gas & Power,01/10/2014,30/09/2016,1,,,2882020,,,,,,Flexible Basket Contract,Tender Complete,No,No,
9531,Elec,Total Gas & Power,01/07/2014,30/09/2017,1,,,14312334.3,,,,,,Flexible Contract,Tender Complete,No,No,
9571,Elec,GDF SUEZ Marketing Limited,01/04/2015,31/03/2018,1,,,116557,,,,,,Flexible Contract,Tender Complete,No,No,
9892,Elec,GDF SUEZ Marketing Limited,01/04/2015,31/03/2018,1,,,144842,,,,,,Flexible Contract,Tender Complete,No,No,
9893,Elec,GDF SUEZ Marketing Limited,01/04/2015,31/03/2018,1,,,69006,,,,,,Flexible Contract,Tender Complete,No,No,
9894,Elec,GDF SUEZ Marketing Limited,01/04/2015,31/03/2018,1,,,8768472,,,,,,Flexible Contract,Tender Complete,No,No,
9895,Elec,GDF SUEZ Marketing Limited,01/04/2015,31/03/2018,1,,,11394214.8,,,,,,Flexible Contract,Tender Complete,No,No,
9897,Elec,GDF SUEZ Marketing Limited,01/04/2015,31/03/2018,1,,,109723,,,,,,Flexible Contract,Tender Complete,No,No,
9898,Elec,GDF SUEZ Marketing Limited,01/04/2015,31/03/2018,1,,,219376,,,,,,Flexible Contract,Tender Complete,No,No,
9899,Elec,GDF SUEZ Marketing Limited,01/04/2015,31/03/2018,1,,,197876,,,,,,Flexible Contract,Tender Complete,No,No,
9900,Elec,GDF SUEZ Marketing Limited,01/04/2015,31/03/2018,1,,,127908,,,,,,Flexible Contract,Tender Complete,No,No,
9901,Elec,GDF SUEZ Marketing Limited,01/04/2015,31/03/2018,1,,,179717,,,,,,Flexible Contract,Tender Complete,No,No,
9902,Elec,GDF SUEZ Marketing Limited,01/04/2015,31/03/2018,1,,,63673,,,,,,Flexible Contract,Tender Complete,No,No,
9903,Elec,GDF SUEZ Marketing Limited,01/04/2015,31/03/2018,1,,,124998,,,,,,Flexible Contract,Tender Complete,No,No,
9904,Elec,GDF SUEZ Marketing Limited,01/04/2015,31/03/2018,1,,,50280,,,,,,Flexible Contract,Tender Complete,No,No,
9905,Elec,GDF SUEZ Marketing Limited,01/04/2015,31/03/2018,1,,,102237,,,,,,Flexible Contract,Tender Complete,No,No,
9906,Elec,GDF SUEZ Marketing Limited,01/04/2015,31/03/2018,1,,,280727,,,,,,Flexible Contract,Tender Complete,No,No,
9907,Elec,GDF SUEZ Marketing Limited,01/04/2015,31/03/2018,1,,,208184,,,,,,Flexible Contract,Tender Complete,No,No,
10016,Elec,Scottish and Southern Energy PLC,01/10/2014,30/09/2015,1,,,1580156.7,,,,,,Flexible Contract,Tender Complete,No,No,
10018,Elec,Scottish and Southern Energy PLC,01/10/2014,30/09/2015,1,,,251293.6,,,,,,Flexible Contract,Tender Complete,No,No,
10426,Elec,Npower Limited,01/04/2014,30/09/2016,1,,,318483.8,,,,,,Flexible Contract,Tender Complete,No,No,
10900,Elec,Total Gas & Power,01/07/2014,30/09/2017,1,,,13688665.3,,,,,,Flexible Contract,Tender Complete,No,No,
10901,Elec,Total Gas & Power,01/07/2014,30/09/2017,1,,,13861639.4,,,,,,Flexible Contract,Tender Complete,No,No,
10902,Elec,Total Gas & Power,01/07/2014,30/09/2017,1,,,665903.1,,,,,,Flexible Contract,Tender Complete,No,No,
10982,Elec,Npower Limited,01/01/2014,30/09/2016,1,,,395758,,,,,,Flexible Contract,Tender Complete,No,No,
11056,Elec,Total Gas & Power,01/10/2014,30/09/2016,1,,,38228669.7,,,,,,Flexible Contract,Tender Complete,No,No,
11099,Elec,Total Gas & Power,01/12/2014,30/11/2015,1,,,1467682.347,,,,,,Flexible Basket Contract,Tender Complete,No,No,
11100,Elec,Total Gas & Power,01/12/2014,30/11/2015,1,,,1208466.514,,,,,,Flexible Basket Contract,Tender Complete,No,No,
11101,Elec,Total Gas & Power,01/12/2014,30/11/2015,1,,,1025817.754,,,,,,Flexible Basket Contract,Tender Complete,No,No,
11102,Elec,Total Gas & Power,01/12/2014,30/11/2015,1,,,928344.4372,,,,,,Flexible Basket Contract,Tender Complete,No,No,
11103,Elec,Total Gas & Power,01/12/2014,30/11/2015,1,,,1526622.487,,,,,,Flexible Basket Contract,Tender Complete,No,No,
11104,Elec,Total Gas & Power,01/12/2014,30/11/2015,1,,,1603388.9,,,,,,Flexible Basket Contract,Tender Complete,No,No,
11105,Elec,Total Gas & Power,01/12/2014,30/11/2015,1,,,1075711.6,,,,,,Flexible Basket Contract,Tender Complete,No,No,
11419,Elec,Total Gas & Power,01/11/2014,30/09/2016,1,,,8340930,,,,,,Flexible Basket Contract,Tender Complete,No,No,
11425,Elec,GDF SUEZ Marketing Limited,01/04/2015,31/03/2018,1,,,256130.9,,,,,,Flexible Contract,Tender Complete,No,No,
11426,Elec,GDF SUEZ Marketing Limited,01/04/2015,31/03/2018,1,,,350059,,,,,,Flexible Contract,Tender Complete,No,No,
11633,Elec,Total Gas & Power,01/10/2014,30/09/2016,1,,,717800,,,,,,Flexible Basket Contract,Tender Complete,No,No,
11737,Elec,Total Gas & Power,01/10/2014,30/09/2016,1,,,1697249,,,,,,Flexible Basket Contract,Tender Complete,No,No,
11757,Elec,EON,01/09/2014,30/09/2015,1,,,28771225,,,,,,Flexible Contract,Tender Complete,No,No,
12854,Elec,Total Gas & Power,01/10/2014,30/09/2016,1,,,2661089.5,,,,,,Flexible Basket Contract,Tender Complete,No,No,
13970,Elec,Npower Limited,01/10/2013,30/09/2015,1,,,306392,,,,,,Flexible Contract,Tender Complete,No,No,
13971,Elec,Npower Limited,01/10/2013,30/09/2015,1,,,2413702,,,,,,Flexible Contract,Tender Complete,No,No,
13973,Elec,Npower Limited,01/10/2013,30/09/2015,1,,,215692,,,,,,Flexible Contract,Tender Complete,No,No,
13975,Elec,Npower Limited,01/10/2013,30/09/2015,1,,,1598132,,,,,,Flexible Contract,Tender Complete,No,No,
14073,Elec,Total Gas & Power,01/10/2014,30/09/2016,1,,,1665500,,,,,,Flexible Basket Contract,Tender Complete,No,No,
14415,Elec,Scottish and Southern Energy PLC,01/10/2014,30/09/2015,1,,,1066816.6,,,,,,Flexible Contract,Tender Complete,No,No,
14485,Elec,Total Gas & Power,01/12/2014,30/09/2016,1,,,340165.8,,,,,,Flexible Basket Contract,Tender Complete,No,No,
15285,Elec,GDF SUEZ Marketing Limited,01/04/2015,31/03/2018,1,,,9602,,,,,,Flexible Contract,Tender Complete,No,No,
15419,Elec,Npower Limited,01/10/2014,31/07/2015,1,,,39545,,,,,,Flexible Contract,Tender Complete,No,No,
15481,Elec,Npower Limited,01/10/2014,31/07/2015,1,,,20171,,,,,,Flexible Contract,Tender Complete,No,No,
15482,Elec,Npower Limited,01/09/2014,31/07/2015,1,,,20209,,,,,,Flexible Contract,Tender Complete,No,No,
15483,Elec,Npower Limited,01/10/2014,31/07/2015,1,,,40065,,,,,,Flexible Contract,Tender Complete,No,No,
15486,Elec,Npower Limited,01/10/2014,31/07/2015,1,,,12680,,,,,,Flexible Contract,Tender Complete,No,No,
15531,Elec,Total Gas & Power,01/10/2014,30/09/2016,1,,,2611230,,,,,,Flexible Basket Contract,Tender Complete,No,No,
15532,Elec,Total Gas & Power,01/10/2014,30/09/2016,1,,,2611230,,,,,,Flexible Basket Contract,Tender Complete,No,No,
15886,Elec,Npower Limited,01/01/2014,30/09/2016,1,,,425758,,,,,,Flexible Contract,Tender Complete,No,No,
15887,Elec,Npower Limited,01/01/2014,30/09/2016,1,,,288413.7,,,,,,Flexible Contract,Tender Complete,No,No,
15888,Elec,Npower Limited,01/01/2014,30/09/2016,1,,,365303.2,,,,,,Flexible Contract,Tender Complete,No,No,
16001,Elec,Npower Limited,01/12/2013,30/09/2016,1,,,167990,,,,,,Flexible Contract,Tender Complete,No,No,
16482,Elec,Total Gas & Power,01/10/2014,30/09/2016,1,,,1217446,,,,,,Flexible Basket Contract,Tender Complete,No,No,
16721,Elec,Total Gas & Power,01/12/2014,30/09/2016,1,,,778546.7,,,,,,Flexible Basket Contract,Tender Complete,No,No,
16905,Elec,Total Gas & Power,01/10/2014,30/09/2016,1,,,2280627.3,,,,,,Flexible Basket Contract,Tender Complete,No,No,
16906,Elec,Total Gas & Power,01/10/2014,30/09/2016,1,,,3721069.3,,,,,,Flexible Basket Contract,Tender Complete,No,No,
16908,Elec,Total Gas & Power,01/10/2014,30/09/2016,1,,,2937534.5,,,,,,Flexible Basket Contract,Tender Complete,No,No,
17225,Elec,Total Gas & Power,01/04/2015,30/09/2015,1,,,461797.7,,,,,,Flexible Contract,Tender Complete,No,No,
17226,Elec,Total Gas & Power,01/04/2015,30/09/2015,1,,,10645049.2,,,,,,Flexible Contract,Tender Complete,No,No,
17611,Elec,Npower Limited,01/12/2013,30/09/2016,1,,,4643862,,,,,,Flexible Contract,Tender Complete,No,No,
17612,Elec,Npower Limited,01/07/2014,30/09/2016,1,,,13523,,,,,,Flexible Contract,Tender Complete,No,No,
17613,Elec,Npower Limited,01/12/2013,30/09/2016,1,,,4009628.7,,,,,,Flexible Contract,Tender Complete,No,No,
17614,Elec,Npower Limited,01/12/2013,30/09/2016,1,,,2155481.4,,,,,,Flexible Contract,Tender Complete,No,No,
19119,Elec,Total Gas & Power,01/12/2014,30/09/2016,1,,,284131.7,,,,,,Flexible Basket Contract,Tender Complete,No,No,
19120,Elec,Total Gas & Power,01/12/2014,30/09/2016,1,,,316470.2,,,,,,Flexible Basket Contract,Tender Complete,No,No,
19958,Elec,Npower Limited,01/10/2013,30/09/2015,1,,,110040,,,,,,Flexible Contract,Tender Complete,No,No,
19981,Elec,Npower Limited,01/10/2013,30/09/2015,1,,,262100,,,,,,Flexible Contract,Tender Complete,No,No,
19982,Elec,Npower Limited,01/10/2013,30/09/2015,1,,,132312,,,,,,Flexible Contract,Tender Complete,No,No,
20751,Elec,Npower Limited,01/10/2013,30/09/2015,1,,,159647,,,,,,Flexible Contract,Tender Complete,No,No,
20752,Elec,Npower Limited,01/10/2013,30/09/2015,1,,,138449,,,,,,Flexible Contract,Tender Complete,No,No,
20753,Elec,Npower Limited,01/10/2013,30/09/2015,1,,,146613,,,,,,Flexible Contract,Tender Complete,No,No,
20754,Elec,Npower Limited,01/10/2013,30/09/2015,1,,,117750,,,,,,Flexible Contract,Tender Complete,No,No,
20755,Elec,Npower Limited,01/10/2013,30/09/2015,1,,,165976,,,,,,Flexible Contract,Tender Complete,No,No,
20756,Elec,Npower Limited,01/10/2013,30/09/2015,1,,,115764,,,,,,Flexible Contract,Tender Complete,No,No,
20757,Elec,Npower Limited,01/10/2013,30/09/2015,1,,,114948,,,,,,Flexible Contract,Tender Complete,No,No,
20758,Elec,Npower Limited,01/10/2013,30/09/2015,1,,,206102,,,,,,Flexible Contract,Tender Complete,No,No,
20759,Elec,Npower Limited,01/10/2013,30/09/2015,1,,,155879,,,,,,Flexible Contract,Tender Complete,No,No,
20760,Elec,Npower Limited,01/10/2013,30/09/2015,1,,,158168,,,,,,Flexible Contract,Tender Complete,No,No,
20761,Elec,Npower Limited,01/10/2013,30/09/2015,1,,,115449,,,,,,Flexible Contract,Tender Complete,No,No,
20762,Elec,Npower Limited,01/10/2013,30/09/2015,1,,,115285,,,,,,Flexible Contract,Tender Complete,No,No,
20799,Elec,Npower Limited,01/10/2013,30/09/2015,1,,,34113,,,,,,Flexible Contract,Tender Complete,No,No,
20800,Elec,Npower Limited,01/10/2013,30/09/2015,1,,,27356,,,,,,Flexible Contract,Tender Complete,No,No,
20801,Elec,Npower Limited,01/10/2013,30/09/2015,1,,,6789,,,,,,Flexible Contract,Tender Complete,No,No,
20802,Elec,Npower Limited,01/10/2013,30/09/2015,1,,,126444,,,,,,Flexible Contract,Tender Complete,No,No,
20803,Elec,Npower Limited,01/10/2013,30/09/2015,1,,,539,,,,,,Flexible Contract,Tender Complete,No,No,
20804,Elec,Npower Limited,01/10/2013,30/09/2015,1,,,62066,,,,,,Flexible Contract,Tender Complete,No,No,
20805,Elec,Npower Limited,01/10/2013,30/09/2015,1,,,74337,,,,,,Flexible Contract,Tender Complete,No,No,
20806,Elec,Npower Limited,01/10/2013,30/09/2015,1,,,21474,,,,,,Flexible Contract,Tender Complete,No,No,
20807,Elec,Npower Limited,01/10/2013,30/09/2015,1,,,158972,,,,,,Flexible Contract,Tender Complete,No,No,
20808,Elec,Npower Limited,01/10/2013,30/09/2015,1,,,82209,,,,,,Flexible Contract,Tender Complete,No,No,
20809,Elec,Npower Limited,01/10/2013,30/09/2015,1,,,24520,,,,,,Flexible Contract,Tender Complete,No,No,
20810,Elec,Npower Limited,01/10/2013,30/09/2015,1,,,561,,,,,,Flexible Contract,Tender Complete,No,No,
20811,Elec,Npower Limited,01/10/2013,30/09/2015,1,,,153598,,,,,,Flexible Contract,Tender Complete,No,No,
20813,Elec,Npower Limited,01/10/2013,30/09/2015,1,,,378814,,,,,,Flexible Contract,Tender Complete,No,No,
20814,Elec,Npower Limited,01/10/2013,30/09/2015,1,,,122214,,,,,,Flexible Contract,Tender Complete,No,No,
20815,Elec,Npower Limited,01/10/2013,30/09/2015,1,,,181295,,,,,,Flexible Contract,Tender Complete,No,No,
20816,Elec,Npower Limited,01/10/2013,30/09/2015,1,,,108102,,,,,,Flexible Contract,Tender Complete,No,No,
20817,Elec,Npower Limited,01/10/2013,30/09/2015,1,,,182277,,,,,,Flexible Contract,Tender Complete,No,No,
20818,Elec,Npower Limited,01/10/2013,30/09/2015,1,,,37567,,,,,,Flexible Contract,Tender Complete,No,No,
20819,Elec,Npower Limited,01/10/2013,30/09/2015,1,,,263888,,,,,,Flexible Contract,Tender Complete,No,No,
20820,Elec,Npower Limited,01/10/2013,30/09/2015,1,,,169997,,,,,,Flexible Contract,Tender Complete,No,No,
20821,Elec,Npower Limited,01/10/2013,30/09/2015,1,,,197945,,,,,,Flexible Contract,Tender Complete,No,No,
20822,Elec,Npower Limited,01/10/2013,30/09/2015,1,,,184385,,,,,,Flexible Contract,Tender Complete,No,No,
20823,Elec,Npower Limited,01/10/2013,30/09/2015,1,,,76970,,,,,,Flexible Contract,Tender Complete,No,No,
20824,Elec,Npower Limited,01/10/2013,30/09/2015,1,,,58745,,,,,,Flexible Contract,Tender Complete,No,No,
20825,Elec,Npower Limited,01/10/2013,30/09/2015,1,,,29653,,,,,,Flexible Contract,Tender Complete,No,No,
20850,Elec,Npower Limited,01/10/2013,30/09/2015,1,,,113072,,,,,,Flexible Contract,Tender Complete,No,No,
20851,Elec,Npower Limited,01/10/2013,30/09/2015,1,,,25594,,,,,,Flexible Contract,Tender Complete,No,No,
20854,Elec,Npower Limited,01/10/2013,30/09/2015,1,,,96247,,,,,,Flexible Contract,Tender Complete,No,No,
20855,Elec,Npower Limited,01/10/2013,30/09/2015,1,,,33926,,,,,,Flexible Contract,Tender Complete,No,No,
20857,Elec,Npower Limited,01/10/2013,30/09/2015,1,,,6084,,,,,,Flexible Contract,Tender Complete,No,No,
20859,Elec,Npower Limited,01/10/2013,30/09/2015,1,,,211867,,,,,,Flexible Contract,Tender Complete,No,No,
20860,Elec,Npower Limited,01/10/2013,30/09/2015,1,,,188866,,,,,,Flexible Contract,Tender Complete,No,No,
20861,Elec,Npower Limited,01/10/2013,30/09/2015,1,,,213914,,,,,,Flexible Contract,Tender Complete,No,No,
20862,Elec,Npower Limited,01/10/2013,30/09/2015,1,,,136269,,,,,,Flexible Contract,Tender Complete,No,No,
20863,Elec,Npower Limited,01/10/2013,30/09/2015,1,,,178334,,,,,,Flexible Contract,Tender Complete,No,No,
20864,Elec,Npower Limited,01/10/2013,30/09/2015,1,,,151974,,,,,,Flexible Contract,Tender Complete,No,No,
20865,Elec,Npower Limited,01/10/2013,30/09/2015,1,,,141033,,,,,,Flexible Contract,Tender Complete,No,No,
20866,Elec,Npower Limited,01/10/2013,30/09/2015,1,,,92154,,,,,,Flexible Contract,Tender Complete,No,No,
20867,Elec,Npower Limited,01/10/2013,30/09/2015,1,,,133372,,,,,,Flexible Contract,Tender Complete,No,No,
20879,Elec,Npower Limited,01/10/2013,30/09/2015,1,,,136253,,,,,,Flexible Contract,Tender Complete,No,No,
20880,Elec,Npower Limited,01/10/2013,30/09/2015,1,,,131220,,,,,,Flexible Contract,Tender Complete,No,No,
20882,Elec,Npower Limited,01/10/2013,30/09/2015,1,,,125669,,,,,,Flexible Contract,Tender Complete,No,No,
20883,Elec,Npower Limited,01/10/2013,30/09/2015,1,,,108583,,,,,,Flexible Contract,Tender Complete,No,No,
20884,Elec,Npower Limited,01/10/2013,30/09/2015,1,,,312495,,,,,,Flexible Contract,Tender Complete,No,No,
20886,Elec,Npower Limited,01/10/2013,30/09/2015,1,,,131420,,,,,,Flexible Contract,Tender Complete,No,No,
20887,Elec,Npower Limited,01/10/2013,30/09/2015,1,,,336162,,,,,,Flexible Contract,Tender Complete,No,No,
20888,Elec,Npower Limited,01/10/2013,30/09/2015,1,,,97866,,,,,,Flexible Contract,Tender Complete,No,No,
20889,Elec,Npower Limited,01/10/2013,30/09/2015,1,,,134437,,,,,,Flexible Contract,Tender Complete,No,No,
28810,Elec,Total Gas & Power,01/04/2016,31/03/2018,1,,,13373990.1,,,,,,Flexible Contract,Tender Complete,No,No,
28811,Elec,Total Gas & Power,01/04/2016,31/03/2018,1,,,13229262.7,,,,,,Flexible Contract,Tender Complete,No,No,
28812,Elec,Total Gas & Power,01/04/2016,31/03/2018,1,,,14184026.3,,,,,,Flexible Contract,Tender Complete,No,No,
28813,Elec,Total Gas & Power,01/04/2016,31/03/2018,1,,,2896146.4,,,,,,Flexible Contract,Tender Complete,No,No,
28814,Elec,Total Gas & Power,01/04/2016,31/03/2018,1,,,34237151.6,,,,,,Flexible Contract,Tender Complete,No,No,
28816,Elec,Total Gas & Power,01/04/2016,31/03/2018,1,,,35581.5,,,,,,Flexible Contract,Tender Complete,No,No,
28817,Elec,Total Gas & Power,01/04/2016,31/03/2018,1,,,1081725.3,,,,,,Flexible Contract,Tender Complete,No,No,
28818,Elec,Total Gas & Power,01/04/2016,31/03/2018,1,,,286902.1,,,,,,Flexible Contract,Tender Complete,No,No,
28819,Elec,Total Gas & Power ,01/10/2014,30/09/2016,1,,,1570920,,,,,,Flexible Contract,Tender Complete,No,No,
33358,Elec,GDF SUEZ Marketing Limited,01/04/2015,31/03/2018,1,,,10188,,,,,,Flexible Contract,Tender Complete,No,No,
33529,Elec,Npower Limited,01/11/2014,30/09/2015,1,,,130000,,,,,,Flexible Contract,Tender Complete,No,No,
33712,Elec,Npower Limited,01/10/2014,30/09/2016,1,,,165000,,,,,,Flexible Contract,Tender Complete,No,No,
33812,Elec,Npower Limited,01/07/2014,30/09/2016,1,,,31382,,,,,,Flexible Contract,Tender Complete,No,No,
33935,Elec,Total Gas & Power,01/07/2014,30/09/2016,1,,,2289631,,,,,,Flexible Contract,Tender Complete,No,No,
33956,Elec,Total Gas & Power,01/10/2014,30/09/2016,1,,,491780.9,,,,,,Flexible Basket Contract,Tender Complete,No,No,
34101,Elec,Total Gas & Power,01/10/2014,30/09/2016,1,,,1422353,,,,,,Flexible Basket Contract,Tender Complete,No,No,
34102,Elec,Total Gas & Power,01/10/2014,30/09/2016,1,,,337287.2,,,,,,Flexible Basket Contract,Tender Complete,No,No,
34103,Elec,Total Gas & Power,01/10/2014,30/09/2016,1,,,356884.2,,,,,,Flexible Basket Contract,Tender Complete,No,No,
34104,Elec,Total Gas & Power,01/10/2014,30/09/2016,1,,,99389,,,,,,Flexible Basket Contract,Tender Complete,No,No,
34105,Elec,Total Gas & Power,01/10/2014,30/09/2016,1,,,29907,,,,,,Flexible Basket Contract,Tender Complete,No,No,
34106,Elec,Total Gas & Power,01/10/2014,30/09/2016,1,,,30735,,,,,,Flexible Basket Contract,Tender Complete,No,No,
34158,Elec,Total Gas & Power,01/10/2014,30/09/2016,1,,,7823,,,,,,Flexible Basket Contract,Tender Complete,No,No,
34159,Elec,Total Gas & Power,01/10/2014,30/09/2016,1,,,25821,,,,,,Flexible Basket Contract,Tender Complete,No,No,
34160,Elec,Total Gas & Power,01/10/2014,30/09/2016,1,,,7365,,,,,,Flexible Basket Contract,Tender Complete,No,No,
34162,Elec,Total Gas & Power,01/10/2014,30/09/2016,1,,,114486,,,,,,Flexible Basket Contract,Tender Complete,No,No,
34163,Elec,Total Gas & Power,01/10/2014,30/09/2016,1,,,389363,,,,,,Flexible Basket Contract,Tender Complete,No,No,
34164,Elec,Total Gas & Power,01/10/2014,30/09/2016,1,,,35056,,,,,,Flexible Basket Contract,Tender Complete,No,No,
34165,Elec,Total Gas & Power,01/10/2014,30/09/2016,1,,,12827,,,,,,Flexible Basket Contract,Tender Complete,No,No,
34166,Elec,Total Gas & Power,01/10/2014,30/09/2016,1,,,50860,,,,,,Flexible Basket Contract,Tender Complete,No,No,
34167,Elec,Total Gas & Power,01/10/2014,30/09/2016,1,,,81305,,,,,,Flexible Basket Contract,Tender Complete,No,No,
34168,Elec,Total Gas & Power,01/10/2014,30/09/2016,1,,,181825,,,,,,Flexible Basket Contract,Tender Complete,No,No,
34169,Elec,Total Gas & Power,01/10/2014,30/09/2016,1,,,40514,,,,,,Flexible Basket Contract,Tender Complete,No,No,
34170,Elec,Total Gas & Power,01/10/2014,30/09/2016,1,,,81448,,,,,,Flexible Basket Contract,Tender Complete,No,No,
34171,Elec,Total Gas & Power,01/10/2014,30/09/2016,1,,,69669,,,,,,Flexible Basket Contract,Tender Complete,No,No,
34172,Elec,Total Gas & Power,01/10/2014,30/09/2016,1,,,22505,,,,,,Flexible Basket Contract,Tender Complete,No,No,
34173,Elec,Total Gas & Power,01/10/2014,30/09/2016,1,,,35569,,,,,,Flexible Basket Contract,Tender Complete,No,No,
34174,Elec,Total Gas & Power,01/10/2014,30/09/2016,1,,,1716,,,,,,Flexible Basket Contract,Tender Complete,No,No,
34175,Elec,Total Gas & Power,01/10/2014,30/09/2016,1,,,19492,,,,,,Flexible Basket Contract,Tender Complete,No,No,
34176,Elec,Total Gas & Power,01/10/2014,30/09/2016,1,,,17902,,,,,,Flexible Basket Contract,Tender Complete,No,No,
34194,Elec,Total Gas & Power,01/10/2014,30/09/2016,1,,,499342,,,,,,Flexible Basket Contract,Tender Complete,No,No,
34195,Elec,Total Gas & Power,01/10/2014,30/09/2016,1,,,1434995,,,,,,Flexible Basket Contract,Tender Complete,No,No,
34196,Elec,Total Gas & Power,01/10/2014,30/09/2016,1,,,151418,,,,,,Flexible Basket Contract,Tender Complete,No,No,
34197,Elec,Total Gas & Power,01/10/2014,30/09/2016,1,,,171936,,,,,,Flexible Basket Contract,Tender Complete,No,No,
34198,Elec,Total Gas & Power,01/10/2014,30/09/2016,1,,,139694,,,,,,Flexible Basket Contract,Tender Complete,No,No,
34199,Elec,Total Gas & Power,01/10/2014,30/09/2016,1,,,232608,,,,,,Flexible Basket Contract,Tender Complete,No,No,
34340,Elec,Total Gas & Power,01/10/2014,30/09/2016,1,,,970878.75,,,,,,Flexible Basket Contract,Tender Complete,No,No,
37259,Elec,Npower Limited,01/10/2015,30/09/2016,1,,,163688,,,,,,Flexible Contract,Tender Complete,No,No,
37260,Elec,Npower Limited,01/10/2015,30/09/2016,1,,,35204,,,,,,Flexible Contract,Tender Complete,No,No,
37265,Elec,Total Gas & Power,01/10/2014,30/09/2016,1,,,5541179.2,,,,,,Flexible Basket Contract,Tender Complete,No,No,
37266,Elec,Npower Limited,01/10/2015,30/09/2016,1,,,37285,,,,,,Flexible Contract,Tender Complete,No,No,
37268,Elec,Npower Limited,01/10/2015,30/09/2016,1,,,40610,,,,,,Flexible Contract,Tender Complete,No,No,
37269,Elec,Npower Limited,01/10/2015,30/09/2016,1,,,4405,,,,,,Flexible Contract,Tender Complete,No,No,
37271,Elec,Npower Limited,01/10/2015,30/09/2016,1,,,28016,,,,,,Flexible Contract,Tender Complete,No,No,
37272,Elec,Npower Limited,01/10/2015,30/09/2016,1,,,77501,,,,,,Flexible Contract,Tender Complete,No,No,
37278,Elec,Npower Limited,01/10/2015,30/09/2016,1,,,26844,,,,,,Flexible Contract,Tender Complete,No,No,
37279,Elec,Npower Limited,01/10/2015,30/09/2016,1,,,11783,,,,,,Flexible Contract,Tender Complete,No,No,
37280,Elec,Npower Limited,01/10/2015,30/09/2016,1,,,38021,,,,,,Flexible Contract,Tender Complete,No,No,
37287,Elec,Npower Limited,01/10/2015,30/09/2016,1,,,6346,,,,,,Flexible Contract,Tender Complete,No,No,
37288,Elec,Npower Limited,01/10/2015,30/09/2016,1,,,203501,,,,,,Flexible Contract,Tender Complete,No,No,
37295,Elec,Npower Limited,01/10/2015,30/09/2016,1,,,19720,,,,,,Flexible Contract,Tender Complete,No,No,
37296,Elec,Npower Limited,01/10/2015,30/09/2016,1,,,3179,,,,,,Flexible Contract,Tender Complete,No,No,
37299,Elec,Npower Limited,01/10/2015,30/09/2016,1,,,33465,,,,,,Flexible Contract,Tender Complete,No,No,
37300,Elec,Npower Limited,01/10/2015,30/09/2016,1,,,18129,,,,,,Flexible Contract,Tender Complete,No,No,
37302,Elec,Npower Limited,01/10/2015,30/09/2016,1,,,54592,,,,,,Flexible Contract,Tender Complete,No,No,
37304,Elec,Npower Limited,01/10/2015,30/09/2016,1,,,88033,,,,,,Flexible Contract,Tender Complete,No,No,
37305,Elec,Npower Limited,01/10/2015,30/09/2016,1,,,50132,,,,,,Flexible Contract,Tender Complete,No,No,
37307,Elec,Npower Limited,01/10/2015,30/09/2016,1,,,46094,,,,,,Flexible Contract,Tender Complete,No,No,
37309,Elec,Npower Limited,01/10/2015,30/09/2016,1,,,21578,,,,,,Flexible Contract,Tender Complete,No,No,
37310,Elec,Npower Limited,01/10/2015,30/09/2016,1,,,45014,,,,,,Flexible Contract,Tender Complete,No,No,
37314,Elec,Npower Limited,01/10/2015,30/09/2016,1,,,676231.5,,,,,,Flexible Contract,Tender Complete,No,No,
37317,Elec,Npower Limited,01/10/2015,30/09/2016,1,,,59508,,,,,,Flexible Contract,Tender Complete,No,No,
37318,Elec,Npower Limited,01/10/2015,30/09/2016,1,,,119399,,,,,,Flexible Contract,Tender Complete,No,No,
37319,Elec,Npower Limited,01/10/2015,30/09/2016,1,,,49141,,,,,,Flexible Contract,Tender Complete,No,No,
37325,Elec,Npower Limited,01/10/2015,30/09/2016,1,,,22303,,,,,,Flexible Contract,Tender Complete,No,No,
37333,Elec,Npower Limited,01/10/2015,30/09/2016,1,,,4137,,,,,,Flexible Contract,Tender Complete,No,No,
37334,Elec,Npower Limited,01/10/2015,30/09/2016,1,,,16039,,,,,,Flexible Contract,Tender Complete,No,No,
37335,Elec,Npower Limited,01/10/2015,30/09/2016,1,,,28214,,,,,,Flexible Contract,Tender Complete,No,No,
37336,Elec,Npower Limited,01/10/2015,30/09/2016,1,,,15199,,,,,,Flexible Contract,Tender Complete,No,No,
37337,Elec,Npower Limited,01/10/2015,30/09/2016,1,,,3181,,,,,,Flexible Contract,Tender Complete,No,No,
37338,Elec,Npower Limited,01/10/2015,30/09/2016,1,,,9070,,,,,,Flexible Contract,Tender Complete,No,No,
37339,Elec,Npower Limited,01/10/2015,30/09/2016,1,,,40949,,,,,,Flexible Contract,Tender Complete,No,No,
37340,Elec,Npower Limited,01/10/2015,30/09/2016,1,,,361891,,,,,,Flexible Contract,Tender Complete,No,No,
37341,Elec,Npower Limited,01/10/2015,30/09/2016,1,,,52114,,,,,,Flexible Contract,Tender Complete,No,No,
37342,Elec,Npower Limited,01/10/2015,30/09/2016,1,,,67494,,,,,,Flexible Contract,Tender Complete,No,No,
37343,Elec,Npower Limited,01/10/2015,30/09/2016,1,,,11428,,,,,,Flexible Contract,Tender Complete,No,No,
37344,Elec,Npower Limited,01/10/2015,30/09/2016,1,,,20758,,,,,,Flexible Contract,Tender Complete,No,No,
37345,Elec,Npower Limited,01/10/2015,30/09/2016,1,,,18085,,,,,,Flexible Contract,Tender Complete,No,No,
37356,Elec,Npower Limited,01/10/2015,30/09/2016,1,,,24129,,,,,,Flexible Contract,Tender Complete,No,No,
37357,Elec,Npower Limited,01/10/2015,30/09/2016,1,,,18504,,,,,,Flexible Contract,Tender Complete,No,No,
37358,Elec,Npower Limited,01/10/2015,30/09/2016,1,,,5882,,,,,,Flexible Contract,Tender Complete,No,No,
37359,Elec,Npower Limited,01/10/2015,30/09/2016,1,,,69939,,,,,,Flexible Contract,Tender Complete,No,No,
37362,Elec,Npower Limited,01/10/2015,30/09/2016,1,,,84834,,,,,,Flexible Contract,Tender Complete,No,No,
37363,Elec,Npower Limited,01/10/2015,30/09/2016,1,,,81250,,,,,,Flexible Contract,Tender Complete,No,No,
37364,Elec,Npower Limited,01/10/2015,30/09/2016,1,,,114510,,,,,,Flexible Contract,Tender Complete,No,No,
37365,Elec,Npower Limited,01/10/2015,30/09/2016,1,,,29130,,,,,,Flexible Contract,Tender Complete,No,No,
37366,Elec,Npower Limited,01/10/2015,30/09/2016,1,,,20872,,,,,,Flexible Contract,Tender Complete,No,No,
37367,Elec,Npower Limited,01/10/2015,30/09/2016,1,,,3320,,,,,,Flexible Contract,Tender Complete,No,No,
37368,Elec,Npower Limited,01/10/2015,30/09/2016,1,,,18021,,,,,,Flexible Contract,Tender Complete,No,No,
37369,Elec,Npower Limited,01/10/2015,30/09/2016,1,,,41591,,,,,,Flexible Contract,Tender Complete,No,No,
37371,Elec,Npower Limited,01/10/2015,30/09/2016,1,,,31381,,,,,,Flexible Contract,Tender Complete,No,No,
37372,Elec,Npower Limited,01/10/2015,30/09/2016,1,,,26907,,,,,,Flexible Contract,Tender Complete,No,No,
37378,Elec,Npower Limited,01/10/2015,30/09/2016,1,,,43295,,,,,,Flexible Contract,Tender Complete,No,No,
37380,Elec,Npower Limited,01/10/2015,30/09/2016,1,,,386316,,,,,,Flexible Contract,Tender Complete,No,No,
37382,Elec,Npower Limited,01/10/2015,30/09/2016,1,,,59680,,,,,,Flexible Contract,Tender Complete,No,No,
37383,Elec,Npower Limited,01/10/2015,30/09/2016,1,,,20221,,,,,,Flexible Contract,Tender Complete,No,No,
37384,Elec,Npower Limited,01/10/2015,30/09/2016,1,,,7566,,,,,,Flexible Contract,Tender Complete,No,No,
37385,Elec,Npower Limited,01/10/2015,30/09/2016,1,,,23707,,,,,,Flexible Contract,Tender Complete,No,No,
37388,Elec,Npower Limited,01/10/2015,30/09/2016,1,,,9281,,,,,,Flexible Contract,Tender Complete,No,No,
37389,Elec,Npower Limited,01/10/2015,30/09/2016,1,,,27491,,,,,,Flexible Contract,Tender Complete,No,No,
37390,Elec,Npower Limited,01/10/2015,30/09/2016,1,,,174221,,,,,,Flexible Contract,Tender Complete,No,No,
37394,Elec,Npower Limited,01/10/2015,30/09/2016,1,,,20942,,,,,,Flexible Contract,Tender Complete,No,No,
37396,Elec,Npower Limited,01/10/2015,30/09/2016,1,,,41535,,,,,,Flexible Contract,Tender Complete,No,No,
37397,Elec,Npower Limited,01/10/2015,30/09/2016,1,,,43134,,,,,,Flexible Contract,Tender Complete,No,No,
37403,Elec,Npower Limited,01/10/2015,30/09/2016,1,,,14661,,,,,,Flexible Contract,Tender Complete,No,No,
37404,Elec,Npower Limited,01/10/2015,30/09/2016,1,,,12951,,,,,,Flexible Contract,Tender Complete,No,No,
37405,Elec,Npower Limited,01/10/2015,30/09/2016,1,,,0,,,,,,Flexible Contract,Tender Complete,No,No,
37406,Elec,Npower Limited,01/10/2015,30/09/2016,1,,,21085,,,,,,Flexible Contract,Tender Complete,No,No,
37407,Elec,Npower Limited,01/10/2015,30/09/2016,1,,,40730,,,,,,Flexible Contract,Tender Complete,No,No,
37408,Elec,Npower Limited,01/10/2015,30/09/2016,1,,,25296,,,,,,Flexible Contract,Tender Complete,No,No,
37409,Elec,Npower Limited,01/10/2015,30/09/2016,1,,,28926,,,,,,Flexible Contract,Tender Complete,No,No,
37410,Elec,Npower Limited,01/10/2015,30/09/2016,1,,,10391,,,,,,Flexible Contract,Tender Complete,No,No,
37411,Elec,Npower Limited,01/10/2015,30/09/2016,1,,,1684,,,,,,Flexible Contract,Tender Complete,No,No,
37412,Elec,Npower Limited,01/10/2015,30/09/2016,1,,,38531,,,,,,Flexible Contract,Tender Complete,No,No,
37413,Elec,Npower Limited,01/10/2015,30/09/2016,1,,,90212,,,,,,Flexible Contract,Tender Complete,No,No,
37414,Elec,Npower Limited,01/10/2015,30/09/2016,1,,,33298,,,,,,Flexible Contract,Tender Complete,No,No,
37415,Elec,Npower Limited,01/10/2015,30/09/2016,1,,,2164,,,,,,Flexible Contract,Tender Complete,No,No,
37416,Elec,Npower Limited,01/10/2015,30/09/2016,1,,,17862,,,,,,Flexible Contract,Tender Complete,No,No,
37417,Elec,Npower Limited,01/10/2015,30/09/2016,1,,,69765,,,,,,Flexible Contract,Tender Complete,No,No,
37431,Elec,Npower Limited,01/10/2015,30/09/2016,1,,,38339,,,,,,Flexible Contract,Tender Complete,No,No,
37433,Elec,Npower Limited,01/10/2015,30/09/2016,1,,,7969,,,,,,Flexible Contract,Tender Complete,No,No,
37434,Elec,Npower Limited,01/10/2015,30/09/2016,1,,,11471,,,,,,Flexible Contract,Tender Complete,No,No,
37435,Elec,Npower Limited,01/10/2015,30/09/2016,1,,,11767,,,,,,Flexible Contract,Tender Complete,No,No,
37437,Elec,Npower Limited,01/10/2015,30/09/2016,1,,,47300,,,,,,Flexible Contract,Tender Complete,No,No,
37438,Elec,Npower Limited,01/10/2015,30/09/2016,1,,,73330,,,,,,Flexible Contract,Tender Complete,No,No,
37439,Elec,Npower Limited,01/10/2015,30/09/2016,1,,,-2279,,,,,,Flexible Contract,Tender Complete,No,No,
37442,Elec,Npower Limited,01/10/2015,30/09/2016,1,,,31000,,,,,,Flexible Contract,Tender Complete,No,No,
37443,Elec,Npower Limited,01/10/2015,30/09/2016,1,,,16351,,,,,,Flexible Contract,Tender Complete,No,No,
38503,Elec,Total Gas & Power,01/04/2016,31/03/2018,1,,,7600943.9,,,,,,Flexible Contract,Tender Complete,No,No,
40630,Elec,Total Gas & Power,01/12/2014,30/09/2016,1,,,566169,,,,,,Flexible Basket Contract,Tender Complete,No,No,
40631,Elec,Total Gas & Power,01/12/2014,30/09/2016,1,,,335445.7,,,,,,Flexible Basket Contract,Tender Complete,No,No,
40650,Elec,Npower Limited,01/10/2014,30/09/2016,1,,,685724.6,,,,,,Flexible Contract,Tender Complete,No,No,
40651,Elec,Npower Limited,01/10/2014,30/09/2016,1,,,269799.8,,,,,,Flexible Contract,Tender Complete,No,No,
40652,Elec,Npower Limited,01/10/2014,30/09/2016,1,,,2235713.3,,,,,,Flexible Contract,Tender Complete,No,No,
40653,Elec,Npower Limited,01/10/2014,30/09/2016,1,,,3684366,,,,,,Flexible Contract,Tender Complete,No,No,
40654,Elec,Npower Limited,01/10/2014,30/09/2016,1,,,2757079,,,,,,Flexible Contract,Tender Complete,No,No,
40655,Elec,Npower Limited,01/10/2014,30/09/2016,1,,,1694902,,,,,,Flexible Contract,Tender Complete,No,No,
40656,Elec,Npower Limited,01/10/2014,30/09/2016,1,,,1056141.6,,,,,,Flexible Contract,Tender Complete,No,No,
41026,Elec,Smartest Energy,01/11/2014,31/10/2017,1,,,539362,,,,,,Flexible Contract,Tender Complete,No,No,
