fuel,site_id,supplier_name,start_date,end_date,rate_allunit,rate_day,rate_night,usage_allunit,usage_day,usage_night,standingcharge_month,commission_kwh,commission_year,contract_type,tender_status,termination_optout,registration_confirmed
Elec,32293,Haven Power,01/10/2014,30/09/2016,,11.145,6.875,,30204,41711,4.56,0,0,Fixed,Tender Complete,No,Yes
Elec,32294,Haven Power,01/10/2014,30/09/2016,,11.545,6.805,,51928,18245,20.38,0,0,Fixed,Tender Complete,No,Yes
Elec,32295,Haven Power,01/10/2014,30/09/2016,11.565,,,62864,,,5.17,0,0,Fixed,Tender Complete,No,Yes
Elec,32296,Haven Power,01/10/2014,30/09/2016,11.575,,,97569,,,22.51,0,0,Fixed,Tender Complete,No,Yes
Elec,32297,Haven Power,01/10/2014,30/09/2016,,11.145,6.805,,51270,19938,19.77,0,0,Fixed,Tender Complete,No,Yes
Elec,32298,Haven Power,01/10/2014,30/09/2016,,11.175,6.965,,3608,56522,4.56,0,0,Fixed,Tender Complete,No,Yes
Elec,32300,Haven Power,01/10/2014,30/09/2016,10.685,,,593,,,4.56,0,0,Fixed,Tender Complete,No,Yes
Elec,32301,Haven Power,01/10/2014,30/09/2016,10.895,,,67090,,,5.17,0,0,Fixed,Tender Complete,No,Yes
Elec,32302,Haven Power,01/10/2014,30/09/2016,10.605,,,65632,,,5.17,0,0,Fixed,Tender Complete,No,Yes
Elec,32303,Haven Power,01/10/2014,30/09/2016,10.215,,,2145,,,20.68,0,0,Fixed,Tender Complete,No,Yes
Elec,32305,Haven Power,01/10/2014,30/09/2016,10.555,,,67386,,,4.56,0,0,Fixed,Tender Complete,No,Yes
Elec,32306,Haven Power,01/10/2014,30/09/2016,10.645,,,79255,,,4.87,0,0,Fixed,Tender Complete,No,Yes
Elec,32307,Haven Power,01/10/2014,30/09/2016,10.255,,,28933,,,20.68,0,0,Fixed,Tender Complete,No,Yes
Elec,32308,Haven Power,01/10/2014,30/09/2016,,12.835,7.175,,2134,567,5.17,0,0,Fixed,Tender Complete,No,Yes
Elec,32309,Haven Power,01/10/2014,30/09/2016,,11.025,6.785,,126942,49366,20.38,0,0,Fixed,Tender Complete,No,Yes
Elec,32310,Haven Power,01/10/2014,30/09/2016,,11.175,6.965,,37159,14450,4.56,0,0,Fixed,Tender Complete,No,Yes
Elec,32311,Haven Power,01/10/2014,30/09/2016,10.405,,,259262,,,4.56,0,0,Fixed,Tender Complete,No,Yes
Elec,32312,Haven Power,01/10/2014,30/09/2016,10.405,,,206582,,,4.56,0,0,Fixed,Tender Complete,No,Yes
Elec,32313,Haven Power,01/10/2014,30/09/2016,,10.925,6.885,,228993,89053,20.38,0,0,Fixed,Tender Complete,No,Yes
Elec,32314,Haven Power,01/10/2014,30/09/2016,10.455,,,23180,,,20.38,0,0,Fixed,Tender Complete,No,Yes
Elec,32315,Haven Power,01/10/2014,30/09/2016,,11.275,6.735,,57656,22418,20.68,0,0,Fixed,Tender Complete,No,Yes
Elec,32318,Haven Power,01/10/2014,30/09/2016,10.605,,,51135,,,20.38,0,0,Fixed,Tender Complete,No,Yes
Elec,32319,Haven Power,01/10/2014,30/09/2016,10.605,,,39950,,,20.38,0,0,Fixed,Tender Complete,No,Yes
Elec,32320,Haven Power,01/10/2014,30/09/2016,,11.145,6.875,,6500,3500,4.56,0,0,Fixed,Tender Complete,No,Yes
Elec,32321,Haven Power,01/10/2014,30/09/2016,,11.815,6.975,,9209,4137,4.56,0,0,Fixed,Tender Complete,No,Yes
Elec,32325,Haven Power,01/10/2014,30/09/2016,10.685,,,9162,,,4.56,0,0,Fixed,Tender Complete,No,Yes
Elec,32323,Haven Power,01/10/2014,30/09/2016,12.525,,,25130,,,4.56,0,0,Fixed,Tender Complete,No,Yes
Elec,32324,Haven Power,01/10/2014,30/09/2016,,13.425,7.205,,14844,3482,4.56,0,0,Fixed,Tender Complete,No,Yes
Elec,32327,Haven Power,01/10/2014,30/09/2016,,12.455,7.045,,48278,17856,5.17,0,0,Fixed,Tender Complete,No,Yes
Elec,32328,Haven Power,01/10/2014,30/09/2016,10.795,,,87482,,,18.25,0,0,Fixed,Tender Complete,No,Yes
Elec,32329,Haven Power,01/10/2014,30/09/2016,,11.845,7.055,,72561,31098,4.56,0,0,Fixed,Tender Complete,No,Yes
Elec,32291,Haven Power,01/10/2014,30/09/2016,10.615,,,19992,,,18.25,0,0,Fixed,Tender Complete,No,Yes
Elec,17391,Haven Power,01/10/2014,30/09/2016,,12.595,6.995,,27997,11999,25.85,0,0,Fixed,Tender Complete,No,Yes
Elec,34235,Haven Power,01/10/2014,30/09/2016,11.505,,,37000,,,18.25,0,0,Fixed,Tender Complete,No,Yes
