fuel,site_id,supplier_name,start_date,end_date,rate_allunit,rate_day,rate_night,usage_allunit,usage_day,usage_night,standingcharge_month,commission_kwh,commission_year,contract_type,tender_status,termination_optout,registration_confirmed,contract_id
gas,24540,British Gas,01/04/2016,31/03/2017,1,,,13072,,,,,21.93,Flexible Contract,Tender Complete,yes,yes,1115942
gas,26705,British Gas,01/04/2016,31/03/2017,1,,,1,,,,,21.93,Flexible Contract,Tender Complete,yes,yes,1115942
gas,24045,British Gas,01/04/2016,31/03/2017,1,,,14066,,,,,21.93,Flexible Contract,Tender Complete,yes,yes,1115942
gas,24049,British Gas,01/04/2016,31/03/2017,1,,,1,,,,,21.93,Flexible Contract,Tender Complete,yes,yes,1115942
gas,24056,British Gas,01/04/2016,31/03/2017,1,,,12929,,,,,21.93,Flexible Contract,Tender Complete,yes,yes,1115942
gas,24512,British Gas,01/04/2016,31/03/2017,1,,,93913,,,,,21.93,Flexible Contract,Tender Complete,yes,yes,1115942
gas,24382,British Gas,01/04/2016,31/03/2017,1,,,41056,,,,,21.93,Flexible Contract,Tender Complete,yes,yes,1115942
gas,24682,British Gas,01/04/2016,31/03/2017,1,,,1605686,,,,,21.93,Flexible Contract,Tender Complete,yes,yes,1115942
gas,24678,British Gas,01/04/2016,31/03/2017,1,,,426032,,,,,21.93,Flexible Contract,Tender Complete,yes,yes,1115942
gas,26709,British Gas,01/04/2016,31/03/2017,1,,,321200,,,,,21.93,Flexible Contract,Tender Complete,yes,yes,1115942
gas,24635,British Gas,01/04/2016,31/03/2017,1,,,256196,,,,,21.93,Flexible Contract,Tender Complete,yes,yes,1115942
gas,24248,British Gas,01/04/2016,31/03/2017,1,,,62211,,,,,21.93,Flexible Contract,Tender Complete,yes,yes,1115942
gas,24265,British Gas,01/04/2016,31/03/2017,1,,,65787,,,,,21.93,Flexible Contract,Tender Complete,yes,yes,1115942
gas,24136,British Gas,01/04/2016,31/03/2017,1,,,15296,,,,,21.93,Flexible Contract,Tender Complete,yes,yes,1115942
gas,24243,British Gas,01/04/2016,31/03/2017,1,,,32822,,,,,21.93,Flexible Contract,Tender Complete,yes,yes,1115942
gas,24207,British Gas,01/04/2016,31/03/2017,1,,,19525,,,,,21.93,Flexible Contract,Tender Complete,yes,yes,1115942
gas,24142,British Gas,01/04/2016,31/03/2017,1,,,15207,,,,,21.93,Flexible Contract,Tender Complete,yes,yes,1115942
gas,24118,British Gas,01/04/2016,31/03/2017,1,,,15611,,,,,21.93,Flexible Contract,Tender Complete,yes,yes,1115942
gas,24228,British Gas,01/04/2016,31/03/2017,1,,,5093,,,,,21.93,Flexible Contract,Tender Complete,yes,yes,1115942
gas,24105,British Gas,01/04/2016,31/03/2017,1,,,28613,,,,,21.93,Flexible Contract,Tender Complete,yes,yes,1115942
gas,24234,British Gas,01/04/2016,31/03/2017,1,,,15623,,,,,21.93,Flexible Contract,Tender Complete,yes,yes,1115942
gas,24329,British Gas,01/04/2016,31/03/2017,1,,,15292,,,,,21.93,Flexible Contract,Tender Complete,yes,yes,1115942
gas,24235,British Gas,01/04/2016,31/03/2017,1,,,21802,,,,,21.93,Flexible Contract,Tender Complete,yes,yes,1115942
gas,28530,British Gas,01/04/2016,31/03/2017,1,,,666789,,,,,21.93,Flexible Contract,Tender Complete,yes,yes,1115942
gas,24606,British Gas,01/04/2016,31/03/2017,1,,,44154,,,,,21.93,Flexible Contract,Tender Complete,yes,yes,1115942
gas,23931,British Gas,01/04/2016,31/03/2017,1,,,349894,,,,,21.93,Flexible Contract,Tender Complete,yes,yes,1115942
gas,24624,British Gas,01/04/2016,31/03/2017,1,,,1868788,,,,,21.93,Flexible Contract,Tender Complete,yes,yes,1115942
gas,23853,British Gas,01/04/2016,31/03/2017,1,,,1834373,,,,,21.93,Flexible Contract,Tender Complete,yes,yes,1115942
gas,23874,British Gas,01/04/2016,31/03/2017,1,,,1,,,,,21.93,Flexible Contract,Tender Complete,yes,yes,1115942
