fuel,customer_id,customer_name,site_id,site_name,address_1,address_2,address_3,postcode,analyst_name,accountmanager_name,voltage,asc,profile,mtc,llf,meter,read_frequency,supplier_name,start_date,end_date,rate_allunit,rate_day,rate_night,usage_allunit,usage_day,usage_night,standingcharge_month,commission_kwh,commission_year,contract_type,tender_status,termination_optout,registration_confirmed,contract_id
Elec,1229,One Stop Stores Limited,,2905-22 - CHAPEL END NUNEATON,Firmstone News   5-7  Trafford Drive   Nuneaton,,,CV10 9LP,,Carl Barker,LV,10,4,811,37,1100022493705,NHH,Npower Limited,01/04/2015,31/03/2018,1,,,150783,,,,,,Flexible Contract,Tender Completed,No,Yes,02462858_2015_2018
Elec,1229,One Stop Stores Limited,,2945 - CABIN LANE,Plot 1   Unit 1 Land Adjacent Community Centre  Cabin Lane   Oswestry,,,SY11 2LQ,,Carl Barker,LV,10,3,801,201,1300060507709,NHH,Npower Limited,01/04/2015,31/03/2018,1,,,152569,,,,,,Flexible Contract,Tender Completed,No,Yes,02462858_2015_2018
Elec,1229,One Stop Stores Limited,,"STORE 2964, TESCO METRO",Tesco Metro New Retail Unit Heol Fach   North Cornlelly,,,CF33 4HY,,Carl Barker,HV,105,0,845,300,2100041099841,HH,Npower Limited,01/04/2015,31/03/2018,1,,,140866,,,,,,Flexible Contract,Tender Completed,No,Yes,02462858_2015_2018
Elec,1229,One Stop Stores Limited,,MAPLE GROVE - MARCH,123  Maple Grove   March,,,PE15 8JP,,Carl Barker,LV,10,3,136,238,1012866496016,NHH,Npower Limited,01/04/2015,31/03/2018,1,,,61752,,,,,,Flexible Contract,Tender Completed,No,Yes,02462858_2015_2018
Elec,1229,One Stop Stores Limited,,2968 - MEADOW WAY,Alldays   Convenience Store  Meadow Way   Aylesbury,,,HP20 1XS,,Carl Barker,LV,50,8,123,254,1023481404030,NHH,Npower Limited,01/04/2015,31/03/2018,1,,,1422590,,,,,,Flexible Contract,Tender Completed,No,Yes,02462858_2015_2018
Elec,1229,One Stop Stores Limited,,5026 - 4 CHIEFTIN WAY,Unit 4 Unit 4 Orchard House  Unwin Square  Orchard Park Cambridge,,,CB4 2AD,,Carl Barker,LV,65,4,811,205,1050000627413,NHH,Npower Limited,01/04/2015,31/03/2018,1,,,145866,,,,,,Flexible Contract,Tender Completed,No,Yes,02462858_2015_2018
Elec,1229,One Stop Stores Limited,,2959 - 29 HOLLINGSWORTH RD,The Alderman  Hollingsworth Road   Lowestoft,,,NR32 4AT,,Carl Barker,LV,65,4,811,205,1050000650087,NHH,Npower Limited,01/04/2015,31/03/2018,1,,,141943,,,,,,Flexible Contract,Tender Completed,No,Yes,02462858_2015_2018
Elec,1229,One Stop Stores Limited,,2925 - 39 THE CAUSEWAY,39  The Causeway   March,,,PE15 9NU,,Carl Barker,LV,65,4,811,205,1050000748688,NHH,Npower Limited,01/04/2015,31/03/2018,1,,,158427,,,,,,Flexible Contract,Tender Completed,No,Yes,02462858_2015_2018
Elec,1229,One Stop Stores Limited,,WEST STREET ECKINGTON,West End   71  West Street  Eckington Sheffield,,,S21 4GA,,Carl Barker,LV,10,4,817,37,1100008591254,NHH,Npower Limited,01/04/2015,31/03/2018,1,,,1413822,,,,,,Flexible Contract,Tender Completed,No,Yes,02462858_2015_2018
Elec,1229,One Stop Stores Limited,,2961 - STUDFALL AVENUE CORBY,200  Studfall Avenue   Corby,,,NN17 1LJ,,Carl Barker,LV,10,3,801,13,1100021398469,NHH,Npower Limited,01/04/2015,31/03/2018,1,,,148039,,,,,,Flexible Contract,Tender Completed,No,Yes,02462858_2015_2018
Elec,1229,One Stop Stores Limited,,KERESLEY END, Paul & Sons  Uk  Ltd Paul & Sons  Uk  Ltd 41  Bennetts Road North  Keresley End Coventry,,,CV7 8JX,,Carl Barker,LV,10,4,811,37,1100023469536,NHH,Npower Limited,01/04/2015,31/03/2018,1,,,140878,,,,,,Flexible Contract,Tender Completed,No,Yes,02462858_2015_2018
Elec,1229,One Stop Stores Limited,,2901 - HENLEY GREEN,47-49  Broad Park Road   Coventry,,,CV2 1DB,,Carl Barker,LV,10,4,811,37,1100023886537,NHH,Npower Limited,01/04/2015,31/03/2018,1,,,1441442,,,,,,Flexible Contract,Tender Completed,No,Yes,02462858_2015_2018
Elec,1229,One Stop Stores Limited,,0814-22 - WARWICK,Post Office   5  Bridge Street  Wellesbourne Warwick,,,CV35 9QP,,Carl Barker,LV,0,2,811,3,1100024775140,NHH,Npower Limited,01/04/2015,31/03/2018,1,,,1,,,,,,Flexible Contract,Tender Completed,No,Yes,02462858_2015_2018
Elec,1229,One Stop Stores Limited,,2967 - BURTON ON TRENT,187-192  Hawfield Lane   Burton-On-Trent,,,DE15 0BY,,Carl Barker,LV,65,4,811,37,1170000390194,NHH,Npower Limited,01/04/2015,31/03/2018,1,,,147771,,,,,,Flexible Contract,Tender Completed,No,Yes,02462858_2015_2018
Elec,1229,One Stop Stores Limited,,2889 - PENGE,14  High Street   London,,,SE20 7HG,,Carl Barker,LV,50,3,4,960,1200022544346,NHH,Npower Limited,01/04/2015,31/03/2018,1,,,147987,,,,,,Flexible Contract,Tender Completed,No,Yes,02462858_2015_2018
Elec,1229,One Stop Stores Limited,,2981,29  Hazel Walk   Bromley,,,BR2 8DE,,Carl Barker,LV,10,3,801,952,1200036933085,NHH,Npower Limited,01/04/2015,31/03/2018,1,,,152951,,,,,,Flexible Contract,Tender Completed,No,Yes,02462858_2015_2018
Elec,1229,One Stop Stores Limited,,2958 - 8-16 HILLSIDE ROAD,16  Hillside Road  Huyton Liverpool,,,L36 8BJ,,Carl Barker,LV,10,3,801,201,1300001165127,NHH,Npower Limited,01/04/2015,31/03/2018,1,,,1414844,,,,,,Flexible Contract,Tender Completed,No,Yes,02462858_2015_2018
Elec,1229,One Stop Stores Limited,,2989 - BUFFERY ROAD,Spar Stores Spar Stores 70  Buffery Road   Dudley,,,DY2 8EF,,Carl Barker,LV,50,8,801,21,1411778101006,NHH,Npower Limited,01/04/2015,31/03/2018,1,,,147412,,,,,,Flexible Contract,Tender Completed,No,Yes,02462858_2015_2018
Elec,1229,One Stop Stores Limited,,2966 - MERVYN PLACE BILSTON,Mervyn Superstore Mervyn Superstore 3  Mervyn Place   Bilston,,,WV14 8DD,,Carl Barker,LV,10,4,811,10,1414848570004,NHH,Npower Limited,01/04/2015,31/03/2018,1,,,151483,,,,,,Flexible Contract,Tender Completed,No,Yes,02462858_2015_2018
Elec,1229,One Stop Stores Limited,,SANDWELL - WHITEHEATH,The Rowley Rag The Rowley Rag   Throne Road   Rowley Regis,,,B65 9JG,,Carl Barker,LV,50,8,801,21,1426631100007,NHH,Npower Limited,01/04/2015,31/03/2018,1,,,140167,,,,,,Flexible Contract,Tender Completed,No,Yes,02462858_2015_2018
Elec,1229,One Stop Stores Limited,,2972 ELMGROVE ROAD EAST,One Stop Shop One Stop Shop Former Starting Gate  Bristol Rd   Hardwicke,,,GL2 4QY,,Carl Barker,LV,65,4,811,10,1470000403786,NHH,Npower Limited,01/04/2015,31/03/2018,1,,,165763,,,,,,Flexible Contract,Tender Completed,No,Yes,02462858_2015_2018
Elec,1229,One Stop Stores Limited,,"2996 - UNIT 1, WATERVILLE ROAD",New Shop New Shop Former The Seine Boat Waterville Road   North Shields,,,NE29 6UB,,Carl Barker,LV,65,4,812,204,1580001341945,NHH,Npower Limited,01/04/2015,31/03/2018,1,,,159927,,,,,,Flexible Contract,Tender Completed,No,Yes,02462858_2015_2018
Elec,1229,One Stop Stores Limited,,2990,Workshop  Blue House Lane   Washington,,,NE37 2TE,,Carl Barker,LV,10,3,801,203,1591020149172,NHH,Npower Limited,01/04/2015,31/03/2018,1,,,11376,,,,,,Flexible Contract,Tender Completed,No,Yes,02462858_2015_2018
Elec,1229,One Stop Stores Limited,,16-17 HOPE STREET,17  Hope Street   Crook,,,DL15 9HS,,Carl Barker,LV,20,6,801,257,1591021829863,NHH,Npower Limited,01/04/2015,31/03/2018,1,,,176910,,,,,,Flexible Contract,Tender Completed,No,Yes,02462858_2015_2018
Elec,1229,One Stop Stores Limited,,5019 - 70-72 FOURTH AVENUE,70  Fourth Avenue   York,,,YO31 0UB,,Carl Barker,LV,10,3,801,203,1591048871012,NHH,Npower Limited,01/04/2015,31/03/2018,1,,,157645,,,,,,Flexible Contract,Tender Completed,No,Yes,02462858_2015_2018
Elec,1229,One Stop Stores Limited,,2948 - BIRKDALE ROAD,Atm Atm 11  Birkdale Road   Stockton-On-Tees,,,TS18 5LZ,,Carl Barker,LV,10,4,43,204,1591055158225,NHH,Npower Limited,01/04/2015,31/03/2018,1,,,206013,,,,,,Flexible Contract,Tender Completed,No,Yes,02462858_2015_2018
Elec,1229,One Stop Stores Limited,,LANCASTER ROAD MORECAMBE,137-139  Lancaster Road   Morecambe,,,LA4 5QJ,,Carl Barker,LV,25,8,808,751,1600000126325,NHH,Npower Limited,01/04/2015,31/03/2018,1,,,1401746,,,,,,Flexible Contract,Tender Completed,No,Yes,02462858_2015_2018
Elec,1229,One Stop Stores Limited,,2994 - MOSTON LANE,Estate Agents Gilroys   333-339  Moston Lane   Manchester,,,M40 9NL,,Carl Barker,LV,10,3,500,631,1610018192365,NHH,Npower Limited,01/04/2015,31/03/2018,1,,,163809,,,,,,Flexible Contract,Tender Completed,No,Yes,02462858_2015_2018
Elec,1229,One Stop Stores Limited,,2994,337-339  Moston Lane   Manchester,,,M40 9NL,,Carl Barker,LV,10,3,801,131,1610018192392,NHH,Npower Limited,01/04/2015,31/03/2018,1,,,13760,,,,,,Flexible Contract,Tender Completed,No,Yes,02462858_2015_2018
Elec,1229,One Stop Stores Limited,,3105 - CHEADLE,Victoria Wine Co Ltd The Local   151  Councillor Lane   Cheadle,,,SK8 2JE,,Carl Barker,LV,10,3,801,631,1610028491242,NHH,Npower Limited,01/04/2015,31/03/2018,1,,,150392,,,,,,Flexible Contract,Tender Completed,No,Yes,02462858_2015_2018
Elec,1229,One Stop Stores Limited,,NETHERFIELD NELSON,Unit A Unit A Netherfield Store  Netherfield Road   Nelson,,,BB9 9QA,,Carl Barker,LV,10,4,811,661,1620001428352,NHH,Npower Limited,01/04/2015,31/03/2018,1,,,138830,,,,,,Flexible Contract,Tender Completed,No,Yes,02462858_2015_2018
Elec,1229,One Stop Stores Limited,,2980 - MIDDLETON ROAD,82-83  Middleton Road   Manchester,,,M8 4JY,,Carl Barker,LV,10,3,801,631,1640000356781,NHH,Npower Limited,01/04/2015,31/03/2018,1,,,155324,,,,,,Flexible Contract,Tender Completed,No,Yes,02462858_2015_2018
Elec,1229,One Stop Stores Limited,,COX LANE - CHESSINGTON,Unit 2 Unit 2 39A  Cox Lane   Chessington,,,KT9 1SG,,Carl Barker,LV,10,3,801,320,1900090755866,NHH,Npower Limited,01/04/2015,31/03/2018,1,,,139117,,,,,,Flexible Contract,Tender Completed,No,Yes,02462858_2015_2018
Elec,1229,One Stop Stores Limited,,2963 -  3-4 CHERRY TREE CLOSE,Southmoore Food 3-4  Cherry Tree Close  Southmoor Abingdon,,,OX13 5BB,,Carl Barker,LV,10,4,111,136,2000009175229,NHH,Npower Limited,01/04/2015,31/03/2018,1,,,1442223,,,,,,Flexible Contract,Tender Completed,No,Yes,02462858_2015_2018
Elec,1229,One Stop Stores Limited,,CHAPEL LANE - FARNBOROUGH,Greatway Superstore 96  Chapel Lane   Farnborough,,,GU14 9BL,,Carl Barker,LV,10,4,44,129,2000017128907,NHH,Npower Limited,01/04/2015,31/03/2018,1,,,139975,,,,,,Flexible Contract,Tender Completed,No,Yes,02462858_2015_2018
Elec,1229,One Stop Stores Limited,,2949 YEOVIL - ROSEBERY,69  Rosebery Avenue   Yeovil,,,BA21 5LQ,,Carl Barker,LV,10,3,801,127,2000026198469,NHH,Npower Limited,01/04/2015,31/03/2018,1,,,1404410,,,,,,Flexible Contract,Tender Completed,No,Yes,02462858_2015_2018
Elec,1229,One Stop Stores Limited,,2999 A,Plot 53  Dvq657A53  Cumbria Way Millbrook  Southampton,,,SO16 4AT,,Carl Barker,LV,10,1,801,100,2000055694634,NHH,Npower Limited,01/04/2015,31/03/2018,1,,,155300,,,,,,Flexible Contract,Tender Completed,No,Yes,02462858_2015_2018
Elec,1229,One Stop Stores Limited,,115 ELSON ROAD,Plot 1 Plot 1 Shop 113-115  Eag306A01  Elson Road   Gosport,,,PO12 4AA,,Carl Barker,LV,65,4,44,127,2000055933454,NHH,Npower Limited,01/04/2015,31/03/2018,1,,,14874,,,,,,Flexible Contract,Tender Completed,No,Yes,02462858_2015_2018
Elec,1229,One Stop Stores Limited,,THE CIRCLE SWINDON,Unit 1  Dwt108A01  The Circle   Swindon,,,SN2 1QR,,Carl Barker,LV,70,4,44,127,2000055959249,NHH,Npower Limited,01/04/2015,31/03/2018,1,,,144184,,,,,,Flexible Contract,Tender Completed,No,Yes,02462858_2015_2018
Elec,1229,One Stop Stores Limited,,2888 - NORTH EAST ROAD,Plot 1 New Convenience Store 119 New Convenience Store 119  Ebd760A01  North East Road Southampton   ,,,SO19 8AJ,,Carl Barker,LV,65,4,44,129,2000056011250,NHH,Npower Limited,01/04/2015,31/03/2018,1,,,154638,,,,,,Flexible Contract,Tender Completed,No,Yes,02462858_2015_2018
Elec,1229,One Stop Stores Limited,,2840 PONTYPOOL,Panteg Station  Station Road  Griffithstown Pontypool,,,NP4 5JH,,Carl Barker,LV,10,3,801,200,2100040552125,NHH,Npower Limited,01/04/2015,31/03/2018,1,,,1405297,,,,,,Flexible Contract,Tender Completed,No,Yes,02462858_2015_2018
Elec,1229,One Stop Stores Limited,,FORMER D&J SERVICES WORKSHOP,Unit 3A Unit 3A 43-47  Eaton Road  Brynhyfryd Swansea,,,SA5 9JX,,Carl Barker,LV,10,3,801,200,2199989638641,NHH,Npower Limited,01/04/2015,31/03/2018,1,,,140221,,,,,,Flexible Contract,Tender Completed,No,Yes,02462858_2015_2018
Elec,1229,One Stop Stores Limited,,2829 - NEWBRIDGE,Showroom  High Street  Newbridge Newport,,,NP11 4FW,,Carl Barker,LV,10,3,801,200,2199990299160,NHH,Npower Limited,01/04/2015,31/03/2018,1,,,145981,,,,,,Flexible Contract,Tender Completed,No,Yes,02462858_2015_2018
Elec,1229,One Stop Stores Limited,,2926 - CLARE ROAD,The Neville   52  Clare Road   Cardiff,,,CF11 6RS,,Carl Barker,LV,10,4,808,201,2199993100382,NHH,Npower Limited,01/04/2015,31/03/2018,1,,,177910,,,,,,Flexible Contract,Tender Completed,No,Yes,02462858_2015_2018
Elec,1229,One Stop Stores Limited,,11 CHESTNUT WAY,11  Chestnut Way  Gurnos Estate Merthyr Tydfil,,,CF47 9SB,,Carl Barker,LV,10,3,801,200,2199995398830,NHH,Npower Limited,01/04/2015,31/03/2018,1,,,90161,,,,,,Flexible Contract,Tender Completed,No,Yes,02462858_2015_2018
Elec,1229,One Stop Stores Limited,,2882 - ABERAMAN LEWIS,25-28  Lewis Street   Aberdare,,,CF44 6PY,,Carl Barker,LV,10,4,811,201,2199995564899,NHH,Npower Limited,01/04/2015,31/03/2018,1,,,1439221,,,,,,Flexible Contract,Tender Completed,No,Yes,02462858_2015_2018
Elec,1229,One Stop Stores Limited,,2907 MANSELTON,43-47  Eaton Road  Brynhyfryd Swansea,,,SA5 9JU,,Carl Barker,LV,10,3,801,200,2199997928601,NHH,Npower Limited,01/04/2015,31/03/2018,1,,,1405297,,,,,,Flexible Contract,Tender Completed,No,Yes,02462858_2015_2018
Elec,1229,One Stop Stores Limited,,5017 - WEST STREET,148  West Street  Hoyland Barnsley,,,S74 9DU,,Carl Barker,HV,51,0,845,281,2300000238770,HH,Npower Limited,01/04/2015,31/03/2018,1,,,192301,,,,,,Flexible Contract,Tender Completed,No,Yes,02462858_2015_2018
Elec,1229,One Stop Stores Limited,,2937 - FORMER EAST DENE HOTEL,One Stop Stores Ltd  Badsley Moor Lane   Rotherham,,,S65 2QR,,Carl Barker,LV,10,4,829,246,2331772736011,NHH,Npower Limited,01/04/2015,31/03/2018,1,,,1444280,,,,,,Flexible Contract,Tender Completed,No,Yes,02462858_2015_2018
Elec,1229,One Stop Stores Limited,,MACE  - STORE 5034,Huttons The Local The Local 90  Halifax Road   Sheffield,,,S6 1LH,,Carl Barker,LV,0,3,801,240,2333900895716,NHH,Npower Limited,01/04/2015,31/03/2018,1,,,1,,,,,,Flexible Contract,Tender Completed,No,Yes,02462858_2015_2018
Elec,1229,One Stop Stores Limited,,STORE 5028,7  Darnley Buildings  Unit 1  Queen Marys Road  New Rossington Doncaster,,,DN11 0TS,,Carl Barker,HV,80,0,845,281,2335372984013,HH,Npower Limited,01/04/2015,31/03/2018,1,,,140866,,,,,,Flexible Contract,Tender Completed,No,Yes,02462858_2015_2018
Elec,1229,One Stop Stores Limited,,KIVETON PARK ROTHERHAM,Costcutter Superstore 25  Station Road  Kiveton Park Sheffield,,,S26 6QP,,Carl Barker,LV,10,4,811,246,2336560622119,NHH,Npower Limited,01/04/2015,31/03/2018,1,,,1418317,,,,,,Flexible Contract,Tender Completed,No,Yes,02462858_2015_2018
Elec,1229,One Stop Stores Limited,,2893 HIGHGATE DUDLEY,The Crown  Highgate Road Woodside  Dudley,,,DY2 0SN,,Carl Barker,LV,10,1,801,1,1415420490002,NHH,Npower Limited,01/04/2015,31/03/2018,1,,,1398849,,,,,,Flexible Contract,Tender Completed,No,Yes,02462858_2015_2018
