fuel,customer_id,customer_name,site_id,site_name,address_1,address_2,address_3,Country,postcode,analyst_name,accountmanager_name,voltage,asc,profile,mtc,llf,meter,read_frequency,supplier_name,start_date,end_date,rate_allunit,rate_day,rate_night,usage_allunit,usage_day,usage_night,standingcharge_month,commission_kwh,commission_year,contract_type,tender_status,termination_optout,registration_confirmed,contract_id
Elec,3080,Veolia Water Operations Ireland Ltd,,Blessington WWTP,Sewage   Works,Burgage  More,"Blessington, Wicklow",United Kingdom,SY5 7EM,Monika Lontay,Sheila O'Riordan,LV,180,0,0,0,8010000039812,HH,Airtricity,01/10/2015,30/09/2017,1,,,309416.5,,,,,,Flexible Contract,Tender Completed,No,Yes,218296_2015_2017
Elec,3080,Veolia Water Operations Ireland Ltd,,Clareville WTP,Waterworks,"Clareille, Limerick",,United Kingdom,SY5 7EM,Monika Lontay,Sheila O'Riordan,LV,1400,0,0,0,8010000062326,HH,Airtricity,01/10/2015,30/09/2017,1,,,5321530,,,,,,Flexible Contract,Tender Completed,No,Yes,218296_2015_2017
Elec,3080,Veolia Water Operations Ireland Ltd,,Stranooden - Drumskelt PS,"Pumphouse, Drumskelt Ballybay Co Monaghan",,,United Kingdom,SY5 7EM,Monika Lontay,Sheila O'Riordan,LV,60,0,0,0,8010000082171,HH,Airtricity,01/10/2015,30/09/2017,1,,,398036,,,,,,Flexible Contract,Tender Completed,No,Yes,218296_2015_2017
Elec,3080,Veolia Water Operations Ireland Ltd,,Clifferna WTP,"Pumphouse, Moylett, Grousehall","Bailieborough, Cavan",,United Kingdom,SY5 7EM,Monika Lontay,Sheila O'Riordan,LV,80,0,0,0,8010000082219,HH,Airtricity,01/10/2015,30/09/2017,1,,,317329.5,,,,,,Flexible Contract,Tender Completed,No,Yes,218296_2015_2017
Elec,3080,Veolia Water Operations Ireland Ltd,,Stranooden - Lisnaveane PS,"Booster Pump, Lisnaveane, Co. Monaghan",,,United Kingdom,SY5 7EM,Monika Lontay,Sheila O'Riordan,LV,60,0,0,0,8010000085019,HH,Airtricity,01/10/2015,30/09/2017,1,,,326298,,,,,,Flexible Contract,Tender Completed,No,Yes,218296_2015_2017
Elec,3080,Veolia Water Operations Ireland Ltd,,Glaslough WTP,"Derrygassan  Lower,  Emyvale, Co. Monaghan",,,United Kingdom,SY5 7EM,Monika Lontay,Sheila O'Riordan,LV,110,0,0,0,8010000085055,HH,Airtricity,01/10/2015,30/09/2017,1,,,307518,,,,,,Flexible Contract,Tender Completed,No,Yes,218296_2015_2017
Elec,3080,Veolia Water Operations Ireland Ltd,,Billis Lavey PS,"Pumphouse, Killyduff, Virginia, Cavan",,,United Kingdom,SY5 7EM,Monika Lontay,Sheila O'Riordan,LV,106,0,0,0,8010000087895,HH,Airtricity,01/10/2015,30/09/2017,1,,,103999.5,,,,,,Flexible Contract,Tender Completed,No,Yes,218296_2015_2017
Elec,3080,Veolia Water Operations Ireland Ltd,,Billis Lavey WTP,"Lattoon, Ballyjamesduff, Co. Cavan",,,United Kingdom,SY5 7EM,Monika Lontay,Sheila O'Riordan,LV,90,0,0,0,8010025117725,HH,Airtricity,01/10/2015,30/09/2017,1,,,335865,,,,,,Flexible Contract,Tender Completed,No,Yes,218296_2015_2017
Elec,3080,Veolia Water Operations Ireland Ltd,,Ballinacourty WWTP,"Ballinacourty, Dungarvan, Waterford",,,United Kingdom,SY5 7EM,Monika Lontay,Sheila O'Riordan,LV,300,0,0,0,8010300217110,HH,Airtricity,01/10/2015,30/09/2017,1,,,638904,,,,,,Flexible Contract,Tender Completed,No,Yes,218296_2015_2017
Elec,3080,Veolia Water Operations Ireland Ltd,,Tramore WWTP,"Crobally Upper, Tramore, Waterford",,,United Kingdom,SY5 7EM,Monika Lontay,Sheila O'Riordan,LV,160,0,0,0,8010302143913,HH,Airtricity,01/10/2015,30/09/2017,1,,,578123,,,,,,Flexible Contract,Tender Completed,No,Yes,218296_2015_2017
Elec,3080,Veolia Water Operations Ireland Ltd,,Donegal WWTP,"Drumkeeghan, Donegal Town, Donegal",,,United Kingdom,SY5 7EM,Monika Lontay,Sheila O'Riordan,LV,500,0,0,0,8010302796411,HH,Airtricity,01/10/2015,30/09/2017,1,,,966764,,,,,,Flexible Contract,Tender Completed,No,Yes,218296_2015_2017
Elec,3080,Veolia Water Operations Ireland Ltd,,Peir Pumping Station,"Donegal New Prier, Pumping Station","Glebe, Co. Donegal",,United Kingdom,SY5 7EM,Monika Lontay,Sheila O'Riordan,LV,500,0,0,0,8010302796427,HH,Airtricity,01/10/2015,30/09/2017,1,,,535591,,,,,,Flexible Contract,Tender Completed,No,Yes,218296_2015_2017
Elec,3080,Veolia Water Operations Ireland Ltd,,Castlebar WWTP,Outfall   PS   and   Sewerage   Plant,"Knockthomas, Turlough Rd. Castlebar, Co. Mayo",,United Kingdom,SY5 7EM,Monika Lontay,Sheila O'Riordan,LV,400,0,0,0,8010300218860,HH,Airtricity,01/10/2015,30/09/2017,1,,,1822565,,,,,,Flexible Contract,Tender Completed,No,Yes,218296_2015_2017
Elec,3080,Veolia Water Operations Ireland Ltd,,Aughnashalvey WTP,"Aughnashalvey GWS, Aughnashalvey","Kilcorran, Smithboro, Co. Monaghan",,United Kingdom,SY5 7EM,Monika Lontay,Sheila O'Riordan,LV,400,0,0,0,8010301207248,HH,Airtricity,01/10/2015,30/09/2017,1,,,127384.5,,,,,,Flexible Contract,Tender Completed,No,Yes,218296_2015_2017
Elec,3080,Veolia Water Operations Ireland Ltd,,Knockrobin WWTP,Knockrobin  Waste Water Treatment,"Plant, Knockrobin, Wicklow",,United Kingdom,SY5 7EM,Monika Lontay,Sheila O'Riordan,LV,450,0,0,0,8010304731984,HH,Airtricity,01/10/2015,30/09/2017,1,,,1083411,,,,,,Flexible Contract,Tender Completed,No,Yes,218296_2015_2017
Elec,3080,Veolia Water Operations Ireland Ltd,,Lynn Road PS,"Pumping Station, Lynn Rd. Mullingar",Westmeath,,United Kingdom,SY5 7EM,Monika Lontay,Sheila O'Riordan,LV,387,0,0,0,8010305054218,HH,Airtricity,01/10/2015,30/09/2017,1,,,265287.5,,,,,,Flexible Contract,Tender Completed,No,Yes,218296_2015_2017
Elec,3080,Veolia Water Operations Ireland Ltd,,Mullingar WWTP,"Sewage  Plant,  Clonmore,  Mullingar",Westmeath,,United Kingdom,SY5 7EM,Monika Lontay,Sheila O'Riordan,LV,510,0,0,0,8010000093700,HH,Airtricity,01/10/2015,30/09/2017,1,,,2450423,,,,,,Flexible Contract,Tender Completed,No,Yes,218296_2015_2017
Elec,3080,Veolia Water Operations Ireland Ltd,,Killybegs Main Pumping Station,"Main  Pumping  Station,  The  Glebe","Killybegs, Donegal",,United Kingdom,SY5 7EM,Monika Lontay,Sheila O'Riordan,LV,640,0,0,0,8010305458085,HH,Airtricity,01/10/2015,30/09/2017,1,,,214534,,,,,,Flexible Contract,Tender Completed,No,Yes,218296_2015_2017
Elec,3080,Veolia Water Operations Ireland Ltd,,Corduff PS,PUMPHOUSE  CORDUFF,,,United Kingdom,SY5 7EM,Monika Lontay,Sheila O'Riordan,LV,77,0,0,0,8010000084366,HH,Airtricity,01/10/2015,30/09/2017,1,,,43667.5,,,,,,Flexible Contract,Tender Completed,No,Yes,218296_2015_2017
Elec,3080,Veolia Water Operations Ireland Ltd,,Stranooden WTP,CORCAGHAN,,,United Kingdom,SY5 7EM,Monika Lontay,Sheila O'Riordan,LV,120,0,0,0,8010000084964,HH,Airtricity,01/10/2015,30/09/2017,1,,,176579,,,,,,Flexible Contract,Tender Completed,No,Yes,218296_2015_2017
Elec,3080,Veolia Water Operations Ireland Ltd,,Churchill Oram PS,PUMPHOUSE  DRUMLEEK NORTH,,,United Kingdom,SY5 7EM,Monika Lontay,Sheila O'Riordan,LV,49,0,0,0,8010000084246,HH,Airtricity,01/10/2015,30/09/2017,1,,,151972.5,,,,,,Flexible Contract,Tender Completed,No,Yes,218296_2015_2017
Elec,3080,Veolia Water Operations Ireland Ltd,,RAW WATER PUMPHOUSE SPRING MN,"RAW WATER PUMPHOUSE, SPRING, MN",,,United Kingdom,SY5 7EM,Monika Lontay,Sheila O'Riordan,LV,82,0,0,0,8010000086649,HH,Airtricity,01/10/2015,30/09/2017,1,,,140504,,,,,,Flexible Contract,Tender Completed,No,Yes,218296_2015_2017
Elec,3080,Veolia Water Operations Ireland Ltd,,Tullylost Rathangan,Dummy,Dummy 2,,United Kingdom,SY5 7EM,Monika Lontay,Sheila O'Riordan,LV,500,0,0,0,8010301674961,HH,Airtricity,01/10/2015,30/09/2017,1,,,394920,,,,,,Flexible Contract,Tender Completed,No,Yes,218296_2015_2017
Elec,3080,Veolia Water Operations Ireland Ltd,,Greystones WWTW,Dummy,Dummy 2,,United Kingdom,SY5 7EM,Monika Lontay,Sheila O'Riordan,LV,330,0,0,0,8010000031181,HH,Airtricity,01/10/2015,30/09/2017,1,,,1885966,,,,,,Flexible Contract,Tender Completed,No,Yes,218296_2015_2017
Elec,3080,Veolia Water Operations Ireland Ltd,,Osberstown WWPT,"New Sewage Treatment Plant
","Osberstown, Naas",,United Kingdom,SY5 7EM,Monika Lontay,Sheila O'Riordan,LV,800,0,0,0,8010000039250,HH,Airtricity,01/10/2015,30/09/2017,1,,,3145947.5,,,,,,Flexible Contract,Tender Completed,No,Yes,218296_2015_2017
Elec,3080,Veolia Water Operations Ireland Ltd,,Murrough PS,MURRAGH PUMPING STATION  THE MURROUGH,,,United Kingdom,SY5 7EM,Monika Lontay,Sheila O'Riordan,LV,170,0,0,0,8010000082040,NHH,Airtricity,01/10/2015,30/09/2017,1,,,218280,,,,,,Flexible Contract,Tender Completed,No,Yes,218296_2015_2017
Elec,3080,Veolia Water Operations Ireland Ltd,,Dernakesh WTP,BARNAGROW LAKE,,,United Kingdom,SY5 7EM,Monika Lontay,Sheila O'Riordan,LV,60,0,0,0,8010000082404,NHH,Airtricity,01/10/2015,30/09/2017,1,,,75250,,,,,,Flexible Contract,Tender Completed,No,Yes,218296_2015_2017
Elec,3080,Veolia Water Operations Ireland Ltd,,Crosserlough PS,CROSSERLOUGH CO OP GWS,,,United Kingdom,SY5 7EM,Monika Lontay,Sheila O'Riordan,LV,74,0,0,0,8010000083026,NHH,Airtricity,01/10/2015,30/09/2017,1,,,95170,,,,,,Flexible Contract,Tender Completed,No,Yes,218296_2015_2017
Elec,3080,Veolia Water Operations Ireland Ltd,,Crosserlough WTP,WATER TREATMENT PLANT  GRADDUM,,,United Kingdom,SY5 7EM,Monika Lontay,Sheila O'Riordan,LV,40,0,0,0,8010000083099,NHH,Airtricity,01/10/2015,30/09/2017,1,,,141450,,,,,,Flexible Contract,Tender Completed,No,Yes,218296_2015_2017
Elec,3080,Veolia Water Operations Ireland Ltd,,Ashford PS,ASHFORD SEWAGE WORKS  MOUNT USHER,,,United Kingdom,SY5 7EM,Monika Lontay,Sheila O'Riordan,LV,82,0,0,0,8010012825192,NHH,Airtricity,01/10/2015,30/09/2017,1,,,38750,,,,,,Flexible Contract,Tender Completed,No,Yes,218296_2015_2017
Elec,3080,Veolia Water Operations Ireland Ltd,,Rathnew PS,RATHNEW SEWAGE WORKS  RATHNEW,,,United Kingdom,SY5 7EM,Monika Lontay,Sheila O'Riordan,LV,100,0,0,0,8010013759650,NHH,Airtricity,01/10/2015,30/09/2017,1,,,51575,,,,,,Flexible Contract,Tender Completed,No,Yes,218296_2015_2017
Elec,3080,Veolia Water Operations Ireland Ltd,,Dhuish PS,PUMPHOUSE  ANNAGHIERIN,,,United Kingdom,SY5 7EM,Monika Lontay,Sheila O'Riordan,LV,60,0,0,0,8010014857870,NHH,Airtricity,01/10/2015,30/09/2017,1,,,60800,,,,,,Flexible Contract,Tender Completed,No,Yes,218296_2015_2017
Elec,3080,Veolia Water Operations Ireland Ltd,,Drumkeery WTP,CORGLASS,,,United Kingdom,SY5 7EM,Monika Lontay,Sheila O'Riordan,LV,80,0,0,0,8010025118086,NHH,Airtricity,01/10/2015,30/09/2017,1,,,104700,,,,,,Flexible Contract,Tender Completed,No,Yes,218296_2015_2017
Elec,3080,Veolia Water Operations Ireland Ltd,,Ballinagaul WWTP,HELVICK,,,United Kingdom,SY5 7EM,Monika Lontay,Sheila O'Riordan,LV,70,0,0,0,8010301459377,NHH,Airtricity,01/10/2015,30/09/2017,1,,,11950,,,,,,Flexible Contract,Tender Completed,No,Yes,218296_2015_2017
Elec,3080,Veolia Water Operations Ireland Ltd,,Dhuish WTP,DHUISH WATER TREATMENT PLANT  DHUISH WATER TREATMENT PLANT,,,United Kingdom,SY5 7EM,Monika Lontay,Sheila O'Riordan,LV,70,0,0,0,8010301703038,NHH,Airtricity,01/10/2015,30/09/2017,1,,,53850,,,,,,Flexible Contract,Tender Completed,No,Yes,218296_2015_2017
Elec,3080,Veolia Water Operations Ireland Ltd,,Ballyshannon WWTP,WATER TREATMENT PLANT  BALLYSHANNON WASTEWATER TRATMENT PLANT,,,United Kingdom,SY5 7EM,Monika Lontay,Sheila O'Riordan,LV,150,0,0,0,8010302932308,NHH,Airtricity,01/10/2015,30/09/2017,1,,,113750,,,,,,Flexible Contract,Tender Completed,No,Yes,218296_2015_2017
Elec,3080,Veolia Water Operations Ireland Ltd,,Ballyshannon Main PS,BALLYSHANNON MAIN PUMPING STATION  BALLYSHANNON MAIN PUMPING STATION,,,United Kingdom,SY5 7EM,Monika Lontay,Sheila O'Riordan,LV,150,0,0,0,8010302932986,NHH,Airtricity,01/10/2015,30/09/2017,1,,,63350,,,,,,Flexible Contract,Tender Completed,No,Yes,218296_2015_2017
Elec,3080,Veolia Water Operations Ireland Ltd,,Ballyshannon WWTP 2,ROSSNOWLAGH LOWER,,,United Kingdom,SY5 7EM,Monika Lontay,Sheila O'Riordan,LV,150,0,0,0,8010304050495,NHH,Airtricity,01/10/2015,30/09/2017,1,,,55175,,,,,,Flexible Contract,Tender Completed,No,Yes,218296_2015_2017
Elec,3080,Veolia Water Operations Ireland Ltd,,HQ,IDA BUSINESS PARK,,,United Kingdom,SY5 7EM,Monika Lontay,Sheila O'Riordan,LV,63,0,0,0,8010011625410,NHH,Airtricity,01/10/2015,30/09/2017,1,,,163140,,,,,,Flexible Contract,Tender Completed,No,Yes,218296_2015_2017
Elec,3080,Veolia Water Operations Ireland Ltd,,Truagh WTP,TRUAGH WATER TREAT PLANT  TRAUGH WATER TREAT PLANT,,,United Kingdom,SY5 7EM,Monika Lontay,Sheila O'Riordan,LV,45,0,0,0,8010014027890,NHH,Airtricity,01/10/2015,30/09/2017,1,,,72350,,,,,,Flexible Contract,Tender Completed,No,Yes,218296_2015_2017
Elec,3080,Veolia Water Operations Ireland Ltd,,Smithboro WTP,PUMPHOUSE  TEMPLETATE,,,United Kingdom,SY5 7EM,Monika Lontay,Sheila O'Riordan,LV,67,0,0,0,8010014751720,NHH,Airtricity,01/10/2015,30/09/2017,1,,,34347,,,,,,Flexible Contract,Tender Completed,No,Yes,218296_2015_2017
Elec,3080,Veolia Water Operations Ireland Ltd,,Churchill Oram WTP,WATER TREATMENT PLANT  WATER TREATMENT PLANT,,,United Kingdom,SY5 7EM,Monika Lontay,Sheila O'Riordan,LV,25,0,0,0,8010014863457,NHH,Airtricity,01/10/2015,30/09/2017,1,,,55739,,,,,,Flexible Contract,Tender Completed,No,Yes,218296_2015_2017
Elec,3080,Veolia Water Operations Ireland Ltd,,Glinsk & Creggs PS,PUMPHOUSE  GLINSK,,,United Kingdom,SY5 7EM,Monika Lontay,Sheila O'Riordan,LV,15,0,0,0,8010015714669,NHH,Airtricity,01/10/2015,30/09/2017,1,,,17070,,,,,,Flexible Contract,Tender Completed,No,Yes,218296_2015_2017
Elec,3080,Veolia Water Operations Ireland Ltd,,Pollcats Springs WTP,UNIT 1   POLLACAT SPRINGS,,,United Kingdom,SY5 7EM,Monika Lontay,Sheila O'Riordan,LV,45,0,0,0,8010017394498,NHH,Airtricity,01/10/2015,30/09/2017,1,,,119978,,,,,,Flexible Contract,Tender Completed,No,Yes,218296_2015_2017
Elec,3080,Veolia Water Operations Ireland Ltd,,Drumgole WTP,KNOCKCOR,,,United Kingdom,SY5 7EM,Monika Lontay,Sheila O'Riordan,LV,50,0,0,0,8010018449905,NHH,Airtricity,01/10/2015,30/09/2017,1,,,145650,,,,,,Flexible Contract,Tender Completed,No,Yes,218296_2015_2017
Elec,3080,Veolia Water Operations Ireland Ltd,,Inniskeen WTP,WATER TREATMENT PLANT  WATER TREATMENT PLANT,,,United Kingdom,SY5 7EM,Monika Lontay,Sheila O'Riordan,LV,29,0,0,0,8010018664669,NHH,Airtricity,01/10/2015,30/09/2017,1,,,65311,,,,,,Flexible Contract,Tender Completed,No,Yes,218296_2015_2017
Elec,3080,Veolia Water Operations Ireland Ltd,,DOOHAMLET WATER RESERVOIR,DOOHAMLET WATER RESERVOIR  CORDERRYDUFF,,,United Kingdom,SY5 7EM,Monika Lontay,Sheila O'Riordan,LV,15,0,0,0,8010019043878,NHH,Airtricity,01/10/2015,30/09/2017,1,,,1083,,,,,,Flexible Contract,Tender Completed,No,Yes,218296_2015_2017
Elec,3080,Veolia Water Operations Ireland Ltd,,Tydavnet WTP,ESHNAGLOGH,,,United Kingdom,SY5 7EM,Monika Lontay,Sheila O'Riordan,LV,28,0,0,0,8010019822106,NHH,Airtricity,01/10/2015,30/09/2017,1,,,76850,,,,,,Flexible Contract,Tender Completed,No,Yes,218296_2015_2017
Elec,3080,Veolia Water Operations Ireland Ltd,,Doohamlet WTP,WATER TREATMENT PLANT  TOOME,,,United Kingdom,SY5 7EM,Monika Lontay,Sheila O'Riordan,LV,60,0,0,0,8010019877189,NHH,Airtricity,01/10/2015,30/09/2017,1,,,138850,,,,,,Flexible Contract,Tender Completed,No,Yes,218296_2015_2017
Elec,3080,Veolia Water Operations Ireland Ltd,,Truagh PS,PUMPING STATION  GREAGH,,,United Kingdom,SY5 7EM,Monika Lontay,Sheila O'Riordan,LV,45,0,0,0,8010020046176,NHH,Airtricity,01/10/2015,30/09/2017,1,,,125524,,,,,,Flexible Contract,Tender Completed,No,Yes,218296_2015_2017
Elec,3080,Veolia Water Operations Ireland Ltd,,Killanny WTP,KILLANY WATER TREATMENT  ANNACROFT,,,United Kingdom,SY5 7EM,Monika Lontay,Sheila O'Riordan,LV,40,0,0,0,8010020320114,NHH,Airtricity,01/10/2015,30/09/2017,1,,,109624,,,,,,Flexible Contract,Tender Completed,No,Yes,218296_2015_2017
Elec,3080,Veolia Water Operations Ireland Ltd,,Corduff WTP,UMMERAFREE,,,United Kingdom,SY5 7EM,Monika Lontay,Sheila O'Riordan,LV,45,0,0,0,8010020355233,NHH,Airtricity,01/10/2015,30/09/2017,1,,,78950,,,,,,Flexible Contract,Tender Completed,No,Yes,218296_2015_2017
Elec,3080,Veolia Water Operations Ireland Ltd,,Newbliss WTP,LOUGHFEA,,,United Kingdom,SY5 7EM,Monika Lontay,Sheila O'Riordan,LV,45,0,0,0,8010021070691,NHH,Airtricity,01/10/2015,30/09/2017,1,,,55900,,,,,,Flexible Contract,Tender Completed,No,Yes,218296_2015_2017
Elec,3080,Veolia Water Operations Ireland Ltd,,Mountain Lodge WTP,WATER TREATMENT PLANT  DRUMACULLION,,,United Kingdom,SY5 7EM,Monika Lontay,Sheila O'Riordan,LV,40,0,0,0,8010300058650,NHH,Airtricity,01/10/2015,30/09/2017,1,,,160650,,,,,,Flexible Contract,Tender Completed,No,Yes,218296_2015_2017
Elec,3080,Veolia Water Operations Ireland Ltd,,Mountain Lodge PS,RAW WATER PUMPHOUSE  MOUNTAINLODGE,,,United Kingdom,SY5 7EM,Monika Lontay,Sheila O'Riordan,LV,60,0,0,0,8010300058697,NHH,Airtricity,01/10/2015,30/09/2017,1,,,100912,,,,,,Flexible Contract,Tender Completed,No,Yes,218296_2015_2017
Elec,3080,Veolia Water Operations Ireland Ltd,,Office,UNIT 7  UNIT 7 CASTLE STREET,,,United Kingdom,SY5 7EM,Monika Lontay,Sheila O'Riordan,LV,20,0,0,0,8010300832712,NHH,Airtricity,01/10/2015,30/09/2017,1,,,14998,,,,,,Flexible Contract,Tender Completed,No,Yes,218296_2015_2017
Elec,3080,Veolia Water Operations Ireland Ltd,,Harris House Tuam Road Galway,HARRIS HOUSE,,,United Kingdom,SY5 7EM,Monika Lontay,Sheila O'Riordan,LV,15,0,0,0,8010301093939,NHH,Airtricity,01/10/2015,30/09/2017,1,,,28293,,,,,,Flexible Contract,Tender Completed,No,Yes,218296_2015_2017
Elec,3080,Veolia Water Operations Ireland Ltd,,Glinsk & Creggs WTP,GLINSK & CREGGS RAW WATER  CLOONCAGH,,,United Kingdom,SY5 7EM,Monika Lontay,Sheila O'Riordan,LV,15,0,0,0,8010301304688,NHH,Airtricity,01/10/2015,30/09/2017,1,,,77930,,,,,,Flexible Contract,Tender Completed,No,Yes,218296_2015_2017
Elec,3080,Veolia Water Operations Ireland Ltd,,Bunnoe WTP,BUNNOE WATER TREATMENT PLANT  KILLNEEAGH,,,United Kingdom,SY5 7EM,Monika Lontay,Sheila O'Riordan,LV,40,0,0,0,8010301373579,NHH,Airtricity,01/10/2015,30/09/2017,1,,,79272,,,,,,Flexible Contract,Tender Completed,No,Yes,218296_2015_2017
Elec,3080,Veolia Water Operations Ireland Ltd,,Kill WTP,KILL WATER TREATMENT PLANT  KILL,,,United Kingdom,SY5 7EM,Monika Lontay,Sheila O'Riordan,LV,30,0,0,0,8010301674612,NHH,Airtricity,01/10/2015,30/09/2017,1,,,21350,,,,,,Flexible Contract,Tender Completed,No,Yes,218296_2015_2017
Elec,3080,Veolia Water Operations Ireland Ltd,,Ballyshannon North Bank PS,PUMPING STATION ERNE TERRACE  BALLYSHANNON NORTH BANK,,,United Kingdom,SY5 7EM,Monika Lontay,Sheila O'Riordan,LV,49,0,0,0,8010302932357,NHH,Airtricity,01/10/2015,30/09/2017,1,,,19853,,,,,,Flexible Contract,Tender Completed,No,Yes,218296_2015_2017
Elec,3080,Veolia Water Operations Ireland Ltd,,Rossnawlagh PS,ROSSNOWLAGH UPPER,,,United Kingdom,SY5 7EM,Monika Lontay,Sheila O'Riordan,LV,49,0,0,0,8010303170279,NHH,Airtricity,01/10/2015,30/09/2017,1,,,20334,,,,,,Flexible Contract,Tender Completed,No,Yes,218296_2015_2017
Elec,3080,Veolia Water Operations Ireland Ltd,,Veolia Water 19 Mail Coach Road Sligo,19 MAIL COACH ROAD,,,United Kingdom,SY5 7EM,Monika Lontay,Sheila O'Riordan,LV,24,0,0,0,8010303561464,NHH,Airtricity,01/10/2015,30/09/2017,1,,,14756,,,,,,Flexible Contract,Tender Completed,No,Yes,218296_2015_2017
Elec,3080,Veolia Water Operations Ireland Ltd,,Hybla Water supply Scheme,Dummy 3,Dummy 4,,United Kingdom,SY5 7EM,Monika Lontay,Sheila O'Riordan,LV,500,0,0,0,8010303663298,NHH,Airtricity,01/10/2015,30/09/2017,1,,,540000,,,,,,Flexible Contract,Tender Completed,No,Yes,218296_2015_2017
Elec,3080,Veolia Water Operations Ireland Ltd,,Killybegs sewerage Pump 1,SEWAGE PUMP NO 1 SEWAGE PUMP NO 1 KILLYBEGS SEWERAGE SCHEME,,,United Kingdom,SY5 7EM,Monika Lontay,Sheila O'Riordan,LV,80,0,0,0,8010000095493,NHH,Airtricity,01/10/2015,30/09/2017,1,,,29500,,,,,,Flexible Contract,Tender Completed,No,Yes,218296_2015_2017
Elec,3080,Veolia Water Operations Ireland Ltd,,H9 Hybla,Dummy 5,Dummy 6,,United Kingdom,SY5 7EM,Monika Lontay,Sheila O'Riordan,LV,15,0,0,0,8010303518793,NHH,Airtricity,01/10/2015,30/09/2017,1,,,52150,,,,,,Flexible Contract,Tender Completed,No,Yes,218296_2015_2017
Elec,3080,Veolia Water Operations Ireland Ltd,,RAW WATER PUMPING STATION,"RAW WATER PUMPING STATION, NAFFERTY, CASTLEBLANEY ROAD, MN",,,United Kingdom,SY5 7EM,Monika Lontay,Sheila O'Riordan,LV,44,0,0,0,8010000086672,NHH,Airtricity,01/10/2015,30/09/2017,1,,,463600,,,,,,Flexible Contract,Tender Completed,No,Yes,218296_2015_2017
Elec,3080,Veolia Water Operations Ireland Ltd,,TREATED WATER LISANISK RESERVOIR,"TREATED WATER, LISANISK, RESERVOIR SITE, MN",,,United Kingdom,SY5 7EM,Monika Lontay,Sheila O'Riordan,LV,15,0,0,0,8010014872059,NHH,Airtricity,01/10/2015,30/09/2017,1,,,121,,,,,,Flexible Contract,Tender Completed,No,Yes,218296_2015_2017
Elec,3080,Veolia Water Operations Ireland Ltd,,TREATED WATER LISANISK FLUORIDATION,"TREATED WATER, LISANISK, FLUORIDATION HOUS",,,United Kingdom,SY5 7EM,Monika Lontay,Sheila O'Riordan,LV,15,0,0,0,8010014872473,NHH,Airtricity,01/10/2015,30/09/2017,1,,,5938,,,,,,Flexible Contract,Tender Completed,No,Yes,218296_2015_2017
Elec,3080,Veolia Water Operations Ireland Ltd,,TREATED WATER CHLORINATION HOUSE NAFFERTY,"TREATED WATER CHLORINATION HOUSE, NAFFERTY",,,United Kingdom,SY5 7EM,Monika Lontay,Sheila O'Riordan,LV,15,0,0,0,8010014935547,NHH,Airtricity,01/10/2015,30/09/2017,1,,,5865,,,,,,Flexible Contract,Tender Completed,No,Yes,218296_2015_2017
Elec,3080,Veolia Water Operations Ireland Ltd,,RAW WATER PUMPHOUSE MONANNY,"RAW WATER PUMPHOUSE, MONANNY",,,United Kingdom,SY5 7EM,Monika Lontay,Sheila O'Riordan,LV,65,0,0,0,8010020211257,NHH,Airtricity,01/10/2015,30/09/2017,1,,,146550,,,,,,Flexible Contract,Tender Completed,No,Yes,218296_2015_2017
Elec,3080,Veolia Water Operations Ireland Ltd,,Rathdown Pumping Station,Dummy 7,Dummy 8,,United Kingdom,SY5 7EM,Monika Lontay,Sheila O'Riordan,LV,,0,0,0,8010000031208,NHH,Airtricity,01/10/2015,30/09/2017,1,,,218181.8182,,,,,,Flexible Contract,Tender Completed,No,Yes,218296_2015_2017
Elec,3080,Veolia Water Operations Ireland Ltd,,H7 Hybla,Dummy 9,Dummy 10,,United Kingdom,SY5 7EM,Monika Lontay,Sheila O'Riordan,LV,40,0,0,0,8010303518781,NHH,Airtricity,01/10/2015,30/09/2017,1,,,48000,,,,,,Flexible Contract,Tender Completed,No,Yes,218296_2015_2017
Elec,3080,Veolia Water Operations Ireland Ltd,,Killlanny PS ,PUMPHOUSE  ANNACROFF,,,United Kingdom,SY5 7EM,Monika Lontay,Sheila O'Riordan,LV,48,0,0,0,8010000087021,NHH,Airtricity,01/10/2015,30/09/2017,1,,,169575.5,,,,,,Flexible Contract,Tender Completed,No,Yes,218296_2015_2017
Elec,3080,Veolia Water Operations Ireland Ltd,,R26 Rathangan Demense,,,,United Kingdom,SY5 7EM,Monika Lontay,Sheila O'Riordan,LV,45,0,0,0,8010303518774,NHH,Airtricity,01/10/2015,30/09/2017,1,,,24000,,,,,,Flexible Contract,Tender Completed,No,Yes,218296_2015_2017
Elec,1927,Aviagen Limited,,UPPER BRAEHILL FARM,West Pilton Brae,Carrutherstown,,United Kingdom,DG1 4LQ,Peter Nagy,Samantha Wyllie,LV,415,0,845,500,1800060476806,HH,Npower Limited,01/10/2015,30/06/2018,1,,,141692.3,,,,,,Flexible Contract,Tender Completed,No,Yes,01610943_2015_2018
Elec,1927,Aviagen Limited,,HETHERBANK FARM,Kirklinton,Cumbria,,United Kingdom,CA6 6BP,Peter Nagy,Samantha Wyllie,LV,150,0,845,801,1640000259369,HH,Npower Limited,01/10/2015,30/06/2018,1,,,134956,,,,,,Flexible Contract,Tender Completed,No,Yes,01610943_2015_2018
Elec,2016,Aviagen Turkeys Ltd,,SMALLWOOD FARM,Station Road,Lincoln,,United Kingdom,LN3 5BB,Peter Nagy,Samantha Wyllie,LV,10,3,801,13,1100002314943,NHH,Npower Limited,01/10/2015,30/06/2018,1,,,4483,,,,,,Flexible Contract,Tender Completed,No,Yes,00723798_2015_2018
Elec,2016,Aviagen Turkeys Ltd,,HOLLY BERRY HATCHERIES,North Beck Lane,Spilsby,,United Kingdom,PE23 5NB,Peter Nagy,Samantha Wyllie,LV,10,4,31,37,1100770129155,NHH,Npower Limited,01/10/2015,30/06/2018,1,,,38293,,,,,,Flexible Contract,Tender Completed,No,Yes,00723798_2015_2018
Elec,2016,Aviagen Turkeys Ltd,,HATCHMERE FARM,Delamere Road,Frodsham,,United Kingdom,WA6 6NQ,Peter Nagy,Samantha Wyllie,LV,10,4,11,231,1300008396259,NHH,Npower Limited,01/10/2015,30/06/2018,1,,,35415,,,,,,Flexible Contract,Tender Completed,No,Yes,00723798_2015_2018
Elec,2016,Aviagen Turkeys Ltd,,LATHAM FARM,Duckington Lane,Malpas,,United Kingdom,SY14 7DU,Peter Nagy,Samantha Wyllie,LV,10,3,801,201,1300013698197,NHH,Npower Limited,01/10/2015,30/06/2018,1,,,10035,,,,,,Flexible Contract,Tender Completed,No,Yes,00723798_2015_2018
Elec,2016,Aviagen Turkeys Ltd,,SMALLWOOD FARM,Bell Lane,Smallwood,,United Kingdom,CW11 2XB,Peter Nagy,Samantha Wyllie,LV,10,4,45,210,1300053576540,NHH,Npower Limited,01/10/2015,30/06/2018,1,,,67091,,,,,,Flexible Contract,Tender Completed,No,Yes,00723798_2015_2018
Elec,2016,Aviagen Turkeys Ltd,,HOLLY BERRY HATCHERIES,Station Road,Alford,,United Kingdom,LN13 9QQ,Peter Nagy,Samantha Wyllie,LV,10,3,801,13,1100000479147,NHH,Npower Limited,01/10/2015,30/06/2018,1,,,12880,,,,,,Flexible Contract,Tender Completed,No,Yes,00723798_2015_2018
Elec,2016,Aviagen Turkeys Ltd,,Hockenhull Turkeys Halifax ,Halifax Farm,Halton Road,,United Kingdom,PE23 5JZ,Peter Nagy,Samantha Wyllie,LV,1,4,811,37,1100000480987,NHH,Npower Limited,01/10/2015,30/06/2018,1,,,37991,,,,,,Flexible Contract,Tender Completed,No,Yes,00723798_2015_2018
Elec,1927,Aviagen Limited,,GP WORKSHOP SUPPLY 2,Unit 7,Dumfries,,United Kingdom,DG2 0HS,Peter Nagy,Samantha Wyllie,LV,10,4,612,225,1800015858100,NHH,Npower Limited,01/10/2015,30/06/2018,1,,,2434,,,,,,Flexible Contract,Tender Completed,No,Yes,01610943_2015_2018
Elec,1927,Aviagen Limited,,GP WORKSHOP SUPPLY 1,Unit 7,Dumfries,,United Kingdom,DG2 0HS,Peter Nagy,Samantha Wyllie,LV,10,4,588,224,1800015858119,NHH,Npower Limited,01/10/2015,30/06/2018,1,,,9597,,,,,,Flexible Contract,Tender Completed,No,Yes,01610943_2015_2018
Elec,1927,Aviagen Limited,,EASTER NORTON WORKSHOP,Workshop,Midlothian,,United Kingdom,EH28 8NH,Peter Nagy,Samantha Wyllie,LV,10,4,5,221,1800030915627,NHH,Npower Limited,01/10/2015,30/06/2018,1,,,17846,,,,,,Flexible Contract,Tender Completed,No,Yes,01610943_2015_2018
Elec,1927,Aviagen Limited,,THE BUNGALOW,Townfoot,Lockerbie,,United Kingdom,DG11 3DR,Peter Nagy,Samantha Wyllie,LV,10,1,801,100,1800016125713,NHH,Npower Limited,01/10/2015,30/06/2018,1,,,8439,,,,,,Flexible Contract,Tender Completed,No,Yes,01610943_2015_2018
Elec,1927,Aviagen Limited,,THE COTTAGE,Golden Grove Farm,Dunfermline,,United Kingdom,KY12 9HP,Peter Nagy,Samantha Wyllie,LV,10,1,801,100,1800021211862,NHH,Npower Limited,01/10/2015,30/06/2018,1,,,8439,,,,,,Flexible Contract,Tender Completed,No,Yes,01610943_2015_2018
Elec,1927,Aviagen Limited,,14 NEWLAND RIG,NEWLANDRIG,Edinburgh,,United Kingdom,EH23 4NS,Peter Nagy,Samantha Wyllie,LV,10,1,801,100,1800023419226,NHH,Npower Limited,01/10/2015,30/06/2018,1,,,8297,,,,,,Flexible Contract,Tender Completed,No,Yes,01610943_2015_2018
Elec,1927,Aviagen Limited,,GOLDEN GROVE FARM,HOUSE,Kirkcaldy,,United Kingdom,KY12 9HR,Peter Nagy,Samantha Wyllie,LV,10,1,801,100,1800031288046,NHH,Npower Limited,01/10/2015,30/06/2018,1,,,8297,,,,,,Flexible Contract,Tender Completed,No,Yes,01610943_2015_2018
Elec,1927,Aviagen Limited,,SPITTAL CROFT FARM,Spital Croft Farm,Stranraer,,United Kingdom,DG9 8BN,Peter Nagy,Samantha Wyllie,LV,100,6,802,400,1800060473976,NHH,Npower Limited,01/10/2015,30/06/2018,1,,,54304,,,,,,Flexible Contract,Tender Completed,No,Yes,01610943_2015_2018
Elec,1927,Aviagen Limited,,FORESIDE POULTRY FARM,Foreside Poultry Farm,Kilmarnock,,United Kingdom,KA15 1HJ,Peter Nagy,Samantha Wyllie,LV,50,3,801,201,1800060641648,NHH,Npower Limited,01/10/2015,30/06/2018,1,,,9932,,,,,,Flexible Contract,Tender Completed,No,Yes,01610943_2015_2018
Elec,1927,Aviagen Limited,,CRATEWASH ,Napier Square,Livingston,,United Kingdom,EH54 5DG,Peter Nagy,Samantha Wyllie,LV,10,4,516,240,1800020372285,NHH,Npower Limited,01/10/2015,30/06/2018,1,,,20647,,,,,,Flexible Contract,Tender Completed,No,Yes,01610943_2015_2018
Elec,692,Dave Whelan Sports Ltd,,Goodwins,Chapmans Yard,SCARBOROUGH,North Yorkshire,United Kingdom,YO11 1DW,Ferenc Gall,Ruari Cairns,LV,120,0,845,251,1580000048541,HH,Scottish and Southern Energy PLC,01/10/2015,30/09/2017,1,,,198922.9,,,,,,Flexible Contract,Tender Completed,No,Yes,06846128_2015_2017
Elec,692,Dave Whelan Sports Ltd,,104  St James Street,104  St James Street,BURNLEY,Lancashire,United Kingdom,BB11 1NL,Ferenc Gall,Ruari Cairns,LV,20,0,845,801,1600000032615,HH,Scottish and Southern Energy PLC,01/10/2015,30/09/2017,1,,,96391.8,,,,,,Flexible Contract,Tender Completed,No,Yes,06846128_2015_2017
Elec,692,Dave Whelan Sports Ltd,,Kingsgate Shopping Centre,Units LG02 & G02,DUNFERMLINE,,United Kingdom,KY12 7QA,Ferenc Gall,Ruari Cairns,LV,120,0,845,500,1800054716495,HH,Scottish and Southern Energy PLC,01/10/2015,30/09/2017,1,,,81475,,,,,,Flexible Contract,Tender Completed,No,Yes,06846128_2015_2017
Elec,692,Dave Whelan Sports Ltd,,29  Fremlin Walk,MAIDSTONE,Kent,,United Kingdom,ME14 1QG,Ferenc Gall,Ruari Cairns,LV,250,0,846,550,1900070233750,HH,Scottish and Southern Energy PLC,01/10/2015,30/09/2017,1,,,141410.9,,,,,,Flexible Contract,Tender Completed,No,Yes,06846128_2015_2017
Elec,692,Dave Whelan Sports Ltd,,MSU M 42 Pentagon Centre,Unit 74- 80,CHATHAM Kent,,United Kingdom,ME4 4HY,Ferenc Gall,Ruari Cairns,LV,140,0,845,550,1900090387269,HH,Scottish and Southern Energy PLC,01/10/2015,30/09/2017,1,,,101113.7,,,,,,Flexible Contract,Tender Completed,No,Yes,06846128_2015_2017
Elec,692,Dave Whelan Sports Ltd,,198  Wakefield Road,198  Wakefield Road,HUDDERSFIELD,,United Kingdom,HD5 9AJ,Ferenc Gall,Ruari Cairns,LV,350,0,845,281,2380001994762,HH,Scottish and Southern Energy PLC,01/10/2015,30/09/2017,1,,,464250.2,,,,,,Flexible Contract,Tender Completed,No,Yes,06846128_2015_2017
Elec,692,Dave Whelan Sports Ltd,,Templars Retail Park,Unit 1B Between,Towns Road,Cowley,United Kingdom,OX4 3JP,Ferenc Gall,Ruari Cairns,LV,110,0,845,130,2500000288948,HH,Scottish and Southern Energy PLC,01/10/2015,30/09/2017,1,,,834852.6,,,,,,Flexible Contract,Tender Completed,No,Yes,06846128_2015_2017
Elec,692,Dave Whelan Sports Ltd,,Queenswest,Queenswest,Queen Street,Cardiff,United Kingdom,CF10 2AQ,Ferenc Gall,Ruari Cairns,LV,1,8,816,300,2199989456684,HH,Scottish and Southern Energy PLC,01/10/2015,30/09/2017,1,,,236880,,,,,,Flexible Contract,Tender Completed,No,Yes,06846128_2015_2017
