fuel,site_id,supplier_name,start_date,end_date,rate_allunit,rate_day,rate_night,usage_allunit,usage_day,usage_night,standingcharge_month,commission_kwh,commission_year,contract_type,tender_status,termination_optout,registration_confirmed,contract_id
Gas,15928,DONG ENERGY SALES UK LTD,01/09/2014,31/10/2014,1,,,155595,,,,,,Flexible Contract,Tender Completed,No,No,00026018_2014
Gas,15926,DONG ENERGY SALES UK LTD,01/09/2014,31/10/2014,1,,,1238338,,,,,,Flexible Contract,Tender Completed,No,No,00026018_2014
Gas,15930,DONG ENERGY SALES UK LTD,01/09/2014,31/10/2014,1,,,1,,,,,,Flexible Contract,Tender Completed,No,No,00026018_2014
Gas,15931,DONG ENERGY SALES UK LTD,01/09/2014,31/10/2014,1,,,33073,,,,,,Flexible Contract,Tender Completed,No,No,00026018_2014
Gas,15932,DONG ENERGY SALES UK LTD,01/09/2014,31/10/2014,1,,,110649,,,,,,Flexible Contract,Tender Completed,No,No,00026018_2014
Gas,15933,DONG ENERGY SALES UK LTD,01/09/2014,31/10/2014,1,,,220440,,,,,,Flexible Contract,Tender Completed,No,No,00026018_2014
Gas,15934,DONG ENERGY SALES UK LTD,01/09/2014,31/10/2014,1,,,265574,,,,,,Flexible Contract,Tender Completed,No,No,00026018_2014
Gas,15935,DONG ENERGY SALES UK LTD,01/09/2014,31/10/2014,1,,,116458,,,,,,Flexible Contract,Tender Completed,No,No,00026018_2014
Gas,16504,DONG ENERGY SALES UK LTD,01/09/2014,31/10/2014,1,,,1472585,,,,,,Flexible Contract,Tender Completed,No,No,00026018_2014
Gas,15936,DONG ENERGY SALES UK LTD,01/09/2014,31/10/2014,1,,,183408,,,,,,Flexible Contract,Tender Completed,No,No,00026018_2014
Gas,15937,DONG ENERGY SALES UK LTD,01/09/2014,31/10/2014,1,,,1,,,,,,Flexible Contract,Tender Completed,No,No,00026018_2014
Gas,15925,DONG ENERGY SALES UK LTD,01/09/2014,31/10/2014,1,,,284,,,,,,Flexible Contract,Tender Completed,No,No,00026018_2014
Gas,16501,DONG ENERGY SALES UK LTD,01/09/2014,31/10/2014,1,,,34277,,,,,,Flexible Contract,Tender Completed,No,No,00026018_2014
Gas,16505,DONG ENERGY SALES UK LTD,01/09/2014,31/10/2014,1,,,1064722,,,,,,Flexible Contract,Tender Completed,No,No,00026018_2014
Gas,15929,DONG ENERGY SALES UK LTD,01/09/2014,31/10/2014,1,,,24334,,,,,,Flexible Contract,Tender Completed,No,No,00026018_2014
Gas,11701,DONG ENERGY SALES UK LTD,01/09/2014,31/10/2014,1,,,77140487,,,,,,Flexible Contract,Tender Completed,No,No,00026018_2014
Gas,11702,DONG ENERGY SALES UK LTD,01/09/2014,31/10/2014,1,,,33657120,,,,,,Flexible Contract,Tender Completed,No,No,00026018_2014
Gas,11703,DONG ENERGY SALES UK LTD,01/09/2014,31/10/2014,1,,,69701351,,,,,,Flexible Contract,Tender Completed,No,No,00026018_2014
Gas,11704,DONG ENERGY SALES UK LTD,01/09/2014,31/10/2014,1,,,90982605,,,,,,Flexible Contract,Tender Completed,No,No,00026018_2014
Gas,11705,DONG ENERGY SALES UK LTD,01/09/2014,31/10/2014,1,,,28818605,,,,,,Flexible Contract,Tender Completed,No,No,00026018_2014
Gas,15928,DONG ENERGY SALES UK LTD,01/11/2014,30/11/2014,1,,,155595,,,,,,Flexible Contract,Tender Completed,No,No,00026018_2014_2
Gas,15926,DONG ENERGY SALES UK LTD,01/11/2014,30/11/2014,1,,,1238338,,,,,,Flexible Contract,Tender Completed,No,No,00026018_2014_2
Gas,15930,DONG ENERGY SALES UK LTD,01/11/2014,30/11/2014,1,,,1,,,,,,Flexible Contract,Tender Completed,No,No,00026018_2014_2
Gas,15931,DONG ENERGY SALES UK LTD,01/11/2014,30/11/2014,1,,,33073,,,,,,Flexible Contract,Tender Completed,No,No,00026018_2014_2
Gas,15932,DONG ENERGY SALES UK LTD,01/11/2014,30/11/2014,1,,,110649,,,,,,Flexible Contract,Tender Completed,No,No,00026018_2014_2
Gas,15933,DONG ENERGY SALES UK LTD,01/11/2014,30/11/2014,1,,,220440,,,,,,Flexible Contract,Tender Completed,No,No,00026018_2014_2
Gas,15934,DONG ENERGY SALES UK LTD,01/11/2014,30/11/2014,1,,,265574,,,,,,Flexible Contract,Tender Completed,No,No,00026018_2014_2
Gas,15935,DONG ENERGY SALES UK LTD,01/11/2014,30/11/2014,1,,,116458,,,,,,Flexible Contract,Tender Completed,No,No,00026018_2014_2
Gas,16504,DONG ENERGY SALES UK LTD,01/11/2014,30/11/2014,1,,,1472585,,,,,,Flexible Contract,Tender Completed,No,No,00026018_2014_2
Gas,15936,DONG ENERGY SALES UK LTD,01/11/2014,30/11/2014,1,,,183408,,,,,,Flexible Contract,Tender Completed,No,No,00026018_2014_2
Gas,15937,DONG ENERGY SALES UK LTD,01/11/2014,30/11/2014,1,,,1,,,,,,Flexible Contract,Tender Completed,No,No,00026018_2014_2
Gas,15925,DONG ENERGY SALES UK LTD,01/11/2014,30/11/2014,1,,,284,,,,,,Flexible Contract,Tender Completed,No,No,00026018_2014_2
Gas,16501,DONG ENERGY SALES UK LTD,01/11/2014,30/11/2014,1,,,34277,,,,,,Flexible Contract,Tender Completed,No,No,00026018_2014_2
Gas,16505,DONG ENERGY SALES UK LTD,01/11/2014,30/11/2014,1,,,1064722,,,,,,Flexible Contract,Tender Completed,No,No,00026018_2014_2
Gas,15929,DONG ENERGY SALES UK LTD,01/11/2014,30/11/2014,1,,,24334,,,,,,Flexible Contract,Tender Completed,No,No,00026018_2014_2
Gas,11701,DONG ENERGY SALES UK LTD,01/11/2014,30/11/2014,1,,,77140487,,,,,,Flexible Contract,Tender Completed,No,No,00026018_2014_2
Gas,11702,DONG ENERGY SALES UK LTD,01/11/2014,30/11/2014,1,,,33657120,,,,,,Flexible Contract,Tender Completed,No,No,00026018_2014_2
Gas,11703,DONG ENERGY SALES UK LTD,01/11/2014,30/11/2014,1,,,69701351,,,,,,Flexible Contract,Tender Completed,No,No,00026018_2014_2
Gas,11704,DONG ENERGY SALES UK LTD,01/11/2014,30/11/2014,1,,,90982605,,,,,,Flexible Contract,Tender Completed,No,No,00026018_2014_2
Gas,11705,DONG ENERGY SALES UK LTD,01/11/2014,30/11/2014,1,,,28818605,,,,,,Flexible Contract,Tender Completed,No,No,00026018_2014_2
Gas,15928,DONG ENERGY SALES UK LTD,01/12/2014,31/12/2014,1,,,155595,,,,,,Flexible Contract,Tender Completed,No,No,00026018_2014_3
Gas,15926,DONG ENERGY SALES UK LTD,01/12/2014,31/12/2014,1,,,1238338,,,,,,Flexible Contract,Tender Completed,No,No,00026018_2014_3
Gas,15930,DONG ENERGY SALES UK LTD,01/12/2014,31/12/2014,1,,,1,,,,,,Flexible Contract,Tender Completed,No,No,00026018_2014_3
Gas,15931,DONG ENERGY SALES UK LTD,01/12/2014,31/12/2014,1,,,33073,,,,,,Flexible Contract,Tender Completed,No,No,00026018_2014_3
Gas,15932,DONG ENERGY SALES UK LTD,01/12/2014,31/12/2014,1,,,110649,,,,,,Flexible Contract,Tender Completed,No,No,00026018_2014_3
Gas,15933,DONG ENERGY SALES UK LTD,01/12/2014,31/12/2014,1,,,220440,,,,,,Flexible Contract,Tender Completed,No,No,00026018_2014_3
Gas,15934,DONG ENERGY SALES UK LTD,01/12/2014,31/12/2014,1,,,265574,,,,,,Flexible Contract,Tender Completed,No,No,00026018_2014_3
Gas,15935,DONG ENERGY SALES UK LTD,01/12/2014,31/12/2014,1,,,116458,,,,,,Flexible Contract,Tender Completed,No,No,00026018_2014_3
Gas,16504,DONG ENERGY SALES UK LTD,01/12/2014,31/12/2014,1,,,1472585,,,,,,Flexible Contract,Tender Completed,No,No,00026018_2014_3
Gas,15936,DONG ENERGY SALES UK LTD,01/12/2014,31/12/2014,1,,,183408,,,,,,Flexible Contract,Tender Completed,No,No,00026018_2014_3
Gas,15937,DONG ENERGY SALES UK LTD,01/12/2014,31/12/2014,1,,,1,,,,,,Flexible Contract,Tender Completed,No,No,00026018_2014_3
Gas,15925,DONG ENERGY SALES UK LTD,01/12/2014,31/12/2014,1,,,284,,,,,,Flexible Contract,Tender Completed,No,No,00026018_2014_3
Gas,16501,DONG ENERGY SALES UK LTD,01/12/2014,31/12/2014,1,,,34277,,,,,,Flexible Contract,Tender Completed,No,No,00026018_2014_3
Gas,16505,DONG ENERGY SALES UK LTD,01/12/2014,31/12/2014,1,,,1064722,,,,,,Flexible Contract,Tender Completed,No,No,00026018_2014_3
Gas,15929,DONG ENERGY SALES UK LTD,01/12/2014,31/12/2014,1,,,24334,,,,,,Flexible Contract,Tender Completed,No,No,00026018_2014_3
Gas,11701,DONG ENERGY SALES UK LTD,01/12/2014,31/12/2014,1,,,77140487,,,,,,Flexible Contract,Tender Completed,No,No,00026018_2014_3
Gas,11702,DONG ENERGY SALES UK LTD,01/12/2014,31/12/2014,1,,,33657120,,,,,,Flexible Contract,Tender Completed,No,No,00026018_2014_3
Gas,11703,DONG ENERGY SALES UK LTD,01/12/2014,31/12/2014,1,,,69701351,,,,,,Flexible Contract,Tender Completed,No,No,00026018_2014_3
Gas,11704,DONG ENERGY SALES UK LTD,01/12/2014,31/12/2014,1,,,90982605,,,,,,Flexible Contract,Tender Completed,No,No,00026018_2014_3
Gas,11705,DONG ENERGY SALES UK LTD,01/12/2014,31/12/2014,1,,,28818605,,,,,,Flexible Contract,Tender Completed,No,No,00026018_2014_3
Gas,15928,DONG ENERGY SALES UK LTD,01/01/2015,31/01/2015,1,,,155595,,,,,,Flexible Contract,Tender Completed,No,No,00026018_2015
Gas,15926,DONG ENERGY SALES UK LTD,01/01/2015,31/01/2015,1,,,1238338,,,,,,Flexible Contract,Tender Completed,No,No,00026018_2015
Gas,15930,DONG ENERGY SALES UK LTD,01/01/2015,31/01/2015,1,,,1,,,,,,Flexible Contract,Tender Completed,No,No,00026018_2015
Gas,15931,DONG ENERGY SALES UK LTD,01/01/2015,31/01/2015,1,,,33073,,,,,,Flexible Contract,Tender Completed,No,No,00026018_2015
Gas,15932,DONG ENERGY SALES UK LTD,01/01/2015,31/01/2015,1,,,110649,,,,,,Flexible Contract,Tender Completed,No,No,00026018_2015
Gas,15933,DONG ENERGY SALES UK LTD,01/01/2015,31/01/2015,1,,,220440,,,,,,Flexible Contract,Tender Completed,No,No,00026018_2015
Gas,15934,DONG ENERGY SALES UK LTD,01/01/2015,31/01/2015,1,,,265574,,,,,,Flexible Contract,Tender Completed,No,No,00026018_2015
Gas,15935,DONG ENERGY SALES UK LTD,01/01/2015,31/01/2015,1,,,116458,,,,,,Flexible Contract,Tender Completed,No,No,00026018_2015
Gas,16504,DONG ENERGY SALES UK LTD,01/01/2015,31/01/2015,1,,,1472585,,,,,,Flexible Contract,Tender Completed,No,No,00026018_2015
Gas,15936,DONG ENERGY SALES UK LTD,01/01/2015,31/01/2015,1,,,183408,,,,,,Flexible Contract,Tender Completed,No,No,00026018_2015
Gas,15937,DONG ENERGY SALES UK LTD,01/01/2015,31/01/2015,1,,,1,,,,,,Flexible Contract,Tender Completed,No,No,00026018_2015
Gas,15925,DONG ENERGY SALES UK LTD,01/01/2015,31/01/2015,1,,,284,,,,,,Flexible Contract,Tender Completed,No,No,00026018_2015
Gas,16501,DONG ENERGY SALES UK LTD,01/01/2015,31/01/2015,1,,,34277,,,,,,Flexible Contract,Tender Completed,No,No,00026018_2015
Gas,16505,DONG ENERGY SALES UK LTD,01/01/2015,31/01/2015,1,,,1064722,,,,,,Flexible Contract,Tender Completed,No,No,00026018_2015
Gas,15929,DONG ENERGY SALES UK LTD,01/01/2015,31/01/2015,1,,,24334,,,,,,Flexible Contract,Tender Completed,No,No,00026018_2015
Gas,11701,DONG ENERGY SALES UK LTD,01/01/2015,31/01/2015,1,,,77140487,,,,,,Flexible Contract,Tender Completed,No,No,00026018_2015
Gas,11702,DONG ENERGY SALES UK LTD,01/01/2015,31/01/2015,1,,,33657120,,,,,,Flexible Contract,Tender Completed,No,No,00026018_2015
Gas,11703,DONG ENERGY SALES UK LTD,01/01/2015,31/01/2015,1,,,69701351,,,,,,Flexible Contract,Tender Completed,No,No,00026018_2015
Gas,11704,DONG ENERGY SALES UK LTD,01/01/2015,31/01/2015,1,,,90982605,,,,,,Flexible Contract,Tender Completed,No,No,00026018_2015
Gas,11705,DONG ENERGY SALES UK LTD,01/01/2015,31/01/2015,1,,,28818605,,,,,,Flexible Contract,Tender Completed,No,No,00026018_2015
Gas,15928,Npower Limited,01/02/2015,31/12/2017,1,,,155595,,,,,,Flexible Contract,Tender Completed,No,No,00026018_2015_2017
Gas,15926,Npower Limited,01/02/2015,31/12/2017,1,,,1238338,,,,,,Flexible Contract,Tender Completed,No,No,00026018_2015_2017
Gas,15930,Npower Limited,01/02/2015,31/12/2017,1,,,1,,,,,,Flexible Contract,Tender Completed,No,No,00026018_2015_2017
Gas,15931,Npower Limited,01/02/2015,31/12/2017,1,,,33073,,,,,,Flexible Contract,Tender Completed,No,No,00026018_2015_2017
Gas,15932,Npower Limited,01/02/2015,31/12/2017,1,,,110649,,,,,,Flexible Contract,Tender Completed,No,No,00026018_2015_2017
Gas,15933,Npower Limited,01/02/2015,31/12/2017,1,,,220440,,,,,,Flexible Contract,Tender Completed,No,No,00026018_2015_2017
Gas,15934,Npower Limited,01/02/2015,31/12/2017,1,,,265574,,,,,,Flexible Contract,Tender Completed,No,No,00026018_2015_2017
Gas,15935,Npower Limited,01/02/2015,31/12/2017,1,,,116458,,,,,,Flexible Contract,Tender Completed,No,No,00026018_2015_2017
Gas,16504,Npower Limited,01/02/2015,31/12/2017,1,,,1472585,,,,,,Flexible Contract,Tender Completed,No,No,00026018_2015_2017
Gas,15936,Npower Limited,01/02/2015,31/12/2017,1,,,183408,,,,,,Flexible Contract,Tender Completed,No,No,00026018_2015_2017
Gas,15937,Npower Limited,01/02/2015,31/12/2017,1,,,1,,,,,,Flexible Contract,Tender Completed,No,No,00026018_2015_2017
Gas,15925,Npower Limited,01/02/2015,31/12/2017,1,,,284,,,,,,Flexible Contract,Tender Completed,No,No,00026018_2015_2017
Gas,16501,Npower Limited,01/02/2015,31/12/2017,1,,,34277,,,,,,Flexible Contract,Tender Completed,No,No,00026018_2015_2017
Gas,16505,Npower Limited,01/02/2015,31/12/2017,1,,,1064722,,,,,,Flexible Contract,Tender Completed,No,No,00026018_2015_2017
Gas,15929,Npower Limited,01/02/2015,31/12/2017,1,,,24334,,,,,,Flexible Contract,Tender Completed,No,No,00026018_2015_2017
Gas,11701,Npower Limited,01/02/2015,31/12/2017,1,,,77140487,,,,,,Flexible Contract,Tender Completed,No,No,00026018_2015_2017
Gas,11702,Npower Limited,01/02/2015,31/12/2017,1,,,33657120,,,,,,Flexible Contract,Tender Completed,No,No,00026018_2015_2017
Gas,11703,Npower Limited,01/02/2015,31/12/2017,1,,,69701351,,,,,,Flexible Contract,Tender Completed,No,No,00026018_2015_2017
Gas,11704,Npower Limited,01/02/2015,31/12/2017,1,,,90982605,,,,,,Flexible Contract,Tender Completed,No,No,00026018_2015_2017
Gas,11705,Npower Limited,01/02/2015,31/12/2017,1,,,28818605,,,,,,Flexible Contract,Tender Completed,No,No,00026018_2015_2017
