fuel,site_id,supplier_name,start_date,end_date,rate_allunit,rate_day,rate_night,usage_allunit,usage_day,usage_night,standingcharge_month,commission_kwh,commission_year,contract_type,tender_status,termination_optout,registration_confirmed,contract_id
Elec,40081,Npower Limited,01/04/2015,31/03/2018,1,,,23323,,,,,,Flexible Contract,Tender Completed,No,Yes,02462858_2015_2018
Elec,40157,Npower Limited,01/04/2015,31/03/2018,1,,,201542,,,,,,Flexible Contract,Tender Completed,No,Yes,02462858_2015_2018
Elec,40160,Npower Limited,01/04/2015,31/03/2018,1,,,126674,,,,,,Flexible Contract,Tender Completed,No,Yes,02462858_2015_2018
Elec,39596,Npower Limited,01/04/2015,31/03/2018,1,,,142127,,,,,,Flexible Contract,Tender Completed,No,Yes,02462858_2015_2018
Elec,39597,Npower Limited,01/04/2015,31/03/2018,1,,,122140,,,,,,Flexible Contract,Tender Completed,No,Yes,02462858_2015_2018
Elec,39598,Npower Limited,01/04/2015,31/03/2018,1,,,163016,,,,,,Flexible Contract,Tender Completed,No,Yes,02462858_2015_2018
Elec,39599,Npower Limited,01/04/2015,31/03/2018,1,,,121821,,,,,,Flexible Contract,Tender Completed,No,Yes,02462858_2015_2018
Elec,16767,Npower Limited,01/04/2015,31/03/2018,1,,,149675,,,,,,Flexible Contract,Tender Completed,No,Yes,02462858_2015_2018
Elec,39600,Npower Limited,01/04/2015,31/03/2018,1,,,136739,,,,,,Flexible Contract,Tender Completed,No,Yes,02462858_2015_2018
Elec,39602,Npower Limited,01/04/2015,31/03/2018,1,,,147346,,,,,,Flexible Contract,Tender Completed,No,Yes,02462858_2015_2018
Elec,39603,Npower Limited,01/04/2015,31/03/2018,1,,,113526,,,,,,Flexible Contract,Tender Completed,No,Yes,02462858_2015_2018
Elec,39605,Npower Limited,01/04/2015,31/03/2018,1,,,140648,,,,,,Flexible Contract,Tender Completed,No,Yes,02462858_2015_2018
Elec,39606,Npower Limited,01/04/2015,31/03/2018,1,,,116439,,,,,,Flexible Contract,Tender Completed,No,Yes,02462858_2015_2018
Elec,39607,Npower Limited,01/04/2015,31/03/2018,1,,,128062,,,,,,Flexible Contract,Tender Completed,No,Yes,02462858_2015_2018
Elec,39608,Npower Limited,01/04/2015,31/03/2018,1,,,171179,,,,,,Flexible Contract,Tender Completed,No,Yes,02462858_2015_2018
Elec,39609,Npower Limited,01/04/2015,31/03/2018,1,,,165696,,,,,,Flexible Contract,Tender Completed,No,Yes,02462858_2015_2018
Elec,39610,Npower Limited,01/04/2015,31/03/2018,1,,,155721,,,,,,Flexible Contract,Tender Completed,No,Yes,02462858_2015_2018
Elec,39611,Npower Limited,01/04/2015,31/03/2018,1,,,4115,,,,,,Flexible Contract,Tender Completed,No,Yes,02462858_2015_2018
Elec,39612,Npower Limited,01/04/2015,31/03/2018,1,,,76945,,,,,,Flexible Contract,Tender Completed,No,Yes,02462858_2015_2018
Elec,39613,Npower Limited,01/04/2015,31/03/2018,1,,,144621,,,,,,Flexible Contract,Tender Completed,No,Yes,02462858_2015_2018
Elec,39614,Npower Limited,01/04/2015,31/03/2018,1,,,82996,,,,,,Flexible Contract,Tender Completed,No,Yes,02462858_2015_2018
Elec,39615,Npower Limited,01/04/2015,31/03/2018,1,,,78984,,,,,,Flexible Contract,Tender Completed,No,Yes,02462858_2015_2018
Elec,39616,Npower Limited,01/04/2015,31/03/2018,1,,,98691,,,,,,Flexible Contract,Tender Completed,No,Yes,02462858_2015_2018
Elec,39617,Npower Limited,01/04/2015,31/03/2018,1,,,9,,,,,,Flexible Contract,Tender Completed,No,Yes,02462858_2015_2018
Elec,39618,Npower Limited,01/04/2015,31/03/2018,1,,,101490,,,,,,Flexible Contract,Tender Completed,No,Yes,02462858_2015_2018
Elec,39619,Npower Limited,01/04/2015,31/03/2018,1,,,99381,,,,,,Flexible Contract,Tender Completed,No,Yes,02462858_2015_2018
Elec,39621,Npower Limited,01/04/2015,31/03/2018,1,,,91312,,,,,,Flexible Contract,Tender Completed,No,Yes,02462858_2015_2018
Elec,39622,Npower Limited,01/04/2015,31/03/2018,1,,,119051,,,,,,Flexible Contract,Tender Completed,No,Yes,02462858_2015_2018
Elec,39623,Npower Limited,01/04/2015,31/03/2018,1,,,143161,,,,,,Flexible Contract,Tender Completed,No,Yes,02462858_2015_2018
Elec,39624,Npower Limited,01/04/2015,31/03/2018,1,,,102859,,,,,,Flexible Contract,Tender Completed,No,Yes,02462858_2015_2018
Elec,39625,Npower Limited,01/04/2015,31/03/2018,1,,,23894,,,,,,Flexible Contract,Tender Completed,No,Yes,02462858_2015_2018
Elec,39626,Npower Limited,01/04/2015,31/03/2018,1,,,137403,,,,,,Flexible Contract,Tender Completed,No,Yes,02462858_2015_2018
Elec,39627,Npower Limited,01/04/2015,31/03/2018,1,,,113697,,,,,,Flexible Contract,Tender Completed,No,Yes,02462858_2015_2018
Elec,39628,Npower Limited,01/04/2015,31/03/2018,1,,,128012,,,,,,Flexible Contract,Tender Completed,No,Yes,02462858_2015_2018
Elec,39629,Npower Limited,01/04/2015,31/03/2018,1,,,114524,,,,,,Flexible Contract,Tender Completed,No,Yes,02462858_2015_2018
Elec,39630,Npower Limited,01/04/2015,31/03/2018,1,,,26744,,,,,,Flexible Contract,Tender Completed,No,Yes,02462858_2015_2018
Elec,39632,Npower Limited,01/04/2015,31/03/2018,1,,,155933,,,,,,Flexible Contract,Tender Completed,No,Yes,02462858_2015_2018
Elec,39633,Npower Limited,01/04/2015,31/03/2018,1,,,132435,,,,,,Flexible Contract,Tender Completed,No,Yes,02462858_2015_2018
Elec,39634,Npower Limited,01/04/2015,31/03/2018,1,,,5108,,,,,,Flexible Contract,Tender Completed,No,Yes,02462858_2015_2018
Elec,39635,Npower Limited,01/04/2015,31/03/2018,1,,,137428,,,,,,Flexible Contract,Tender Completed,No,Yes,02462858_2015_2018
Elec,39637,Npower Limited,01/04/2015,31/03/2018,1,,,21861,,,,,,Flexible Contract,Tender Completed,No,Yes,02462858_2015_2018
Elec,39640,Npower Limited,01/04/2015,31/03/2018,1,,,95080,,,,,,Flexible Contract,Tender Completed,No,Yes,02462858_2015_2018
Elec,39641,Npower Limited,01/04/2015,31/03/2018,1,,,148163,,,,,,Flexible Contract,Tender Completed,No,Yes,02462858_2015_2018
Elec,39642,Npower Limited,01/04/2015,31/03/2018,1,,,150792,,,,,,Flexible Contract,Tender Completed,No,Yes,02462858_2015_2018
Elec,39643,Npower Limited,01/04/2015,31/03/2018,1,,,3673,,,,,,Flexible Contract,Tender Completed,No,Yes,02462858_2015_2018
Elec,39645,Npower Limited,01/04/2015,31/03/2018,1,,,150181,,,,,,Flexible Contract,Tender Completed,No,Yes,02462858_2015_2018
Elec,39647,Npower Limited,01/04/2015,31/03/2018,1,,,134919,,,,,,Flexible Contract,Tender Completed,No,Yes,02462858_2015_2018
Elec,39648,Npower Limited,01/04/2015,31/03/2018,1,,,114832,,,,,,Flexible Contract,Tender Completed,No,Yes,02462858_2015_2018
Elec,39649,Npower Limited,01/04/2015,31/03/2018,1,,,140854,,,,,,Flexible Contract,Tender Completed,No,Yes,02462858_2015_2018
Elec,39650,Npower Limited,01/04/2015,31/03/2018,1,,,91626,,,,,,Flexible Contract,Tender Completed,No,Yes,02462858_2015_2018
Elec,39651,Npower Limited,01/04/2015,31/03/2018,1,,,146674,,,,,,Flexible Contract,Tender Completed,No,Yes,02462858_2015_2018
Elec,39652,Npower Limited,01/04/2015,31/03/2018,1,,,182497,,,,,,Flexible Contract,Tender Completed,No,Yes,02462858_2015_2018
Elec,39653,Npower Limited,01/04/2015,31/03/2018,1,,,123646,,,,,,Flexible Contract,Tender Completed,No,Yes,02462858_2015_2018
Elec,39654,Npower Limited,01/04/2015,31/03/2018,1,,,116487,,,,,,Flexible Contract,Tender Completed,No,Yes,02462858_2015_2018
Elec,39655,Npower Limited,01/04/2015,31/03/2018,1,,,115037,,,,,,Flexible Contract,Tender Completed,No,Yes,02462858_2015_2018
Elec,39656,Npower Limited,01/04/2015,31/03/2018,1,,,140671,,,,,,Flexible Contract,Tender Completed,No,Yes,02462858_2015_2018
Elec,39657,Npower Limited,01/04/2015,31/03/2018,1,,,145287,,,,,,Flexible Contract,Tender Completed,No,Yes,02462858_2015_2018
Elec,39658,Npower Limited,01/04/2015,31/03/2018,1,,,237184,,,,,,Flexible Contract,Tender Completed,No,Yes,02462858_2015_2018
Elec,39659,Npower Limited,01/04/2015,31/03/2018,1,,,181281,,,,,,Flexible Contract,Tender Completed,No,Yes,02462858_2015_2018
Elec,39660,Npower Limited,01/04/2015,31/03/2018,1,,,131502,,,,,,Flexible Contract,Tender Completed,No,Yes,02462858_2015_2018
Elec,39661,Npower Limited,01/04/2015,31/03/2018,1,,,131769,,,,,,Flexible Contract,Tender Completed,No,Yes,02462858_2015_2018
Elec,39662,Npower Limited,01/04/2015,31/03/2018,1,,,218317,,,,,,Flexible Contract,Tender Completed,No,Yes,02462858_2015_2018
Elec,39663,Npower Limited,01/04/2015,31/03/2018,1,,,102771,,,,,,Flexible Contract,Tender Completed,No,Yes,02462858_2015_2018
Elec,39664,Npower Limited,01/04/2015,31/03/2018,1,,,146022,,,,,,Flexible Contract,Tender Completed,No,Yes,02462858_2015_2018
Elec,39665,Npower Limited,01/04/2015,31/03/2018,1,,,147155,,,,,,Flexible Contract,Tender Completed,No,Yes,02462858_2015_2018
Elec,39666,Npower Limited,01/04/2015,31/03/2018,1,,,127195,,,,,,Flexible Contract,Tender Completed,No,Yes,02462858_2015_2018
Elec,39667,Npower Limited,01/04/2015,31/03/2018,1,,,84632,,,,,,Flexible Contract,Tender Completed,No,Yes,02462858_2015_2018
Elec,39668,Npower Limited,01/04/2015,31/03/2018,1,,,146121,,,,,,Flexible Contract,Tender Completed,No,Yes,02462858_2015_2018
Elec,39669,Npower Limited,01/04/2015,31/03/2018,1,,,160233,,,,,,Flexible Contract,Tender Completed,No,Yes,02462858_2015_2018
Elec,39670,Npower Limited,01/04/2015,31/03/2018,1,,,120609,,,,,,Flexible Contract,Tender Completed,No,Yes,02462858_2015_2018
Elec,39671,Npower Limited,01/04/2015,31/03/2018,1,,,92033,,,,,,Flexible Contract,Tender Completed,No,Yes,02462858_2015_2018
Elec,39672,Npower Limited,01/04/2015,31/03/2018,1,,,139863,,,,,,Flexible Contract,Tender Completed,No,Yes,02462858_2015_2018
Elec,39673,Npower Limited,01/04/2015,31/03/2018,1,,,161161,,,,,,Flexible Contract,Tender Completed,No,Yes,02462858_2015_2018
Elec,39674,Npower Limited,01/04/2015,31/03/2018,1,,,142054,,,,,,Flexible Contract,Tender Completed,No,Yes,02462858_2015_2018
Elec,39675,Npower Limited,01/04/2015,31/03/2018,1,,,136806,,,,,,Flexible Contract,Tender Completed,No,Yes,02462858_2015_2018
Elec,39676,Npower Limited,01/04/2015,31/03/2018,1,,,168516,,,,,,Flexible Contract,Tender Completed,No,Yes,02462858_2015_2018
Elec,39677,Npower Limited,01/04/2015,31/03/2018,1,,,138992,,,,,,Flexible Contract,Tender Completed,No,Yes,02462858_2015_2018
Elec,39678,Npower Limited,01/04/2015,31/03/2018,1,,,140175,,,,,,Flexible Contract,Tender Completed,No,Yes,02462858_2015_2018
Elec,39679,Npower Limited,01/04/2015,31/03/2018,1,,,116549,,,,,,Flexible Contract,Tender Completed,No,Yes,02462858_2015_2018
Elec,39680,Npower Limited,01/04/2015,31/03/2018,1,,,130533,,,,,,Flexible Contract,Tender Completed,No,Yes,02462858_2015_2018
Elec,39681,Npower Limited,01/04/2015,31/03/2018,1,,,140022,,,,,,Flexible Contract,Tender Completed,No,Yes,02462858_2015_2018
Elec,39682,Npower Limited,01/04/2015,31/03/2018,1,,,124286,,,,,,Flexible Contract,Tender Completed,No,Yes,02462858_2015_2018
Elec,39683,Npower Limited,01/04/2015,31/03/2018,1,,,113220,,,,,,Flexible Contract,Tender Completed,No,Yes,02462858_2015_2018
Elec,39684,Npower Limited,01/04/2015,31/03/2018,1,,,114942,,,,,,Flexible Contract,Tender Completed,No,Yes,02462858_2015_2018
Elec,39685,Npower Limited,01/04/2015,31/03/2018,1,,,119893,,,,,,Flexible Contract,Tender Completed,No,Yes,02462858_2015_2018
Elec,39686,Npower Limited,01/04/2015,31/03/2018,1,,,120187,,,,,,Flexible Contract,Tender Completed,No,Yes,02462858_2015_2018
Elec,39687,Npower Limited,01/04/2015,31/03/2018,1,,,146409,,,,,,Flexible Contract,Tender Completed,No,Yes,02462858_2015_2018
Elec,39688,Npower Limited,01/04/2015,31/03/2018,1,,,104684,,,,,,Flexible Contract,Tender Completed,No,Yes,02462858_2015_2018
Elec,39689,Npower Limited,01/04/2015,31/03/2018,1,,,136166,,,,,,Flexible Contract,Tender Completed,No,Yes,02462858_2015_2018
Elec,39690,Npower Limited,01/04/2015,31/03/2018,1,,,116431,,,,,,Flexible Contract,Tender Completed,No,Yes,02462858_2015_2018
Elec,39691,Npower Limited,01/04/2015,31/03/2018,1,,,141791,,,,,,Flexible Contract,Tender Completed,No,Yes,02462858_2015_2018
Elec,39692,Npower Limited,01/04/2015,31/03/2018,1,,,143106,,,,,,Flexible Contract,Tender Completed,No,Yes,02462858_2015_2018
Elec,39693,Npower Limited,01/04/2015,31/03/2018,1,,,120494,,,,,,Flexible Contract,Tender Completed,No,Yes,02462858_2015_2018
Elec,39694,Npower Limited,01/04/2015,31/03/2018,1,,,143062,,,,,,Flexible Contract,Tender Completed,No,Yes,02462858_2015_2018
Elec,39695,Npower Limited,01/04/2015,31/03/2018,1,,,132447,,,,,,Flexible Contract,Tender Completed,No,Yes,02462858_2015_2018
Elec,39696,Npower Limited,01/04/2015,31/03/2018,1,,,125591,,,,,,Flexible Contract,Tender Completed,No,Yes,02462858_2015_2018
Elec,39697,Npower Limited,01/04/2015,31/03/2018,1,,,102618,,,,,,Flexible Contract,Tender Completed,No,Yes,02462858_2015_2018
Elec,39698,Npower Limited,01/04/2015,31/03/2018,1,,,3625,,,,,,Flexible Contract,Tender Completed,No,Yes,02462858_2015_2018
Elec,39699,Npower Limited,01/04/2015,31/03/2018,1,,,198897,,,,,,Flexible Contract,Tender Completed,No,Yes,02462858_2015_2018
Elec,39701,Npower Limited,01/04/2015,31/03/2018,1,,,193451,,,,,,Flexible Contract,Tender Completed,No,Yes,02462858_2015_2018
Elec,39702,Npower Limited,01/04/2015,31/03/2018,1,,,177092,,,,,,Flexible Contract,Tender Completed,No,Yes,02462858_2015_2018
Elec,39703,Npower Limited,01/04/2015,31/03/2018,1,,,139899,,,,,,Flexible Contract,Tender Completed,No,Yes,02462858_2015_2018
Elec,39704,Npower Limited,01/04/2015,31/03/2018,1,,,159686,,,,,,Flexible Contract,Tender Completed,No,Yes,02462858_2015_2018
Elec,39705,Npower Limited,01/04/2015,31/03/2018,1,,,119772,,,,,,Flexible Contract,Tender Completed,No,Yes,02462858_2015_2018
Elec,39706,Npower Limited,01/04/2015,31/03/2018,1,,,119839,,,,,,Flexible Contract,Tender Completed,No,Yes,02462858_2015_2018
Elec,39707,Npower Limited,01/04/2015,31/03/2018,1,,,119631,,,,,,Flexible Contract,Tender Completed,No,Yes,02462858_2015_2018
Elec,39708,Npower Limited,01/04/2015,31/03/2018,1,,,4802,,,,,,Flexible Contract,Tender Completed,No,Yes,02462858_2015_2018
Elec,39709,Npower Limited,01/04/2015,31/03/2018,1,,,90777,,,,,,Flexible Contract,Tender Completed,No,Yes,02462858_2015_2018
Elec,39710,Npower Limited,01/04/2015,31/03/2018,1,,,6424,,,,,,Flexible Contract,Tender Completed,No,Yes,02462858_2015_2018
Elec,39711,Npower Limited,01/04/2015,31/03/2018,1,,,38931,,,,,,Flexible Contract,Tender Completed,No,Yes,02462858_2015_2018
Elec,39712,Npower Limited,01/04/2015,31/03/2018,1,,,56657,,,,,,Flexible Contract,Tender Completed,No,Yes,02462858_2015_2018
Elec,39713,Npower Limited,01/04/2015,31/03/2018,1,,,170230,,,,,,Flexible Contract,Tender Completed,No,Yes,02462858_2015_2018
Elec,39714,Npower Limited,01/04/2015,31/03/2018,1,,,122158,,,,,,Flexible Contract,Tender Completed,No,Yes,02462858_2015_2018
Elec,39715,Npower Limited,01/04/2015,31/03/2018,1,,,127680,,,,,,Flexible Contract,Tender Completed,No,Yes,02462858_2015_2018
Elec,39716,Npower Limited,01/04/2015,31/03/2018,1,,,147847,,,,,,Flexible Contract,Tender Completed,No,Yes,02462858_2015_2018
Elec,39718,Npower Limited,01/04/2015,31/03/2018,1,,,126670,,,,,,Flexible Contract,Tender Completed,No,Yes,02462858_2015_2018
Elec,39719,Npower Limited,01/04/2015,31/03/2018,1,,,185380,,,,,,Flexible Contract,Tender Completed,No,Yes,02462858_2015_2018
Elec,39720,Npower Limited,01/04/2015,31/03/2018,1,,,146242,,,,,,Flexible Contract,Tender Completed,No,Yes,02462858_2015_2018
Elec,39721,Npower Limited,01/04/2015,31/03/2018,1,,,176206,,,,,,Flexible Contract,Tender Completed,No,Yes,02462858_2015_2018
Elec,39722,Npower Limited,01/04/2015,31/03/2018,1,,,147624,,,,,,Flexible Contract,Tender Completed,No,Yes,02462858_2015_2018
Elec,39723,Npower Limited,01/04/2015,31/03/2018,1,,,129342,,,,,,Flexible Contract,Tender Completed,No,Yes,02462858_2015_2018
Elec,39724,Npower Limited,01/04/2015,31/03/2018,1,,,194224,,,,,,Flexible Contract,Tender Completed,No,Yes,02462858_2015_2018
Elec,39725,Npower Limited,01/04/2015,31/03/2018,1,,,115291,,,,,,Flexible Contract,Tender Completed,No,Yes,02462858_2015_2018
Elec,39727,Npower Limited,01/04/2015,31/03/2018,1,,,167693,,,,,,Flexible Contract,Tender Completed,No,Yes,02462858_2015_2018
Elec,39728,Npower Limited,01/04/2015,31/03/2018,1,,,119261,,,,,,Flexible Contract,Tender Completed,No,Yes,02462858_2015_2018
Elec,39729,Npower Limited,01/04/2015,31/03/2018,1,,,38433,,,,,,Flexible Contract,Tender Completed,No,Yes,02462858_2015_2018
Elec,39730,Npower Limited,01/04/2015,31/03/2018,1,,,113053,,,,,,Flexible Contract,Tender Completed,No,Yes,02462858_2015_2018
Elec,39731,Npower Limited,01/04/2015,31/03/2018,1,,,130997,,,,,,Flexible Contract,Tender Completed,No,Yes,02462858_2015_2018
Elec,39733,Npower Limited,01/04/2015,31/03/2018,1,,,167749,,,,,,Flexible Contract,Tender Completed,No,Yes,02462858_2015_2018
Elec,39736,Npower Limited,01/04/2015,31/03/2018,1,,,251817,,,,,,Flexible Contract,Tender Completed,No,Yes,02462858_2015_2018
Elec,39737,Npower Limited,01/04/2015,31/03/2018,1,,,118153,,,,,,Flexible Contract,Tender Completed,No,Yes,02462858_2015_2018
Elec,39738,Npower Limited,01/04/2015,31/03/2018,1,,,136052,,,,,,Flexible Contract,Tender Completed,No,Yes,02462858_2015_2018
Elec,39739,Npower Limited,01/04/2015,31/03/2018,1,,,134768,,,,,,Flexible Contract,Tender Completed,No,Yes,02462858_2015_2018
Elec,39740,Npower Limited,01/04/2015,31/03/2018,1,,,135360,,,,,,Flexible Contract,Tender Completed,No,Yes,02462858_2015_2018
Elec,39741,Npower Limited,01/04/2015,31/03/2018,1,,,121628,,,,,,Flexible Contract,Tender Completed,No,Yes,02462858_2015_2018
Elec,39742,Npower Limited,01/04/2015,31/03/2018,1,,,134907,,,,,,Flexible Contract,Tender Completed,No,Yes,02462858_2015_2018
Elec,39743,Npower Limited,01/04/2015,31/03/2018,1,,,85295,,,,,,Flexible Contract,Tender Completed,No,Yes,02462858_2015_2018
Elec,39744,Npower Limited,01/04/2015,31/03/2018,1,,,151002,,,,,,Flexible Contract,Tender Completed,No,Yes,02462858_2015_2018
Elec,39745,Npower Limited,01/04/2015,31/03/2018,1,,,167202,,,,,,Flexible Contract,Tender Completed,No,Yes,02462858_2015_2018
Elec,39746,Npower Limited,01/04/2015,31/03/2018,1,,,158669,,,,,,Flexible Contract,Tender Completed,No,Yes,02462858_2015_2018
Elec,39747,Npower Limited,01/04/2015,31/03/2018,1,,,147817,,,,,,Flexible Contract,Tender Completed,No,Yes,02462858_2015_2018
Elec,39748,Npower Limited,01/04/2015,31/03/2018,1,,,156497,,,,,,Flexible Contract,Tender Completed,No,Yes,02462858_2015_2018
Elec,39750,Npower Limited,01/04/2015,31/03/2018,1,,,137107,,,,,,Flexible Contract,Tender Completed,No,Yes,02462858_2015_2018
Elec,39751,Npower Limited,01/04/2015,31/03/2018,1,,,398,,,,,,Flexible Contract,Tender Completed,No,Yes,02462858_2015_2018
Elec,39752,Npower Limited,01/04/2015,31/03/2018,1,,,185216,,,,,,Flexible Contract,Tender Completed,No,Yes,02462858_2015_2018
Elec,39753,Npower Limited,01/04/2015,31/03/2018,1,,,100962,,,,,,Flexible Contract,Tender Completed,No,Yes,02462858_2015_2018
Elec,39754,Npower Limited,01/04/2015,31/03/2018,1,,,125217,,,,,,Flexible Contract,Tender Completed,No,Yes,02462858_2015_2018
Elec,39755,Npower Limited,01/04/2015,31/03/2018,1,,,149069,,,,,,Flexible Contract,Tender Completed,No,Yes,02462858_2015_2018
Elec,39756,Npower Limited,01/04/2015,31/03/2018,1,,,89439,,,,,,Flexible Contract,Tender Completed,No,Yes,02462858_2015_2018
Elec,39757,Npower Limited,01/04/2015,31/03/2018,1,,,121013,,,,,,Flexible Contract,Tender Completed,No,Yes,02462858_2015_2018
Elec,39758,Npower Limited,01/04/2015,31/03/2018,1,,,1426,,,,,,Flexible Contract,Tender Completed,No,Yes,02462858_2015_2018
Elec,39759,Npower Limited,01/04/2015,31/03/2018,1,,,191158,,,,,,Flexible Contract,Tender Completed,No,Yes,02462858_2015_2018
Elec,39760,Npower Limited,01/04/2015,31/03/2018,1,,,166653,,,,,,Flexible Contract,Tender Completed,No,Yes,02462858_2015_2018
Elec,39761,Npower Limited,01/04/2015,31/03/2018,1,,,130873,,,,,,Flexible Contract,Tender Completed,No,Yes,02462858_2015_2018
Elec,39763,Npower Limited,01/04/2015,31/03/2018,1,,,168392,,,,,,Flexible Contract,Tender Completed,No,Yes,02462858_2015_2018
Elec,39765,Npower Limited,01/04/2015,31/03/2018,1,,,139481,,,,,,Flexible Contract,Tender Completed,No,Yes,02462858_2015_2018
Elec,39766,Npower Limited,01/04/2015,31/03/2018,1,,,157689,,,,,,Flexible Contract,Tender Completed,No,Yes,02462858_2015_2018
Elec,39767,Npower Limited,01/04/2015,31/03/2018,1,,,196858,,,,,,Flexible Contract,Tender Completed,No,Yes,02462858_2015_2018
Elec,39768,Npower Limited,01/04/2015,31/03/2018,1,,,151447,,,,,,Flexible Contract,Tender Completed,No,Yes,02462858_2015_2018
Elec,39769,Npower Limited,01/04/2015,31/03/2018,1,,,126331,,,,,,Flexible Contract,Tender Completed,No,Yes,02462858_2015_2018
Elec,39770,Npower Limited,01/04/2015,31/03/2018,1,,,121790,,,,,,Flexible Contract,Tender Completed,No,Yes,02462858_2015_2018
Elec,39771,Npower Limited,01/04/2015,31/03/2018,1,,,210398,,,,,,Flexible Contract,Tender Completed,No,Yes,02462858_2015_2018
Elec,39772,Npower Limited,01/04/2015,31/03/2018,1,,,141585,,,,,,Flexible Contract,Tender Completed,No,Yes,02462858_2015_2018
Elec,39774,Npower Limited,01/04/2015,31/03/2018,1,,,113867,,,,,,Flexible Contract,Tender Completed,No,Yes,02462858_2015_2018
Elec,39775,Npower Limited,01/04/2015,31/03/2018,1,,,174476,,,,,,Flexible Contract,Tender Completed,No,Yes,02462858_2015_2018
Elec,39776,Npower Limited,01/04/2015,31/03/2018,1,,,131702,,,,,,Flexible Contract,Tender Completed,No,Yes,02462858_2015_2018
Elec,39777,Npower Limited,01/04/2015,31/03/2018,1,,,142907,,,,,,Flexible Contract,Tender Completed,No,Yes,02462858_2015_2018
Elec,39778,Npower Limited,01/04/2015,31/03/2018,1,,,210962,,,,,,Flexible Contract,Tender Completed,No,Yes,02462858_2015_2018
Elec,39779,Npower Limited,01/04/2015,31/03/2018,1,,,155118,,,,,,Flexible Contract,Tender Completed,No,Yes,02462858_2015_2018
Elec,39780,Npower Limited,01/04/2015,31/03/2018,1,,,108880,,,,,,Flexible Contract,Tender Completed,No,Yes,02462858_2015_2018
Elec,39781,Npower Limited,01/04/2015,31/03/2018,1,,,153377,,,,,,Flexible Contract,Tender Completed,No,Yes,02462858_2015_2018
Elec,39782,Npower Limited,01/04/2015,31/03/2018,1,,,142457,,,,,,Flexible Contract,Tender Completed,No,Yes,02462858_2015_2018
Elec,39783,Npower Limited,01/04/2015,31/03/2018,1,,,148449,,,,,,Flexible Contract,Tender Completed,No,Yes,02462858_2015_2018
Elec,39784,Npower Limited,01/04/2015,31/03/2018,1,,,147514,,,,,,Flexible Contract,Tender Completed,No,Yes,02462858_2015_2018
Elec,39785,Npower Limited,01/04/2015,31/03/2018,1,,,133810,,,,,,Flexible Contract,Tender Completed,No,Yes,02462858_2015_2018
Elec,39786,Npower Limited,01/04/2015,31/03/2018,1,,,99996,,,,,,Flexible Contract,Tender Completed,No,Yes,02462858_2015_2018
Elec,39787,Npower Limited,01/04/2015,31/03/2018,1,,,166237,,,,,,Flexible Contract,Tender Completed,No,Yes,02462858_2015_2018
Elec,39788,Npower Limited,01/04/2015,31/03/2018,1,,,109483,,,,,,Flexible Contract,Tender Completed,No,Yes,02462858_2015_2018
Elec,39789,Npower Limited,01/04/2015,31/03/2018,1,,,114825,,,,,,Flexible Contract,Tender Completed,No,Yes,02462858_2015_2018
Elec,39790,Npower Limited,01/04/2015,31/03/2018,1,,,145559,,,,,,Flexible Contract,Tender Completed,No,Yes,02462858_2015_2018
Elec,39791,Npower Limited,01/04/2015,31/03/2018,1,,,159728,,,,,,Flexible Contract,Tender Completed,No,Yes,02462858_2015_2018
Elec,39792,Npower Limited,01/04/2015,31/03/2018,1,,,120401,,,,,,Flexible Contract,Tender Completed,No,Yes,02462858_2015_2018
Elec,39793,Npower Limited,01/04/2015,31/03/2018,1,,,106240,,,,,,Flexible Contract,Tender Completed,No,Yes,02462858_2015_2018
Elec,39795,Npower Limited,01/04/2015,31/03/2018,1,,,131402,,,,,,Flexible Contract,Tender Completed,No,Yes,02462858_2015_2018
Elec,39796,Npower Limited,01/04/2015,31/03/2018,1,,,178488,,,,,,Flexible Contract,Tender Completed,No,Yes,02462858_2015_2018
Elec,39797,Npower Limited,01/04/2015,31/03/2018,1,,,47,,,,,,Flexible Contract,Tender Completed,No,Yes,02462858_2015_2018
Elec,39798,Npower Limited,01/04/2015,31/03/2018,1,,,150267,,,,,,Flexible Contract,Tender Completed,No,Yes,02462858_2015_2018
Elec,39799,Npower Limited,01/04/2015,31/03/2018,1,,,170958,,,,,,Flexible Contract,Tender Completed,No,Yes,02462858_2015_2018
Elec,39800,Npower Limited,01/04/2015,31/03/2018,1,,,140515,,,,,,Flexible Contract,Tender Completed,No,Yes,02462858_2015_2018
Elec,39801,Npower Limited,01/04/2015,31/03/2018,1,,,105141,,,,,,Flexible Contract,Tender Completed,No,Yes,02462858_2015_2018
Elec,39802,Npower Limited,01/04/2015,31/03/2018,1,,,181181,,,,,,Flexible Contract,Tender Completed,No,Yes,02462858_2015_2018
Elec,39803,Npower Limited,01/04/2015,31/03/2018,1,,,22805,,,,,,Flexible Contract,Tender Completed,No,Yes,02462858_2015_2018
Elec,39804,Npower Limited,01/04/2015,31/03/2018,1,,,224809,,,,,,Flexible Contract,Tender Completed,No,Yes,02462858_2015_2018
Elec,39805,Npower Limited,01/04/2015,31/03/2018,1,,,191515,,,,,,Flexible Contract,Tender Completed,No,Yes,02462858_2015_2018
Elec,39806,Npower Limited,01/04/2015,31/03/2018,1,,,195376,,,,,,Flexible Contract,Tender Completed,No,Yes,02462858_2015_2018
Elec,39807,Npower Limited,01/04/2015,31/03/2018,1,,,127240,,,,,,Flexible Contract,Tender Completed,No,Yes,02462858_2015_2018
Elec,39808,Npower Limited,01/04/2015,31/03/2018,1,,,182322,,,,,,Flexible Contract,Tender Completed,No,Yes,02462858_2015_2018
Elec,39809,Npower Limited,01/04/2015,31/03/2018,1,,,194180,,,,,,Flexible Contract,Tender Completed,No,Yes,02462858_2015_2018
Elec,39810,Npower Limited,01/04/2015,31/03/2018,1,,,148296,,,,,,Flexible Contract,Tender Completed,No,Yes,02462858_2015_2018
Elec,39811,Npower Limited,01/04/2015,31/03/2018,1,,,81537,,,,,,Flexible Contract,Tender Completed,No,Yes,02462858_2015_2018
Elec,39812,Npower Limited,01/04/2015,31/03/2018,1,,,178958,,,,,,Flexible Contract,Tender Completed,No,Yes,02462858_2015_2018
Elec,39813,Npower Limited,01/04/2015,31/03/2018,1,,,106170,,,,,,Flexible Contract,Tender Completed,No,Yes,02462858_2015_2018
Elec,39814,Npower Limited,01/04/2015,31/03/2018,1,,,48080,,,,,,Flexible Contract,Tender Completed,No,Yes,02462858_2015_2018
Elec,39815,Npower Limited,01/04/2015,31/03/2018,1,,,137921,,,,,,Flexible Contract,Tender Completed,No,Yes,02462858_2015_2018
Elec,39816,Npower Limited,01/04/2015,31/03/2018,1,,,137393,,,,,,Flexible Contract,Tender Completed,No,Yes,02462858_2015_2018
Elec,39818,Npower Limited,01/04/2015,31/03/2018,1,,,120983,,,,,,Flexible Contract,Tender Completed,No,Yes,02462858_2015_2018
Elec,39819,Npower Limited,01/04/2015,31/03/2018,1,,,139013,,,,,,Flexible Contract,Tender Completed,No,Yes,02462858_2015_2018
Elec,39820,Npower Limited,01/04/2015,31/03/2018,1,,,88006,,,,,,Flexible Contract,Tender Completed,No,Yes,02462858_2015_2018
Elec,39821,Npower Limited,01/04/2015,31/03/2018,1,,,150809,,,,,,Flexible Contract,Tender Completed,No,Yes,02462858_2015_2018
Elec,39822,Npower Limited,01/04/2015,31/03/2018,1,,,20253,,,,,,Flexible Contract,Tender Completed,No,Yes,02462858_2015_2018
Elec,39823,Npower Limited,01/04/2015,31/03/2018,1,,,148567,,,,,,Flexible Contract,Tender Completed,No,Yes,02462858_2015_2018
Elec,39824,Npower Limited,01/04/2015,31/03/2018,1,,,97021,,,,,,Flexible Contract,Tender Completed,No,Yes,02462858_2015_2018
Elec,39825,Npower Limited,01/04/2015,31/03/2018,1,,,115693,,,,,,Flexible Contract,Tender Completed,No,Yes,02462858_2015_2018
Elec,39826,Npower Limited,01/04/2015,31/03/2018,1,,,20253,,,,,,Flexible Contract,Tender Completed,No,Yes,02462858_2015_2018
Elec,39827,Npower Limited,01/04/2015,31/03/2018,1,,,20253,,,,,,Flexible Contract,Tender Completed,No,Yes,02462858_2015_2018
Elec,39828,Npower Limited,01/04/2015,31/03/2018,1,,,36474,,,,,,Flexible Contract,Tender Completed,No,Yes,02462858_2015_2018
Elec,39829,Npower Limited,01/04/2015,31/03/2018,1,,,20253,,,,,,Flexible Contract,Tender Completed,No,Yes,02462858_2015_2018
Elec,39830,Npower Limited,01/04/2015,31/03/2018,1,,,113640,,,,,,Flexible Contract,Tender Completed,No,Yes,02462858_2015_2018
Elec,39831,Npower Limited,01/04/2015,31/03/2018,1,,,36474,,,,,,Flexible Contract,Tender Completed,No,Yes,02462858_2015_2018
Elec,39832,Npower Limited,01/04/2015,31/03/2018,1,,,159690,,,,,,Flexible Contract,Tender Completed,No,Yes,02462858_2015_2018
Elec,39833,Npower Limited,01/04/2015,31/03/2018,1,,,148642,,,,,,Flexible Contract,Tender Completed,No,Yes,02462858_2015_2018
Elec,39834,Npower Limited,01/04/2015,31/03/2018,1,,,226624,,,,,,Flexible Contract,Tender Completed,No,Yes,02462858_2015_2018
Elec,39837,Npower Limited,01/04/2015,31/03/2018,1,,,139002,,,,,,Flexible Contract,Tender Completed,No,Yes,02462858_2015_2018
Elec,39838,Npower Limited,01/04/2015,31/03/2018,1,,,171711,,,,,,Flexible Contract,Tender Completed,No,Yes,02462858_2015_2018
Elec,39839,Npower Limited,01/04/2015,31/03/2018,1,,,171711,,,,,,Flexible Contract,Tender Completed,No,Yes,02462858_2015_2018
Elec,39840,Npower Limited,01/04/2015,31/03/2018,1,,,111149,,,,,,Flexible Contract,Tender Completed,No,Yes,02462858_2015_2018
Elec,39842,Npower Limited,01/04/2015,31/03/2018,1,,,36474,,,,,,Flexible Contract,Tender Completed,No,Yes,02462858_2015_2018
Elec,39843,Npower Limited,01/04/2015,31/03/2018,1,,,88507,,,,,,Flexible Contract,Tender Completed,No,Yes,02462858_2015_2018
Elec,39844,Npower Limited,01/04/2015,31/03/2018,1,,,106128,,,,,,Flexible Contract,Tender Completed,No,Yes,02462858_2015_2018
Elec,39845,Npower Limited,01/04/2015,31/03/2018,1,,,172454,,,,,,Flexible Contract,Tender Completed,No,Yes,02462858_2015_2018
Elec,39846,Npower Limited,01/04/2015,31/03/2018,1,,,171711,,,,,,Flexible Contract,Tender Completed,No,Yes,02462858_2015_2018
Elec,39847,Npower Limited,01/04/2015,31/03/2018,1,,,129817,,,,,,Flexible Contract,Tender Completed,No,Yes,02462858_2015_2018
Elec,39848,Npower Limited,01/04/2015,31/03/2018,1,,,100755,,,,,,Flexible Contract,Tender Completed,No,Yes,02462858_2015_2018
Elec,39849,Npower Limited,01/04/2015,31/03/2018,1,,,187007,,,,,,Flexible Contract,Tender Completed,No,Yes,02462858_2015_2018
Elec,39850,Npower Limited,01/04/2015,31/03/2018,1,,,123983,,,,,,Flexible Contract,Tender Completed,No,Yes,02462858_2015_2018
Elec,39851,Npower Limited,01/04/2015,31/03/2018,1,,,175590,,,,,,Flexible Contract,Tender Completed,No,Yes,02462858_2015_2018
Elec,39852,Npower Limited,01/04/2015,31/03/2018,1,,,102790,,,,,,Flexible Contract,Tender Completed,No,Yes,02462858_2015_2018
Elec,39853,Npower Limited,01/04/2015,31/03/2018,1,,,105123,,,,,,Flexible Contract,Tender Completed,No,Yes,02462858_2015_2018
Elec,39855,Npower Limited,01/04/2015,31/03/2018,1,,,151639,,,,,,Flexible Contract,Tender Completed,No,Yes,02462858_2015_2018
Elec,39856,Npower Limited,01/04/2015,31/03/2018,1,,,122106,,,,,,Flexible Contract,Tender Completed,No,Yes,02462858_2015_2018
Elec,39857,Npower Limited,01/04/2015,31/03/2018,1,,,149219,,,,,,Flexible Contract,Tender Completed,No,Yes,02462858_2015_2018
Elec,39858,Npower Limited,01/04/2015,31/03/2018,1,,,171711,,,,,,Flexible Contract,Tender Completed,No,Yes,02462858_2015_2018
Elec,39859,Npower Limited,01/04/2015,31/03/2018,1,,,175590,,,,,,Flexible Contract,Tender Completed,No,Yes,02462858_2015_2018
Elec,39860,Npower Limited,01/04/2015,31/03/2018,1,,,131334,,,,,,Flexible Contract,Tender Completed,No,Yes,02462858_2015_2018
Elec,39861,Npower Limited,01/04/2015,31/03/2018,1,,,114514,,,,,,Flexible Contract,Tender Completed,No,Yes,02462858_2015_2018
Elec,39862,Npower Limited,01/04/2015,31/03/2018,1,,,159166,,,,,,Flexible Contract,Tender Completed,No,Yes,02462858_2015_2018
Elec,39863,Npower Limited,01/04/2015,31/03/2018,1,,,177277,,,,,,Flexible Contract,Tender Completed,No,Yes,02462858_2015_2018
Elec,39864,Npower Limited,01/04/2015,31/03/2018,1,,,20253,,,,,,Flexible Contract,Tender Completed,No,Yes,02462858_2015_2018
Elec,39865,Npower Limited,01/04/2015,31/03/2018,1,,,114006,,,,,,Flexible Contract,Tender Completed,No,Yes,02462858_2015_2018
Elec,39866,Npower Limited,01/04/2015,31/03/2018,1,,,156577,,,,,,Flexible Contract,Tender Completed,No,Yes,02462858_2015_2018
Elec,39867,Npower Limited,01/04/2015,31/03/2018,1,,,141986,,,,,,Flexible Contract,Tender Completed,No,Yes,02462858_2015_2018
Elec,39868,Npower Limited,01/04/2015,31/03/2018,1,,,142906,,,,,,Flexible Contract,Tender Completed,No,Yes,02462858_2015_2018
Elec,39869,Npower Limited,01/04/2015,31/03/2018,1,,,23713,,,,,,Flexible Contract,Tender Completed,No,Yes,02462858_2015_2018
Elec,39872,Npower Limited,01/04/2015,31/03/2018,1,,,152232,,,,,,Flexible Contract,Tender Completed,No,Yes,02462858_2015_2018
Elec,39873,Npower Limited,01/04/2015,31/03/2018,1,,,126216,,,,,,Flexible Contract,Tender Completed,No,Yes,02462858_2015_2018
Elec,39875,Npower Limited,01/04/2015,31/03/2018,1,,,60226,,,,,,Flexible Contract,Tender Completed,No,Yes,02462858_2015_2018
Elec,39877,Npower Limited,01/04/2015,31/03/2018,1,,,1494,,,,,,Flexible Contract,Tender Completed,No,Yes,02462858_2015_2018
Elec,39878,Npower Limited,01/04/2015,31/03/2018,1,,,186520,,,,,,Flexible Contract,Tender Completed,No,Yes,02462858_2015_2018
Elec,39881,Npower Limited,01/04/2015,31/03/2018,1,,,9822,,,,,,Flexible Contract,Tender Completed,No,Yes,02462858_2015_2018
Elec,39883,Npower Limited,01/04/2015,31/03/2018,1,,,65153,,,,,,Flexible Contract,Tender Completed,No,Yes,02462858_2015_2018
Elec,39884,Npower Limited,01/04/2015,31/03/2018,1,,,9251,,,,,,Flexible Contract,Tender Completed,No,Yes,02462858_2015_2018
Elec,39885,Npower Limited,01/04/2015,31/03/2018,1,,,14350,,,,,,Flexible Contract,Tender Completed,No,Yes,02462858_2015_2018
Elec,39886,Npower Limited,01/04/2015,31/03/2018,1,,,156061,,,,,,Flexible Contract,Tender Completed,No,Yes,02462858_2015_2018
Elec,39887,Npower Limited,01/04/2015,31/03/2018,1,,,127474,,,,,,Flexible Contract,Tender Completed,No,Yes,02462858_2015_2018
Elec,39888,Npower Limited,01/04/2015,31/03/2018,1,,,123968,,,,,,Flexible Contract,Tender Completed,No,Yes,02462858_2015_2018
Elec,39889,Npower Limited,01/04/2015,31/03/2018,1,,,5183,,,,,,Flexible Contract,Tender Completed,No,Yes,02462858_2015_2018
Elec,39890,Npower Limited,01/04/2015,31/03/2018,1,,,371746,,,,,,Flexible Contract,Tender Completed,No,Yes,02462858_2015_2018
Elec,39891,Npower Limited,01/04/2015,31/03/2018,1,,,142744,,,,,,Flexible Contract,Tender Completed,No,Yes,02462858_2015_2018
Elec,39892,Npower Limited,01/04/2015,31/03/2018,1,,,123448,,,,,,Flexible Contract,Tender Completed,No,Yes,02462858_2015_2018
Elec,39893,Npower Limited,01/04/2015,31/03/2018,1,,,68779,,,,,,Flexible Contract,Tender Completed,No,Yes,02462858_2015_2018
Elec,39895,Npower Limited,01/04/2015,31/03/2018,1,,,116365,,,,,,Flexible Contract,Tender Completed,No,Yes,02462858_2015_2018
Elec,39896,Npower Limited,01/04/2015,31/03/2018,1,,,11653,,,,,,Flexible Contract,Tender Completed,No,Yes,02462858_2015_2018
Elec,39897,Npower Limited,01/04/2015,31/03/2018,1,,,97853,,,,,,Flexible Contract,Tender Completed,No,Yes,02462858_2015_2018
Elec,39898,Npower Limited,01/04/2015,31/03/2018,1,,,198271,,,,,,Flexible Contract,Tender Completed,No,Yes,02462858_2015_2018
Elec,39900,Npower Limited,01/04/2015,31/03/2018,1,,,79348,,,,,,Flexible Contract,Tender Completed,No,Yes,02462858_2015_2018
Elec,39901,Npower Limited,01/04/2015,31/03/2018,1,,,121559,,,,,,Flexible Contract,Tender Completed,No,Yes,02462858_2015_2018
Elec,39903,Npower Limited,01/04/2015,31/03/2018,1,,,141807,,,,,,Flexible Contract,Tender Completed,No,Yes,02462858_2015_2018
Elec,39904,Npower Limited,01/04/2015,31/03/2018,1,,,186032,,,,,,Flexible Contract,Tender Completed,No,Yes,02462858_2015_2018
Elec,39906,Npower Limited,01/04/2015,31/03/2018,1,,,186785,,,,,,Flexible Contract,Tender Completed,No,Yes,02462858_2015_2018
Elec,39907,Npower Limited,01/04/2015,31/03/2018,1,,,129200,,,,,,Flexible Contract,Tender Completed,No,Yes,02462858_2015_2018
Elec,39908,Npower Limited,01/04/2015,31/03/2018,1,,,4625,,,,,,Flexible Contract,Tender Completed,No,Yes,02462858_2015_2018
Elec,39909,Npower Limited,01/04/2015,31/03/2018,1,,,1403366,,,,,,Flexible Contract,Tender Completed,No,Yes,02462858_2015_2018
Elec,39911,Npower Limited,01/04/2015,31/03/2018,1,,,174982,,,,,,Flexible Contract,Tender Completed,No,Yes,02462858_2015_2018
Elec,39913,Npower Limited,01/04/2015,31/03/2018,1,,,134312,,,,,,Flexible Contract,Tender Completed,No,Yes,02462858_2015_2018
Elec,39914,Npower Limited,01/04/2015,31/03/2018,1,,,65156,,,,,,Flexible Contract,Tender Completed,No,Yes,02462858_2015_2018
Elec,39915,Npower Limited,01/04/2015,31/03/2018,1,,,111272,,,,,,Flexible Contract,Tender Completed,No,Yes,02462858_2015_2018
Elec,39916,Npower Limited,01/04/2015,31/03/2018,1,,,114909,,,,,,Flexible Contract,Tender Completed,No,Yes,02462858_2015_2018
Elec,39917,Npower Limited,01/04/2015,31/03/2018,1,,,137432,,,,,,Flexible Contract,Tender Completed,No,Yes,02462858_2015_2018
Elec,39918,Npower Limited,01/04/2015,31/03/2018,1,,,166161,,,,,,Flexible Contract,Tender Completed,No,Yes,02462858_2015_2018
Elec,39919,Npower Limited,01/04/2015,31/03/2018,1,,,144771,,,,,,Flexible Contract,Tender Completed,No,Yes,02462858_2015_2018
Elec,39920,Npower Limited,01/04/2015,31/03/2018,1,,,204307,,,,,,Flexible Contract,Tender Completed,No,Yes,02462858_2015_2018
Elec,39921,Npower Limited,01/04/2015,31/03/2018,1,,,94167,,,,,,Flexible Contract,Tender Completed,No,Yes,02462858_2015_2018
Elec,39922,Npower Limited,01/04/2015,31/03/2018,1,,,98132,,,,,,Flexible Contract,Tender Completed,No,Yes,02462858_2015_2018
Elec,39923,Npower Limited,01/04/2015,31/03/2018,1,,,92007,,,,,,Flexible Contract,Tender Completed,No,Yes,02462858_2015_2018
Elec,39924,Npower Limited,01/04/2015,31/03/2018,1,,,128968,,,,,,Flexible Contract,Tender Completed,No,Yes,02462858_2015_2018
Elec,39925,Npower Limited,01/04/2015,31/03/2018,1,,,182171,,,,,,Flexible Contract,Tender Completed,No,Yes,02462858_2015_2018
Elec,39926,Npower Limited,01/04/2015,31/03/2018,1,,,141138,,,,,,Flexible Contract,Tender Completed,No,Yes,02462858_2015_2018
Elec,39927,Npower Limited,01/04/2015,31/03/2018,1,,,114249,,,,,,Flexible Contract,Tender Completed,No,Yes,02462858_2015_2018
Elec,39928,Npower Limited,01/04/2015,31/03/2018,1,,,100185,,,,,,Flexible Contract,Tender Completed,No,Yes,02462858_2015_2018
Elec,39929,Npower Limited,01/04/2015,31/03/2018,1,,,132854,,,,,,Flexible Contract,Tender Completed,No,Yes,02462858_2015_2018
Elec,39930,Npower Limited,01/04/2015,31/03/2018,1,,,124237,,,,,,Flexible Contract,Tender Completed,No,Yes,02462858_2015_2018
Elec,39931,Npower Limited,01/04/2015,31/03/2018,1,,,90600,,,,,,Flexible Contract,Tender Completed,No,Yes,02462858_2015_2018
Elec,39932,Npower Limited,01/04/2015,31/03/2018,1,,,191083,,,,,,Flexible Contract,Tender Completed,No,Yes,02462858_2015_2018
Elec,39933,Npower Limited,01/04/2015,31/03/2018,1,,,86423,,,,,,Flexible Contract,Tender Completed,No,Yes,02462858_2015_2018
Elec,39934,Npower Limited,01/04/2015,31/03/2018,1,,,160078,,,,,,Flexible Contract,Tender Completed,No,Yes,02462858_2015_2018
Elec,39935,Npower Limited,01/04/2015,31/03/2018,1,,,111528,,,,,,Flexible Contract,Tender Completed,No,Yes,02462858_2015_2018
Elec,39936,Npower Limited,01/04/2015,31/03/2018,1,,,102187,,,,,,Flexible Contract,Tender Completed,No,Yes,02462858_2015_2018
Elec,39937,Npower Limited,01/04/2015,31/03/2018,1,,,90046,,,,,,Flexible Contract,Tender Completed,No,Yes,02462858_2015_2018
Elec,39938,Npower Limited,01/04/2015,31/03/2018,1,,,688297,,,,,,Flexible Contract,Tender Completed,No,Yes,02462858_2015_2018
Elec,39939,Npower Limited,01/04/2015,31/03/2018,1,,,127528,,,,,,Flexible Contract,Tender Completed,No,Yes,02462858_2015_2018
Elec,39940,Npower Limited,01/04/2015,31/03/2018,1,,,196155,,,,,,Flexible Contract,Tender Completed,No,Yes,02462858_2015_2018
Elec,39941,Npower Limited,01/04/2015,31/03/2018,1,,,86724,,,,,,Flexible Contract,Tender Completed,No,Yes,02462858_2015_2018
Elec,39942,Npower Limited,01/04/2015,31/03/2018,1,,,169128,,,,,,Flexible Contract,Tender Completed,No,Yes,02462858_2015_2018
Elec,39943,Npower Limited,01/04/2015,31/03/2018,1,,,132099,,,,,,Flexible Contract,Tender Completed,No,Yes,02462858_2015_2018
Elec,39944,Npower Limited,01/04/2015,31/03/2018,1,,,76907,,,,,,Flexible Contract,Tender Completed,No,Yes,02462858_2015_2018
Elec,39945,Npower Limited,01/04/2015,31/03/2018,1,,,154836,,,,,,Flexible Contract,Tender Completed,No,Yes,02462858_2015_2018
Elec,39946,Npower Limited,01/04/2015,31/03/2018,1,,,117037,,,,,,Flexible Contract,Tender Completed,No,Yes,02462858_2015_2018
Elec,39947,Npower Limited,01/04/2015,31/03/2018,1,,,127139,,,,,,Flexible Contract,Tender Completed,No,Yes,02462858_2015_2018
Elec,39948,Npower Limited,01/04/2015,31/03/2018,1,,,108798,,,,,,Flexible Contract,Tender Completed,No,Yes,02462858_2015_2018
Elec,39949,Npower Limited,01/04/2015,31/03/2018,1,,,123599,,,,,,Flexible Contract,Tender Completed,No,Yes,02462858_2015_2018
Elec,39950,Npower Limited,01/04/2015,31/03/2018,1,,,117388,,,,,,Flexible Contract,Tender Completed,No,Yes,02462858_2015_2018
Elec,39951,Npower Limited,01/04/2015,31/03/2018,1,,,134609,,,,,,Flexible Contract,Tender Completed,No,Yes,02462858_2015_2018
Elec,39952,Npower Limited,01/04/2015,31/03/2018,1,,,146427,,,,,,Flexible Contract,Tender Completed,No,Yes,02462858_2015_2018
Elec,39953,Npower Limited,01/04/2015,31/03/2018,1,,,73840,,,,,,Flexible Contract,Tender Completed,No,Yes,02462858_2015_2018
Elec,39954,Npower Limited,01/04/2015,31/03/2018,1,,,143284,,,,,,Flexible Contract,Tender Completed,No,Yes,02462858_2015_2018
Elec,39955,Npower Limited,01/04/2015,31/03/2018,1,,,132226,,,,,,Flexible Contract,Tender Completed,No,Yes,02462858_2015_2018
Elec,39956,Npower Limited,01/04/2015,31/03/2018,1,,,126550,,,,,,Flexible Contract,Tender Completed,No,Yes,02462858_2015_2018
Elec,39957,Npower Limited,01/04/2015,31/03/2018,1,,,118243,,,,,,Flexible Contract,Tender Completed,No,Yes,02462858_2015_2018
Elec,39958,Npower Limited,01/04/2015,31/03/2018,1,,,152445,,,,,,Flexible Contract,Tender Completed,No,Yes,02462858_2015_2018
Elec,39959,Npower Limited,01/04/2015,31/03/2018,1,,,120119,,,,,,Flexible Contract,Tender Completed,No,Yes,02462858_2015_2018
Elec,39960,Npower Limited,01/04/2015,31/03/2018,1,,,119051,,,,,,Flexible Contract,Tender Completed,No,Yes,02462858_2015_2018
Elec,39961,Npower Limited,01/04/2015,31/03/2018,1,,,121198,,,,,,Flexible Contract,Tender Completed,No,Yes,02462858_2015_2018
Elec,39962,Npower Limited,01/04/2015,31/03/2018,1,,,125001,,,,,,Flexible Contract,Tender Completed,No,Yes,02462858_2015_2018
Elec,39963,Npower Limited,01/04/2015,31/03/2018,1,,,211170,,,,,,Flexible Contract,Tender Completed,No,Yes,02462858_2015_2018
Elec,39964,Npower Limited,01/04/2015,31/03/2018,1,,,167866,,,,,,Flexible Contract,Tender Completed,No,Yes,02462858_2015_2018
Elec,39965,Npower Limited,01/04/2015,31/03/2018,1,,,1470746,,,,,,Flexible Contract,Tender Completed,No,Yes,02462858_2015_2018
Elec,39966,Npower Limited,01/04/2015,31/03/2018,1,,,159023,,,,,,Flexible Contract,Tender Completed,No,Yes,02462858_2015_2018
Elec,39967,Npower Limited,01/04/2015,31/03/2018,1,,,119046,,,,,,Flexible Contract,Tender Completed,No,Yes,02462858_2015_2018
Elec,39968,Npower Limited,01/04/2015,31/03/2018,1,,,203046,,,,,,Flexible Contract,Tender Completed,No,Yes,02462858_2015_2018
Elec,39970,Npower Limited,01/04/2015,31/03/2018,1,,,7947,,,,,,Flexible Contract,Tender Completed,No,Yes,02462858_2015_2018
Elec,39971,Npower Limited,01/04/2015,31/03/2018,1,,,130678,,,,,,Flexible Contract,Tender Completed,No,Yes,02462858_2015_2018
Elec,39972,Npower Limited,01/04/2015,31/03/2018,1,,,122559,,,,,,Flexible Contract,Tender Completed,No,Yes,02462858_2015_2018
Elec,39973,Npower Limited,01/04/2015,31/03/2018,1,,,131135,,,,,,Flexible Contract,Tender Completed,No,Yes,02462858_2015_2018
Elec,39974,Npower Limited,01/04/2015,31/03/2018,1,,,224458,,,,,,Flexible Contract,Tender Completed,No,Yes,02462858_2015_2018
Elec,39976,Npower Limited,01/04/2015,31/03/2018,1,,,176049,,,,,,Flexible Contract,Tender Completed,No,Yes,02462858_2015_2018
Elec,39977,Npower Limited,01/04/2015,31/03/2018,1,,,119355,,,,,,Flexible Contract,Tender Completed,No,Yes,02462858_2015_2018
Elec,39978,Npower Limited,01/04/2015,31/03/2018,1,,,104987,,,,,,Flexible Contract,Tender Completed,No,Yes,02462858_2015_2018
Elec,39979,Npower Limited,01/04/2015,31/03/2018,1,,,105906,,,,,,Flexible Contract,Tender Completed,No,Yes,02462858_2015_2018
Elec,39980,Npower Limited,01/04/2015,31/03/2018,1,,,20448,,,,,,Flexible Contract,Tender Completed,No,Yes,02462858_2015_2018
Elec,39981,Npower Limited,01/04/2015,31/03/2018,1,,,135239,,,,,,Flexible Contract,Tender Completed,No,Yes,02462858_2015_2018
Elec,39982,Npower Limited,01/04/2015,31/03/2018,1,,,143086,,,,,,Flexible Contract,Tender Completed,No,Yes,02462858_2015_2018
Elec,39983,Npower Limited,01/04/2015,31/03/2018,1,,,163327,,,,,,Flexible Contract,Tender Completed,No,Yes,02462858_2015_2018
Elec,39984,Npower Limited,01/04/2015,31/03/2018,1,,,219272,,,,,,Flexible Contract,Tender Completed,No,Yes,02462858_2015_2018
Elec,39985,Npower Limited,01/04/2015,31/03/2018,1,,,151475,,,,,,Flexible Contract,Tender Completed,No,Yes,02462858_2015_2018
Elec,39986,Npower Limited,01/04/2015,31/03/2018,1,,,86138,,,,,,Flexible Contract,Tender Completed,No,Yes,02462858_2015_2018
Elec,39987,Npower Limited,01/04/2015,31/03/2018,1,,,119879,,,,,,Flexible Contract,Tender Completed,No,Yes,02462858_2015_2018
Elec,39988,Npower Limited,01/04/2015,31/03/2018,1,,,135610,,,,,,Flexible Contract,Tender Completed,No,Yes,02462858_2015_2018
Elec,39989,Npower Limited,01/04/2015,31/03/2018,1,,,149859,,,,,,Flexible Contract,Tender Completed,No,Yes,02462858_2015_2018
Elec,39990,Npower Limited,01/04/2015,31/03/2018,1,,,65918,,,,,,Flexible Contract,Tender Completed,No,Yes,02462858_2015_2018
Elec,39991,Npower Limited,01/04/2015,31/03/2018,1,,,8477,,,,,,Flexible Contract,Tender Completed,No,Yes,02462858_2015_2018
Elec,39992,Npower Limited,01/04/2015,31/03/2018,1,,,197811,,,,,,Flexible Contract,Tender Completed,No,Yes,02462858_2015_2018
Elec,39994,Npower Limited,01/04/2015,31/03/2018,1,,,76235,,,,,,Flexible Contract,Tender Completed,No,Yes,02462858_2015_2018
Elec,39995,Npower Limited,01/04/2015,31/03/2018,1,,,145947,,,,,,Flexible Contract,Tender Completed,No,Yes,02462858_2015_2018
Elec,39996,Npower Limited,01/04/2015,31/03/2018,1,,,4713,,,,,,Flexible Contract,Tender Completed,No,Yes,02462858_2015_2018
Elec,39997,Npower Limited,01/04/2015,31/03/2018,1,,,247172,,,,,,Flexible Contract,Tender Completed,No,Yes,02462858_2015_2018
Elec,39998,Npower Limited,01/04/2015,31/03/2018,1,,,179884,,,,,,Flexible Contract,Tender Completed,No,Yes,02462858_2015_2018
Elec,39999,Npower Limited,01/04/2015,31/03/2018,1,,,130582,,,,,,Flexible Contract,Tender Completed,No,Yes,02462858_2015_2018
Elec,40000,Npower Limited,01/04/2015,31/03/2018,1,,,20799,,,,,,Flexible Contract,Tender Completed,No,Yes,02462858_2015_2018
Elec,40001,Npower Limited,01/04/2015,31/03/2018,1,,,11445,,,,,,Flexible Contract,Tender Completed,No,Yes,02462858_2015_2018
Elec,40002,Npower Limited,01/04/2015,31/03/2018,1,,,50646,,,,,,Flexible Contract,Tender Completed,No,Yes,02462858_2015_2018
Elec,40003,Npower Limited,01/04/2015,31/03/2018,1,,,125829,,,,,,Flexible Contract,Tender Completed,No,Yes,02462858_2015_2018
Elec,40004,Npower Limited,01/04/2015,31/03/2018,1,,,104077,,,,,,Flexible Contract,Tender Completed,No,Yes,02462858_2015_2018
Elec,40005,Npower Limited,01/04/2015,31/03/2018,1,,,215256,,,,,,Flexible Contract,Tender Completed,No,Yes,02462858_2015_2018
Elec,40006,Npower Limited,01/04/2015,31/03/2018,1,,,10083,,,,,,Flexible Contract,Tender Completed,No,Yes,02462858_2015_2018
Elec,40007,Npower Limited,01/04/2015,31/03/2018,1,,,123455,,,,,,Flexible Contract,Tender Completed,No,Yes,02462858_2015_2018
Elec,40008,Npower Limited,01/04/2015,31/03/2018,1,,,173010,,,,,,Flexible Contract,Tender Completed,No,Yes,02462858_2015_2018
Elec,40009,Npower Limited,01/04/2015,31/03/2018,1,,,2329,,,,,,Flexible Contract,Tender Completed,No,Yes,02462858_2015_2018
Elec,40010,Npower Limited,01/04/2015,31/03/2018,1,,,110215,,,,,,Flexible Contract,Tender Completed,No,Yes,02462858_2015_2018
Elec,40011,Npower Limited,01/04/2015,31/03/2018,1,,,1399,,,,,,Flexible Contract,Tender Completed,No,Yes,02462858_2015_2018
Elec,40012,Npower Limited,01/04/2015,31/03/2018,1,,,137175,,,,,,Flexible Contract,Tender Completed,No,Yes,02462858_2015_2018
Elec,40013,Npower Limited,01/04/2015,31/03/2018,1,,,134758,,,,,,Flexible Contract,Tender Completed,No,Yes,02462858_2015_2018
Elec,40014,Npower Limited,01/04/2015,31/03/2018,1,,,197183,,,,,,Flexible Contract,Tender Completed,No,Yes,02462858_2015_2018
Elec,40015,Npower Limited,01/04/2015,31/03/2018,1,,,174121,,,,,,Flexible Contract,Tender Completed,No,Yes,02462858_2015_2018
Elec,40016,Npower Limited,01/04/2015,31/03/2018,1,,,133162,,,,,,Flexible Contract,Tender Completed,No,Yes,02462858_2015_2018
Elec,40017,Npower Limited,01/04/2015,31/03/2018,1,,,135401,,,,,,Flexible Contract,Tender Completed,No,Yes,02462858_2015_2018
Elec,40018,Npower Limited,01/04/2015,31/03/2018,1,,,181291,,,,,,Flexible Contract,Tender Completed,No,Yes,02462858_2015_2018
Elec,40019,Npower Limited,01/04/2015,31/03/2018,1,,,157611,,,,,,Flexible Contract,Tender Completed,No,Yes,02462858_2015_2018
Elec,40020,Npower Limited,01/04/2015,31/03/2018,1,,,116288,,,,,,Flexible Contract,Tender Completed,No,Yes,02462858_2015_2018
Elec,40021,Npower Limited,01/04/2015,31/03/2018,1,,,147230,,,,,,Flexible Contract,Tender Completed,No,Yes,02462858_2015_2018
Elec,40022,Npower Limited,01/04/2015,31/03/2018,1,,,109970,,,,,,Flexible Contract,Tender Completed,No,Yes,02462858_2015_2018
Elec,40023,Npower Limited,01/04/2015,31/03/2018,1,,,156034,,,,,,Flexible Contract,Tender Completed,No,Yes,02462858_2015_2018
Elec,40024,Npower Limited,01/04/2015,31/03/2018,1,,,249952,,,,,,Flexible Contract,Tender Completed,No,Yes,02462858_2015_2018
Elec,40025,Npower Limited,01/04/2015,31/03/2018,1,,,129780,,,,,,Flexible Contract,Tender Completed,No,Yes,02462858_2015_2018
Elec,40026,Npower Limited,01/04/2015,31/03/2018,1,,,149468,,,,,,Flexible Contract,Tender Completed,No,Yes,02462858_2015_2018
Elec,40027,Npower Limited,01/04/2015,31/03/2018,1,,,135204,,,,,,Flexible Contract,Tender Completed,No,Yes,02462858_2015_2018
Elec,40028,Npower Limited,01/04/2015,31/03/2018,1,,,1426216,,,,,,Flexible Contract,Tender Completed,No,Yes,02462858_2015_2018
Elec,40029,Npower Limited,01/04/2015,31/03/2018,1,,,111821,,,,,,Flexible Contract,Tender Completed,No,Yes,02462858_2015_2018
Elec,40031,Npower Limited,01/04/2015,31/03/2018,1,,,113456,,,,,,Flexible Contract,Tender Completed,No,Yes,02462858_2015_2018
Elec,40032,Npower Limited,01/04/2015,31/03/2018,1,,,130613,,,,,,Flexible Contract,Tender Completed,No,Yes,02462858_2015_2018
Elec,40033,Npower Limited,01/04/2015,31/03/2018,1,,,152317,,,,,,Flexible Contract,Tender Completed,No,Yes,02462858_2015_2018
Elec,40034,Npower Limited,01/04/2015,31/03/2018,1,,,150095,,,,,,Flexible Contract,Tender Completed,No,Yes,02462858_2015_2018
Elec,40035,Npower Limited,01/04/2015,31/03/2018,1,,,105938,,,,,,Flexible Contract,Tender Completed,No,Yes,02462858_2015_2018
Elec,40036,Npower Limited,01/04/2015,31/03/2018,1,,,109934,,,,,,Flexible Contract,Tender Completed,No,Yes,02462858_2015_2018
Elec,40038,Npower Limited,01/04/2015,31/03/2018,1,,,179030,,,,,,Flexible Contract,Tender Completed,No,Yes,02462858_2015_2018
Elec,40039,Npower Limited,01/04/2015,31/03/2018,1,,,126051,,,,,,Flexible Contract,Tender Completed,No,Yes,02462858_2015_2018
Elec,40040,Npower Limited,01/04/2015,31/03/2018,1,,,178128,,,,,,Flexible Contract,Tender Completed,No,Yes,02462858_2015_2018
Elec,40041,Npower Limited,01/04/2015,31/03/2018,1,,,136903,,,,,,Flexible Contract,Tender Completed,No,Yes,02462858_2015_2018
Elec,40042,Npower Limited,01/04/2015,31/03/2018,1,,,114939,,,,,,Flexible Contract,Tender Completed,No,Yes,02462858_2015_2018
Elec,40043,Npower Limited,01/04/2015,31/03/2018,1,,,128229,,,,,,Flexible Contract,Tender Completed,No,Yes,02462858_2015_2018
Elec,40044,Npower Limited,01/04/2015,31/03/2018,1,,,49280,,,,,,Flexible Contract,Tender Completed,No,Yes,02462858_2015_2018
Elec,40045,Npower Limited,01/04/2015,31/03/2018,1,,,178128,,,,,,Flexible Contract,Tender Completed,No,Yes,02462858_2015_2018
Elec,40046,Npower Limited,01/04/2015,31/03/2018,1,,,178128,,,,,,Flexible Contract,Tender Completed,No,Yes,02462858_2015_2018
Elec,40047,Npower Limited,01/04/2015,31/03/2018,1,,,141925,,,,,,Flexible Contract,Tender Completed,No,Yes,02462858_2015_2018
Elec,40048,Npower Limited,01/04/2015,31/03/2018,1,,,127479,,,,,,Flexible Contract,Tender Completed,No,Yes,02462858_2015_2018
Elec,40049,Npower Limited,01/04/2015,31/03/2018,1,,,178128,,,,,,Flexible Contract,Tender Completed,No,Yes,02462858_2015_2018
Elec,40050,Npower Limited,01/04/2015,31/03/2018,1,,,160439,,,,,,Flexible Contract,Tender Completed,No,Yes,02462858_2015_2018
Elec,40051,Npower Limited,01/04/2015,31/03/2018,1,,,92091,,,,,,Flexible Contract,Tender Completed,No,Yes,02462858_2015_2018
Elec,40053,Npower Limited,01/04/2015,31/03/2018,1,,,158866,,,,,,Flexible Contract,Tender Completed,No,Yes,02462858_2015_2018
Elec,40054,Npower Limited,01/04/2015,31/03/2018,1,,,170355,,,,,,Flexible Contract,Tender Completed,No,Yes,02462858_2015_2018
Elec,40055,Npower Limited,01/04/2015,31/03/2018,1,,,126737,,,,,,Flexible Contract,Tender Completed,No,Yes,02462858_2015_2018
Elec,40056,Npower Limited,01/04/2015,31/03/2018,1,,,148546,,,,,,Flexible Contract,Tender Completed,No,Yes,02462858_2015_2018
Elec,40057,Npower Limited,01/04/2015,31/03/2018,1,,,166444,,,,,,Flexible Contract,Tender Completed,No,Yes,02462858_2015_2018
Elec,40058,Npower Limited,01/04/2015,31/03/2018,1,,,108419,,,,,,Flexible Contract,Tender Completed,No,Yes,02462858_2015_2018
Elec,40059,Npower Limited,01/04/2015,31/03/2018,1,,,107242,,,,,,Flexible Contract,Tender Completed,No,Yes,02462858_2015_2018
Elec,40060,Npower Limited,01/04/2015,31/03/2018,1,,,162314,,,,,,Flexible Contract,Tender Completed,No,Yes,02462858_2015_2018
Elec,40061,Npower Limited,01/04/2015,31/03/2018,1,,,120212,,,,,,Flexible Contract,Tender Completed,No,Yes,02462858_2015_2018
Elec,40062,Npower Limited,01/04/2015,31/03/2018,1,,,144549,,,,,,Flexible Contract,Tender Completed,No,Yes,02462858_2015_2018
Elec,40063,Npower Limited,01/04/2015,31/03/2018,1,,,105264,,,,,,Flexible Contract,Tender Completed,No,Yes,02462858_2015_2018
Elec,40064,Npower Limited,01/04/2015,31/03/2018,1,,,12885,,,,,,Flexible Contract,Tender Completed,No,Yes,02462858_2015_2018
Elec,40065,Npower Limited,01/04/2015,31/03/2018,1,,,99346,,,,,,Flexible Contract,Tender Completed,No,Yes,02462858_2015_2018
Elec,40066,Npower Limited,01/04/2015,31/03/2018,1,,,124173,,,,,,Flexible Contract,Tender Completed,No,Yes,02462858_2015_2018
Elec,40067,Npower Limited,01/04/2015,31/03/2018,1,,,139085,,,,,,Flexible Contract,Tender Completed,No,Yes,02462858_2015_2018
Elec,40068,Npower Limited,01/04/2015,31/03/2018,1,,,137784,,,,,,Flexible Contract,Tender Completed,No,Yes,02462858_2015_2018
Elec,40069,Npower Limited,01/04/2015,31/03/2018,1,,,2834,,,,,,Flexible Contract,Tender Completed,No,Yes,02462858_2015_2018
Elec,40071,Npower Limited,01/04/2015,31/03/2018,1,,,20425,,,,,,Flexible Contract,Tender Completed,No,Yes,02462858_2015_2018
Elec,40072,Npower Limited,01/04/2015,31/03/2018,1,,,20425,,,,,,Flexible Contract,Tender Completed,No,Yes,02462858_2015_2018
Elec,40073,Npower Limited,01/04/2015,31/03/2018,1,,,3719,,,,,,Flexible Contract,Tender Completed,No,Yes,02462858_2015_2018
Elec,40074,Npower Limited,01/04/2015,31/03/2018,1,,,528,,,,,,Flexible Contract,Tender Completed,No,Yes,02462858_2015_2018
Elec,40075,Npower Limited,01/04/2015,31/03/2018,1,,,4600,,,,,,Flexible Contract,Tender Completed,No,Yes,02462858_2015_2018
Elec,40076,Npower Limited,01/04/2015,31/03/2018,1,,,11244,,,,,,Flexible Contract,Tender Completed,No,Yes,02462858_2015_2018
Elec,40077,Npower Limited,01/04/2015,31/03/2018,1,,,132965,,,,,,Flexible Contract,Tender Completed,No,Yes,02462858_2015_2018
Elec,40078,Npower Limited,01/04/2015,31/03/2018,1,,,14651,,,,,,Flexible Contract,Tender Completed,No,Yes,02462858_2015_2018
Elec,40079,Npower Limited,01/04/2015,31/03/2018,1,,,161197,,,,,,Flexible Contract,Tender Completed,No,Yes,02462858_2015_2018
Elec,40080,Npower Limited,01/04/2015,31/03/2018,1,,,106524,,,,,,Flexible Contract,Tender Completed,No,Yes,02462858_2015_2018
Elec,40082,Npower Limited,01/04/2015,31/03/2018,1,,,471819,,,,,,Flexible Contract,Tender Completed,No,Yes,02462858_2015_2018
Elec,40083,Npower Limited,01/04/2015,31/03/2018,1,,,13706,,,,,,Flexible Contract,Tender Completed,No,Yes,02462858_2015_2018
Elec,40084,Npower Limited,01/04/2015,31/03/2018,1,,,23429,,,,,,Flexible Contract,Tender Completed,No,Yes,02462858_2015_2018
Elec,40085,Npower Limited,01/04/2015,31/03/2018,1,,,178128,,,,,,Flexible Contract,Tender Completed,No,Yes,02462858_2015_2018
Elec,40086,Npower Limited,01/04/2015,31/03/2018,1,,,130351,,,,,,Flexible Contract,Tender Completed,No,Yes,02462858_2015_2018
Elec,40087,Npower Limited,01/04/2015,31/03/2018,1,,,25995,,,,,,Flexible Contract,Tender Completed,No,Yes,02462858_2015_2018
Elec,40088,Npower Limited,01/04/2015,31/03/2018,1,,,20425,,,,,,Flexible Contract,Tender Completed,No,Yes,02462858_2015_2018
Elec,40089,Npower Limited,01/04/2015,31/03/2018,1,,,171338,,,,,,Flexible Contract,Tender Completed,No,Yes,02462858_2015_2018
Elec,40090,Npower Limited,01/04/2015,31/03/2018,1,,,57224,,,,,,Flexible Contract,Tender Completed,No,Yes,02462858_2015_2018
Elec,40091,Npower Limited,01/04/2015,31/03/2018,1,,,221931,,,,,,Flexible Contract,Tender Completed,No,Yes,02462858_2015_2018
Elec,40092,Npower Limited,01/04/2015,31/03/2018,1,,,20425,,,,,,Flexible Contract,Tender Completed,No,Yes,02462858_2015_2018
Elec,40093,Npower Limited,01/04/2015,31/03/2018,1,,,163708,,,,,,Flexible Contract,Tender Completed,No,Yes,02462858_2015_2018
Elec,40094,Npower Limited,01/04/2015,31/03/2018,1,,,175263,,,,,,Flexible Contract,Tender Completed,No,Yes,02462858_2015_2018
Elec,40095,Npower Limited,01/04/2015,31/03/2018,1,,,3886,,,,,,Flexible Contract,Tender Completed,No,Yes,02462858_2015_2018
Elec,40096,Npower Limited,01/04/2015,31/03/2018,1,,,110129,,,,,,Flexible Contract,Tender Completed,No,Yes,02462858_2015_2018
Elec,40097,Npower Limited,01/04/2015,31/03/2018,1,,,132912,,,,,,Flexible Contract,Tender Completed,No,Yes,02462858_2015_2018
Elec,40098,Npower Limited,01/04/2015,31/03/2018,1,,,102572,,,,,,Flexible Contract,Tender Completed,No,Yes,02462858_2015_2018
Elec,40099,Npower Limited,01/04/2015,31/03/2018,1,,,99383,,,,,,Flexible Contract,Tender Completed,No,Yes,02462858_2015_2018
Elec,40100,Npower Limited,01/04/2015,31/03/2018,1,,,22021,,,,,,Flexible Contract,Tender Completed,No,Yes,02462858_2015_2018
Elec,40101,Npower Limited,01/04/2015,31/03/2018,1,,,149367,,,,,,Flexible Contract,Tender Completed,No,Yes,02462858_2015_2018
Elec,40102,Npower Limited,01/04/2015,31/03/2018,1,,,129152,,,,,,Flexible Contract,Tender Completed,No,Yes,02462858_2015_2018
Elec,40103,Npower Limited,01/04/2015,31/03/2018,1,,,180445,,,,,,Flexible Contract,Tender Completed,No,Yes,02462858_2015_2018
Elec,40104,Npower Limited,01/04/2015,31/03/2018,1,,,120668,,,,,,Flexible Contract,Tender Completed,No,Yes,02462858_2015_2018
Elec,40105,Npower Limited,01/04/2015,31/03/2018,1,,,173195,,,,,,Flexible Contract,Tender Completed,No,Yes,02462858_2015_2018
Elec,40106,Npower Limited,01/04/2015,31/03/2018,1,,,139469,,,,,,Flexible Contract,Tender Completed,No,Yes,02462858_2015_2018
Elec,40107,Npower Limited,01/04/2015,31/03/2018,1,,,117798,,,,,,Flexible Contract,Tender Completed,No,Yes,02462858_2015_2018
Elec,40108,Npower Limited,01/04/2015,31/03/2018,1,,,175891,,,,,,Flexible Contract,Tender Completed,No,Yes,02462858_2015_2018
Elec,40109,Npower Limited,01/04/2015,31/03/2018,1,,,33633,,,,,,Flexible Contract,Tender Completed,No,Yes,02462858_2015_2018
Elec,40110,Npower Limited,01/04/2015,31/03/2018,1,,,124191,,,,,,Flexible Contract,Tender Completed,No,Yes,02462858_2015_2018
Elec,40111,Npower Limited,01/04/2015,31/03/2018,1,,,123744,,,,,,Flexible Contract,Tender Completed,No,Yes,02462858_2015_2018
Elec,40112,Npower Limited,01/04/2015,31/03/2018,1,,,177335,,,,,,Flexible Contract,Tender Completed,No,Yes,02462858_2015_2018
Elec,40113,Npower Limited,01/04/2015,31/03/2018,1,,,143645,,,,,,Flexible Contract,Tender Completed,No,Yes,02462858_2015_2018
Elec,40114,Npower Limited,01/04/2015,31/03/2018,1,,,146434,,,,,,Flexible Contract,Tender Completed,No,Yes,02462858_2015_2018
Elec,40115,Npower Limited,01/04/2015,31/03/2018,1,,,152701,,,,,,Flexible Contract,Tender Completed,No,Yes,02462858_2015_2018
Elec,40116,Npower Limited,01/04/2015,31/03/2018,1,,,167936,,,,,,Flexible Contract,Tender Completed,No,Yes,02462858_2015_2018
Elec,40117,Npower Limited,01/04/2015,31/03/2018,1,,,12760,,,,,,Flexible Contract,Tender Completed,No,Yes,02462858_2015_2018
Elec,40118,Npower Limited,01/04/2015,31/03/2018,1,,,137275,,,,,,Flexible Contract,Tender Completed,No,Yes,02462858_2015_2018
Elec,40119,Npower Limited,01/04/2015,31/03/2018,1,,,7149,,,,,,Flexible Contract,Tender Completed,No,Yes,02462858_2015_2018
Elec,40121,Npower Limited,01/04/2015,31/03/2018,1,,,172695,,,,,,Flexible Contract,Tender Completed,No,Yes,02462858_2015_2018
Elec,40122,Npower Limited,01/04/2015,31/03/2018,1,,,187276,,,,,,Flexible Contract,Tender Completed,No,Yes,02462858_2015_2018
Elec,40123,Npower Limited,01/04/2015,31/03/2018,1,,,137077,,,,,,Flexible Contract,Tender Completed,No,Yes,02462858_2015_2018
Elec,40124,Npower Limited,01/04/2015,31/03/2018,1,,,98540,,,,,,Flexible Contract,Tender Completed,No,Yes,02462858_2015_2018
Elec,40125,Npower Limited,01/04/2015,31/03/2018,1,,,2619,,,,,,Flexible Contract,Tender Completed,No,Yes,02462858_2015_2018
Elec,40126,Npower Limited,01/04/2015,31/03/2018,1,,,136078,,,,,,Flexible Contract,Tender Completed,No,Yes,02462858_2015_2018
Elec,40127,Npower Limited,01/04/2015,31/03/2018,1,,,119660,,,,,,Flexible Contract,Tender Completed,No,Yes,02462858_2015_2018
Elec,40128,Npower Limited,01/04/2015,31/03/2018,1,,,100140,,,,,,Flexible Contract,Tender Completed,No,Yes,02462858_2015_2018
Elec,40129,Npower Limited,01/04/2015,31/03/2018,1,,,124282,,,,,,Flexible Contract,Tender Completed,No,Yes,02462858_2015_2018
Elec,40130,Npower Limited,01/04/2015,31/03/2018,1,,,178190,,,,,,Flexible Contract,Tender Completed,No,Yes,02462858_2015_2018
Elec,40131,Npower Limited,01/04/2015,31/03/2018,1,,,156532,,,,,,Flexible Contract,Tender Completed,No,Yes,02462858_2015_2018
Elec,40132,Npower Limited,01/04/2015,31/03/2018,1,,,107799,,,,,,Flexible Contract,Tender Completed,No,Yes,02462858_2015_2018
Elec,40133,Npower Limited,01/04/2015,31/03/2018,1,,,113655,,,,,,Flexible Contract,Tender Completed,No,Yes,02462858_2015_2018
Elec,40134,Npower Limited,01/04/2015,31/03/2018,1,,,115035,,,,,,Flexible Contract,Tender Completed,No,Yes,02462858_2015_2018
Elec,40135,Npower Limited,01/04/2015,31/03/2018,1,,,139867,,,,,,Flexible Contract,Tender Completed,No,Yes,02462858_2015_2018
Elec,40136,Npower Limited,01/04/2015,31/03/2018,1,,,128026,,,,,,Flexible Contract,Tender Completed,No,Yes,02462858_2015_2018
Elec,40137,Npower Limited,01/04/2015,31/03/2018,1,,,141979,,,,,,Flexible Contract,Tender Completed,No,Yes,02462858_2015_2018
Elec,40138,Npower Limited,01/04/2015,31/03/2018,1,,,165036,,,,,,Flexible Contract,Tender Completed,No,Yes,02462858_2015_2018
Elec,40139,Npower Limited,01/04/2015,31/03/2018,1,,,102533,,,,,,Flexible Contract,Tender Completed,No,Yes,02462858_2015_2018
Elec,40140,Npower Limited,01/04/2015,31/03/2018,1,,,4278,,,,,,Flexible Contract,Tender Completed,No,Yes,02462858_2015_2018
Elec,40141,Npower Limited,01/04/2015,31/03/2018,1,,,138814,,,,,,Flexible Contract,Tender Completed,No,Yes,02462858_2015_2018
Elec,40142,Npower Limited,01/04/2015,31/03/2018,1,,,125214,,,,,,Flexible Contract,Tender Completed,No,Yes,02462858_2015_2018
Elec,40143,Npower Limited,01/04/2015,31/03/2018,1,,,158712,,,,,,Flexible Contract,Tender Completed,No,Yes,02462858_2015_2018
Elec,40144,Npower Limited,01/04/2015,31/03/2018,1,,,148844,,,,,,Flexible Contract,Tender Completed,No,Yes,02462858_2015_2018
Elec,40145,Npower Limited,01/04/2015,31/03/2018,1,,,113766,,,,,,Flexible Contract,Tender Completed,No,Yes,02462858_2015_2018
Elec,40146,Npower Limited,01/04/2015,31/03/2018,1,,,80684,,,,,,Flexible Contract,Tender Completed,No,Yes,02462858_2015_2018
Elec,40147,Npower Limited,01/04/2015,31/03/2018,1,,,120251,,,,,,Flexible Contract,Tender Completed,No,Yes,02462858_2015_2018
Elec,40148,Npower Limited,01/04/2015,31/03/2018,1,,,9140,,,,,,Flexible Contract,Tender Completed,No,Yes,02462858_2015_2018
Elec,40149,Npower Limited,01/04/2015,31/03/2018,1,,,98380,,,,,,Flexible Contract,Tender Completed,No,Yes,02462858_2015_2018
Elec,40150,Npower Limited,01/04/2015,31/03/2018,1,,,122110,,,,,,Flexible Contract,Tender Completed,No,Yes,02462858_2015_2018
Elec,40151,Npower Limited,01/04/2015,31/03/2018,1,,,153446,,,,,,Flexible Contract,Tender Completed,No,Yes,02462858_2015_2018
Elec,40152,Npower Limited,01/04/2015,31/03/2018,1,,,117258,,,,,,Flexible Contract,Tender Completed,No,Yes,02462858_2015_2018
Elec,40153,Npower Limited,01/04/2015,31/03/2018,1,,,836,,,,,,Flexible Contract,Tender Completed,No,Yes,02462858_2015_2018
Elec,40154,Npower Limited,01/04/2015,31/03/2018,1,,,540,,,,,,Flexible Contract,Tender Completed,No,Yes,02462858_2015_2018
Elec,40155,Npower Limited,01/04/2015,31/03/2018,1,,,153819,,,,,,Flexible Contract,Tender Completed,No,Yes,02462858_2015_2018
Elec,40156,Npower Limited,01/04/2015,31/03/2018,1,,,178403,,,,,,Flexible Contract,Tender Completed,No,Yes,02462858_2015_2018
Elec,40158,Npower Limited,01/04/2015,31/03/2018,1,,,161343,,,,,,Flexible Contract,Tender Completed,No,Yes,02462858_2015_2018
Elec,40159,Npower Limited,01/04/2015,31/03/2018,1,,,151009,,,,,,Flexible Contract,Tender Completed,No,Yes,02462858_2015_2018
Elec,40161,Npower Limited,01/04/2015,31/03/2018,1,,,43551,,,,,,Flexible Contract,Tender Completed,No,Yes,02462858_2015_2018
Elec,40162,Npower Limited,01/04/2015,31/03/2018,1,,,133472,,,,,,Flexible Contract,Tender Completed,No,Yes,02462858_2015_2018
Elec,40163,Npower Limited,01/04/2015,31/03/2018,1,,,54,,,,,,Flexible Contract,Tender Completed,No,Yes,02462858_2015_2018
Elec,40165,Npower Limited,01/04/2015,31/03/2018,1,,,116687,,,,,,Flexible Contract,Tender Completed,No,Yes,02462858_2015_2018
Elec,40166,Npower Limited,01/04/2015,31/03/2018,1,,,137242,,,,,,Flexible Contract,Tender Completed,No,Yes,02462858_2015_2018
Elec,40167,Npower Limited,01/04/2015,31/03/2018,1,,,101679,,,,,,Flexible Contract,Tender Completed,No,Yes,02462858_2015_2018
Elec,40168,Npower Limited,01/04/2015,31/03/2018,1,,,4829,,,,,,Flexible Contract,Tender Completed,No,Yes,02462858_2015_2018
Elec,40170,Npower Limited,01/04/2015,31/03/2018,1,,,168094,,,,,,Flexible Contract,Tender Completed,No,Yes,02462858_2015_2018
Elec,40172,Npower Limited,01/04/2015,31/03/2018,1,,,115381,,,,,,Flexible Contract,Tender Completed,No,Yes,02462858_2015_2018
Elec,40173,Npower Limited,01/04/2015,31/03/2018,1,,,153701,,,,,,Flexible Contract,Tender Completed,No,Yes,02462858_2015_2018
Elec,40175,Npower Limited,01/04/2015,31/03/2018,1,,,2366,,,,,,Flexible Contract,Tender Completed,No,Yes,02462858_2015_2018
Elec,40176,Npower Limited,01/04/2015,31/03/2018,1,,,105473,,,,,,Flexible Contract,Tender Completed,No,Yes,02462858_2015_2018
Elec,40177,Npower Limited,01/04/2015,31/03/2018,1,,,151695,,,,,,Flexible Contract,Tender Completed,No,Yes,02462858_2015_2018
Elec,40178,Npower Limited,01/04/2015,31/03/2018,1,,,21217,,,,,,Flexible Contract,Tender Completed,No,Yes,02462858_2015_2018
Elec,40179,Npower Limited,01/04/2015,31/03/2018,1,,,149016,,,,,,Flexible Contract,Tender Completed,No,Yes,02462858_2015_2018
Elec,40180,Npower Limited,01/04/2015,31/03/2018,1,,,9821,,,,,,Flexible Contract,Tender Completed,No,Yes,02462858_2015_2018
Elec,40181,Npower Limited,01/04/2015,31/03/2018,1,,,129672,,,,,,Flexible Contract,Tender Completed,No,Yes,02462858_2015_2018
Elec,40182,Npower Limited,01/04/2015,31/03/2018,1,,,121827,,,,,,Flexible Contract,Tender Completed,No,Yes,02462858_2015_2018
Elec,40183,Npower Limited,01/04/2015,31/03/2018,1,,,110894,,,,,,Flexible Contract,Tender Completed,No,Yes,02462858_2015_2018
Elec,40185,Npower Limited,01/04/2015,31/03/2018,1,,,1437,,,,,,Flexible Contract,Tender Completed,No,Yes,02462858_2015_2018
Elec,40188,Npower Limited,01/04/2015,31/03/2018,1,,,160331,,,,,,Flexible Contract,Tender Completed,No,Yes,02462858_2015_2018
Elec,40189,Npower Limited,01/04/2015,31/03/2018,1,,,145663,,,,,,Flexible Contract,Tender Completed,No,Yes,02462858_2015_2018
Elec,40190,Npower Limited,01/04/2015,31/03/2018,1,,,60342,,,,,,Flexible Contract,Tender Completed,No,Yes,02462858_2015_2018
Elec,40191,Npower Limited,01/04/2015,31/03/2018,1,,,151533,,,,,,Flexible Contract,Tender Completed,No,Yes,02462858_2015_2018
Elec,40192,Npower Limited,01/04/2015,31/03/2018,1,,,142572,,,,,,Flexible Contract,Tender Completed,No,Yes,02462858_2015_2018
Elec,40193,Npower Limited,01/04/2015,31/03/2018,1,,,137016,,,,,,Flexible Contract,Tender Completed,No,Yes,02462858_2015_2018
Elec,40194,Npower Limited,01/04/2015,31/03/2018,1,,,150515,,,,,,Flexible Contract,Tender Completed,No,Yes,02462858_2015_2018
Elec,40195,Npower Limited,01/04/2015,31/03/2018,1,,,68379,,,,,,Flexible Contract,Tender Completed,No,Yes,02462858_2015_2018
Elec,40196,Npower Limited,01/04/2015,31/03/2018,1,,,137698,,,,,,Flexible Contract,Tender Completed,No,Yes,02462858_2015_2018
Elec,40199,Npower Limited,01/04/2015,31/03/2018,1,,,120904,,,,,,Flexible Contract,Tender Completed,No,Yes,02462858_2015_2018
Elec,40202,Npower Limited,01/04/2015,31/03/2018,1,,,174425,,,,,,Flexible Contract,Tender Completed,No,Yes,02462858_2015_2018
Elec,40203,Npower Limited,01/04/2015,31/03/2018,1,,,132070,,,,,,Flexible Contract,Tender Completed,No,Yes,02462858_2015_2018
Elec,40204,Npower Limited,01/04/2015,31/03/2018,1,,,131084,,,,,,Flexible Contract,Tender Completed,No,Yes,02462858_2015_2018
Elec,40205,Npower Limited,01/04/2015,31/03/2018,1,,,122444,,,,,,Flexible Contract,Tender Completed,No,Yes,02462858_2015_2018
Elec,40206,Npower Limited,01/04/2015,31/03/2018,1,,,145883,,,,,,Flexible Contract,Tender Completed,No,Yes,02462858_2015_2018
Elec,40207,Npower Limited,01/04/2015,31/03/2018,1,,,129460,,,,,,Flexible Contract,Tender Completed,No,Yes,02462858_2015_2018
Elec,40209,Npower Limited,01/04/2015,31/03/2018,1,,,103803,,,,,,Flexible Contract,Tender Completed,No,Yes,02462858_2015_2018
Elec,40210,Npower Limited,01/04/2015,31/03/2018,1,,,170334,,,,,,Flexible Contract,Tender Completed,No,Yes,02462858_2015_2018
Elec,40211,Npower Limited,01/04/2015,31/03/2018,1,,,113095,,,,,,Flexible Contract,Tender Completed,No,Yes,02462858_2015_2018
Elec,40212,Npower Limited,01/04/2015,31/03/2018,1,,,147318,,,,,,Flexible Contract,Tender Completed,No,Yes,02462858_2015_2018
Elec,40213,Npower Limited,01/04/2015,31/03/2018,1,,,153969,,,,,,Flexible Contract,Tender Completed,No,Yes,02462858_2015_2018
Elec,40214,Npower Limited,01/04/2015,31/03/2018,1,,,132193,,,,,,Flexible Contract,Tender Completed,No,Yes,02462858_2015_2018
Elec,40215,Npower Limited,01/04/2015,31/03/2018,1,,,109693,,,,,,Flexible Contract,Tender Completed,No,Yes,02462858_2015_2018
Elec,40216,Npower Limited,01/04/2015,31/03/2018,1,,,128778,,,,,,Flexible Contract,Tender Completed,No,Yes,02462858_2015_2018
Elec,40218,Npower Limited,01/04/2015,31/03/2018,1,,,253191,,,,,,Flexible Contract,Tender Completed,No,Yes,02462858_2015_2018
Elec,40219,Npower Limited,01/04/2015,31/03/2018,1,,,108538,,,,,,Flexible Contract,Tender Completed,No,Yes,02462858_2015_2018
Elec,40220,Npower Limited,01/04/2015,31/03/2018,1,,,129785,,,,,,Flexible Contract,Tender Completed,No,Yes,02462858_2015_2018
Elec,40221,Npower Limited,01/04/2015,31/03/2018,1,,,148175,,,,,,Flexible Contract,Tender Completed,No,Yes,02462858_2015_2018
Elec,40222,Npower Limited,01/04/2015,31/03/2018,1,,,143874,,,,,,Flexible Contract,Tender Completed,No,Yes,02462858_2015_2018
Elec,40223,Npower Limited,01/04/2015,31/03/2018,1,,,162478,,,,,,Flexible Contract,Tender Completed,No,Yes,02462858_2015_2018
Elec,40224,Npower Limited,01/04/2015,31/03/2018,1,,,136021,,,,,,Flexible Contract,Tender Completed,No,Yes,02462858_2015_2018
Elec,40225,Npower Limited,01/04/2015,31/03/2018,1,,,110071,,,,,,Flexible Contract,Tender Completed,No,Yes,02462858_2015_2018
Elec,40226,Npower Limited,01/04/2015,31/03/2018,1,,,136060,,,,,,Flexible Contract,Tender Completed,No,Yes,02462858_2015_2018
Elec,40227,Npower Limited,01/04/2015,31/03/2018,1,,,130665,,,,,,Flexible Contract,Tender Completed,No,Yes,02462858_2015_2018
Elec,40228,Npower Limited,01/04/2015,31/03/2018,1,,,133997,,,,,,Flexible Contract,Tender Completed,No,Yes,02462858_2015_2018
Elec,40229,Npower Limited,01/04/2015,31/03/2018,1,,,163077,,,,,,Flexible Contract,Tender Completed,No,Yes,02462858_2015_2018
Elec,40230,Npower Limited,01/04/2015,31/03/2018,1,,,156926,,,,,,Flexible Contract,Tender Completed,No,Yes,02462858_2015_2018
Elec,40231,Npower Limited,01/04/2015,31/03/2018,1,,,113467,,,,,,Flexible Contract,Tender Completed,No,Yes,02462858_2015_2018
Elec,40232,Npower Limited,01/04/2015,31/03/2018,1,,,130399,,,,,,Flexible Contract,Tender Completed,No,Yes,02462858_2015_2018
Elec,40233,Npower Limited,01/04/2015,31/03/2018,1,,,136745,,,,,,Flexible Contract,Tender Completed,No,Yes,02462858_2015_2018
Elec,40234,Npower Limited,01/04/2015,31/03/2018,1,,,140760,,,,,,Flexible Contract,Tender Completed,No,Yes,02462858_2015_2018
Elec,40235,Npower Limited,01/04/2015,31/03/2018,1,,,143124,,,,,,Flexible Contract,Tender Completed,No,Yes,02462858_2015_2018
Elec,40236,Npower Limited,01/04/2015,31/03/2018,1,,,95076,,,,,,Flexible Contract,Tender Completed,No,Yes,02462858_2015_2018
Elec,40237,Npower Limited,01/04/2015,31/03/2018,1,,,115769,,,,,,Flexible Contract,Tender Completed,No,Yes,02462858_2015_2018
Elec,40238,Npower Limited,01/04/2015,31/03/2018,1,,,175568,,,,,,Flexible Contract,Tender Completed,No,Yes,02462858_2015_2018
Elec,40239,Npower Limited,01/04/2015,31/03/2018,1,,,156557,,,,,,Flexible Contract,Tender Completed,No,Yes,02462858_2015_2018
Elec,40240,Npower Limited,01/04/2015,31/03/2018,1,,,126440,,,,,,Flexible Contract,Tender Completed,No,Yes,02462858_2015_2018
Elec,40241,Npower Limited,01/04/2015,31/03/2018,1,,,163238,,,,,,Flexible Contract,Tender Completed,No,Yes,02462858_2015_2018
Elec,40242,Npower Limited,01/04/2015,31/03/2018,1,,,169195,,,,,,Flexible Contract,Tender Completed,No,Yes,02462858_2015_2018
Elec,40243,Npower Limited,01/04/2015,31/03/2018,1,,,147545,,,,,,Flexible Contract,Tender Completed,No,Yes,02462858_2015_2018
Elec,40244,Npower Limited,01/04/2015,31/03/2018,1,,,134611,,,,,,Flexible Contract,Tender Completed,No,Yes,02462858_2015_2018
Elec,40245,Npower Limited,01/04/2015,31/03/2018,1,,,126892,,,,,,Flexible Contract,Tender Completed,No,Yes,02462858_2015_2018
Elec,40246,Npower Limited,01/04/2015,31/03/2018,1,,,119939,,,,,,Flexible Contract,Tender Completed,No,Yes,02462858_2015_2018
Elec,40247,Npower Limited,01/04/2015,31/03/2018,1,,,124865,,,,,,Flexible Contract,Tender Completed,No,Yes,02462858_2015_2018
Elec,40248,Npower Limited,01/04/2015,31/03/2018,1,,,114498,,,,,,Flexible Contract,Tender Completed,No,Yes,02462858_2015_2018
Elec,40249,Npower Limited,01/04/2015,31/03/2018,1,,,136549,,,,,,Flexible Contract,Tender Completed,No,Yes,02462858_2015_2018
Elec,40250,Npower Limited,01/04/2015,31/03/2018,1,,,127488,,,,,,Flexible Contract,Tender Completed,No,Yes,02462858_2015_2018
Elec,40251,Npower Limited,01/04/2015,31/03/2018,1,,,101848,,,,,,Flexible Contract,Tender Completed,No,Yes,02462858_2015_2018
Elec,40252,Npower Limited,01/04/2015,31/03/2018,1,,,127650,,,,,,Flexible Contract,Tender Completed,No,Yes,02462858_2015_2018
Elec,40253,Npower Limited,01/04/2015,31/03/2018,1,,,136595,,,,,,Flexible Contract,Tender Completed,No,Yes,02462858_2015_2018
Elec,40254,Npower Limited,01/04/2015,31/03/2018,1,,,152937,,,,,,Flexible Contract,Tender Completed,No,Yes,02462858_2015_2018
Elec,40255,Npower Limited,01/04/2015,31/03/2018,1,,,135973,,,,,,Flexible Contract,Tender Completed,No,Yes,02462858_2015_2018
Elec,40256,Npower Limited,01/04/2015,31/03/2018,1,,,122211,,,,,,Flexible Contract,Tender Completed,No,Yes,02462858_2015_2018
Elec,40257,Npower Limited,01/04/2015,31/03/2018,1,,,86643,,,,,,Flexible Contract,Tender Completed,No,Yes,02462858_2015_2018
Elec,40258,Npower Limited,01/04/2015,31/03/2018,1,,,116747,,,,,,Flexible Contract,Tender Completed,No,Yes,02462858_2015_2018
Elec,40261,Npower Limited,01/04/2015,31/03/2018,1,,,124587,,,,,,Flexible Contract,Tender Completed,No,Yes,02462858_2015_2018
Elec,40262,Npower Limited,01/04/2015,31/03/2018,1,,,130595,,,,,,Flexible Contract,Tender Completed,No,Yes,02462858_2015_2018
Elec,40263,Npower Limited,01/04/2015,31/03/2018,1,,,107496,,,,,,Flexible Contract,Tender Completed,No,Yes,02462858_2015_2018
Elec,40264,Npower Limited,01/04/2015,31/03/2018,1,,,162352,,,,,,Flexible Contract,Tender Completed,No,Yes,02462858_2015_2018
Elec,40265,Npower Limited,01/04/2015,31/03/2018,1,,,151274,,,,,,Flexible Contract,Tender Completed,No,Yes,02462858_2015_2018
Elec,40266,Npower Limited,01/04/2015,31/03/2018,1,,,844349,,,,,,Flexible Contract,Tender Completed,No,Yes,02462858_2015_2018
Elec,40267,Npower Limited,01/04/2015,31/03/2018,1,,,141740,,,,,,Flexible Contract,Tender Completed,No,Yes,02462858_2015_2018
Elec,40268,Npower Limited,01/04/2015,31/03/2018,1,,,216516,,,,,,Flexible Contract,Tender Completed,No,Yes,02462858_2015_2018
Elec,40269,Npower Limited,01/04/2015,31/03/2018,1,,,125384,,,,,,Flexible Contract,Tender Completed,No,Yes,02462858_2015_2018
Elec,40270,Npower Limited,01/04/2015,31/03/2018,1,,,93452,,,,,,Flexible Contract,Tender Completed,No,Yes,02462858_2015_2018
Elec,40271,Npower Limited,01/04/2015,31/03/2018,1,,,128878,,,,,,Flexible Contract,Tender Completed,No,Yes,02462858_2015_2018
Elec,40272,Npower Limited,01/04/2015,31/03/2018,1,,,151220,,,,,,Flexible Contract,Tender Completed,No,Yes,02462858_2015_2018
Elec,40273,Npower Limited,01/04/2015,31/03/2018,1,,,151087,,,,,,Flexible Contract,Tender Completed,No,Yes,02462858_2015_2018
Elec,40275,Npower Limited,01/04/2015,31/03/2018,1,,,132167,,,,,,Flexible Contract,Tender Completed,No,Yes,02462858_2015_2018
Elec,40276,Npower Limited,01/04/2015,31/03/2018,1,,,140076,,,,,,Flexible Contract,Tender Completed,No,Yes,02462858_2015_2018
Elec,40278,Npower Limited,01/04/2015,31/03/2018,1,,,135282,,,,,,Flexible Contract,Tender Completed,No,Yes,02462858_2015_2018
Elec,40279,Npower Limited,01/04/2015,31/03/2018,1,,,145247,,,,,,Flexible Contract,Tender Completed,No,Yes,02462858_2015_2018
Elec,40280,Npower Limited,01/04/2015,31/03/2018,1,,,24928,,,,,,Flexible Contract,Tender Completed,No,Yes,02462858_2015_2018
Elec,40281,Npower Limited,01/04/2015,31/03/2018,1,,,3161,,,,,,Flexible Contract,Tender Completed,No,Yes,02462858_2015_2018
Elec,40282,Npower Limited,01/04/2015,31/03/2018,1,,,145689,,,,,,Flexible Contract,Tender Completed,No,Yes,02462858_2015_2018
Elec,40283,Npower Limited,01/04/2015,31/03/2018,1,,,86680,,,,,,Flexible Contract,Tender Completed,No,Yes,02462858_2015_2018
Elec,40284,Npower Limited,01/04/2015,31/03/2018,1,,,150331,,,,,,Flexible Contract,Tender Completed,No,Yes,02462858_2015_2018
Elec,40285,Npower Limited,01/04/2015,31/03/2018,1,,,173757,,,,,,Flexible Contract,Tender Completed,No,Yes,02462858_2015_2018
Elec,40286,Npower Limited,01/04/2015,31/03/2018,1,,,92373,,,,,,Flexible Contract,Tender Completed,No,Yes,02462858_2015_2018
Elec,40287,Npower Limited,01/04/2015,31/03/2018,1,,,120286,,,,,,Flexible Contract,Tender Completed,No,Yes,02462858_2015_2018
Elec,40288,Npower Limited,01/04/2015,31/03/2018,1,,,95720,,,,,,Flexible Contract,Tender Completed,No,Yes,02462858_2015_2018
Elec,40289,Npower Limited,01/04/2015,31/03/2018,1,,,118025,,,,,,Flexible Contract,Tender Completed,No,Yes,02462858_2015_2018
Elec,40290,Npower Limited,01/04/2015,31/03/2018,1,,,145338,,,,,,Flexible Contract,Tender Completed,No,Yes,02462858_2015_2018
Elec,40291,Npower Limited,01/04/2015,31/03/2018,1,,,102203,,,,,,Flexible Contract,Tender Completed,No,Yes,02462858_2015_2018
Elec,40292,Npower Limited,01/04/2015,31/03/2018,1,,,134883,,,,,,Flexible Contract,Tender Completed,No,Yes,02462858_2015_2018
Elec,40293,Npower Limited,01/04/2015,31/03/2018,1,,,134251,,,,,,Flexible Contract,Tender Completed,No,Yes,02462858_2015_2018
Elec,40294,Npower Limited,01/04/2015,31/03/2018,1,,,126525,,,,,,Flexible Contract,Tender Completed,No,Yes,02462858_2015_2018
Elec,40295,Npower Limited,01/04/2015,31/03/2018,1,,,140220,,,,,,Flexible Contract,Tender Completed,No,Yes,02462858_2015_2018
Elec,40296,Npower Limited,01/04/2015,31/03/2018,1,,,13345,,,,,,Flexible Contract,Tender Completed,No,Yes,02462858_2015_2018
Elec,40297,Npower Limited,01/04/2015,31/03/2018,1,,,9944,,,,,,Flexible Contract,Tender Completed,No,Yes,02462858_2015_2018
Elec,40298,Npower Limited,01/04/2015,31/03/2018,1,,,138963,,,,,,Flexible Contract,Tender Completed,No,Yes,02462858_2015_2018
Elec,40299,Npower Limited,01/04/2015,31/03/2018,1,,,67490,,,,,,Flexible Contract,Tender Completed,No,Yes,02462858_2015_2018
Elec,40300,Npower Limited,01/04/2015,31/03/2018,1,,,236697,,,,,,Flexible Contract,Tender Completed,No,Yes,02462858_2015_2018
Elec,40302,Npower Limited,01/04/2015,31/03/2018,1,,,142919,,,,,,Flexible Contract,Tender Completed,No,Yes,02462858_2015_2018
Elec,40303,Npower Limited,01/04/2015,31/03/2018,1,,,139545,,,,,,Flexible Contract,Tender Completed,No,Yes,02462858_2015_2018
Elec,40304,Npower Limited,01/04/2015,31/03/2018,1,,,1515,,,,,,Flexible Contract,Tender Completed,No,Yes,02462858_2015_2018
Elec,40305,Npower Limited,01/04/2015,31/03/2018,1,,,119875,,,,,,Flexible Contract,Tender Completed,No,Yes,02462858_2015_2018
Elec,40306,Npower Limited,01/04/2015,31/03/2018,1,,,186481,,,,,,Flexible Contract,Tender Completed,No,Yes,02462858_2015_2018
Elec,40307,Npower Limited,01/04/2015,31/03/2018,1,,,114486,,,,,,Flexible Contract,Tender Completed,No,Yes,02462858_2015_2018
Elec,40308,Npower Limited,01/04/2015,31/03/2018,1,,,172856,,,,,,Flexible Contract,Tender Completed,No,Yes,02462858_2015_2018
Elec,40309,Npower Limited,01/04/2015,31/03/2018,1,,,158245,,,,,,Flexible Contract,Tender Completed,No,Yes,02462858_2015_2018
Elec,40310,Npower Limited,01/04/2015,31/03/2018,1,,,153289,,,,,,Flexible Contract,Tender Completed,No,Yes,02462858_2015_2018
Elec,40311,Npower Limited,01/04/2015,31/03/2018,1,,,153229,,,,,,Flexible Contract,Tender Completed,No,Yes,02462858_2015_2018
Elec,40312,Npower Limited,01/04/2015,31/03/2018,1,,,159120,,,,,,Flexible Contract,Tender Completed,No,Yes,02462858_2015_2018
Elec,40313,Npower Limited,01/04/2015,31/03/2018,1,,,140168,,,,,,Flexible Contract,Tender Completed,No,Yes,02462858_2015_2018
Elec,40314,Npower Limited,01/04/2015,31/03/2018,1,,,132857,,,,,,Flexible Contract,Tender Completed,No,Yes,02462858_2015_2018
Elec,40315,Npower Limited,01/04/2015,31/03/2018,1,,,13,,,,,,Flexible Contract,Tender Completed,No,Yes,02462858_2015_2018
Elec,40316,Npower Limited,01/04/2015,31/03/2018,1,,,198675,,,,,,Flexible Contract,Tender Completed,No,Yes,02462858_2015_2018
Elec,40317,Npower Limited,01/04/2015,31/03/2018,1,,,177284,,,,,,Flexible Contract,Tender Completed,No,Yes,02462858_2015_2018
Elec,40318,Npower Limited,01/04/2015,31/03/2018,1,,,154304,,,,,,Flexible Contract,Tender Completed,No,Yes,02462858_2015_2018
Elec,40319,Npower Limited,01/04/2015,31/03/2018,1,,,190281,,,,,,Flexible Contract,Tender Completed,No,Yes,02462858_2015_2018
Elec,40320,Npower Limited,01/04/2015,31/03/2018,1,,,196518,,,,,,Flexible Contract,Tender Completed,No,Yes,02462858_2015_2018
Elec,40321,Npower Limited,01/04/2015,31/03/2018,1,,,131326,,,,,,Flexible Contract,Tender Completed,No,Yes,02462858_2015_2018
Elec,40322,Npower Limited,01/04/2015,31/03/2018,1,,,11633,,,,,,Flexible Contract,Tender Completed,No,Yes,02462858_2015_2018
Elec,40323,Npower Limited,01/04/2015,31/03/2018,1,,,158983,,,,,,Flexible Contract,Tender Completed,No,Yes,02462858_2015_2018
Elec,40324,Npower Limited,01/04/2015,31/03/2018,1,,,764,,,,,,Flexible Contract,Tender Completed,No,Yes,02462858_2015_2018
Elec,40326,Npower Limited,01/04/2015,31/03/2018,1,,,125283,,,,,,Flexible Contract,Tender Completed,No,Yes,02462858_2015_2018
Elec,40328,Npower Limited,01/04/2015,31/03/2018,1,,,1418709,,,,,,Flexible Contract,Tender Completed,No,Yes,02462858_2015_2018
Elec,40330,Npower Limited,01/04/2015,31/03/2018,1,,,140754,,,,,,Flexible Contract,Tender Completed,No,Yes,02462858_2015_2018
Elec,40331,Npower Limited,01/04/2015,31/03/2018,1,,,154412,,,,,,Flexible Contract,Tender Completed,No,Yes,02462858_2015_2018
Elec,40332,Npower Limited,01/04/2015,31/03/2018,1,,,12527,,,,,,Flexible Contract,Tender Completed,No,Yes,02462858_2015_2018
Elec,40333,Npower Limited,01/04/2015,31/03/2018,1,,,13058,,,,,,Flexible Contract,Tender Completed,No,Yes,02462858_2015_2018
Elec,40334,Npower Limited,01/04/2015,31/03/2018,1,,,134023,,,,,,Flexible Contract,Tender Completed,No,Yes,02462858_2015_2018
Elec,40335,Npower Limited,01/04/2015,31/03/2018,1,,,129466,,,,,,Flexible Contract,Tender Completed,No,Yes,02462858_2015_2018
Elec,40336,Npower Limited,01/04/2015,31/03/2018,1,,,120671,,,,,,Flexible Contract,Tender Completed,No,Yes,02462858_2015_2018
Elec,40337,Npower Limited,01/04/2015,31/03/2018,1,,,124059,,,,,,Flexible Contract,Tender Completed,No,Yes,02462858_2015_2018
Elec,40338,Npower Limited,01/04/2015,31/03/2018,1,,,133842,,,,,,Flexible Contract,Tender Completed,No,Yes,02462858_2015_2018
Elec,40339,Npower Limited,01/04/2015,31/03/2018,1,,,148955,,,,,,Flexible Contract,Tender Completed,No,Yes,02462858_2015_2018
Elec,40340,Npower Limited,01/04/2015,31/03/2018,1,,,150816,,,,,,Flexible Contract,Tender Completed,No,Yes,02462858_2015_2018
Elec,40341,Npower Limited,01/04/2015,31/03/2018,1,,,116404,,,,,,Flexible Contract,Tender Completed,No,Yes,02462858_2015_2018
Elec,40342,Npower Limited,01/04/2015,31/03/2018,1,,,132464,,,,,,Flexible Contract,Tender Completed,No,Yes,02462858_2015_2018
Elec,40343,Npower Limited,01/04/2015,31/03/2018,1,,,133590,,,,,,Flexible Contract,Tender Completed,No,Yes,02462858_2015_2018
Elec,40344,Npower Limited,01/04/2015,31/03/2018,1,,,54746,,,,,,Flexible Contract,Tender Completed,No,Yes,02462858_2015_2018
Elec,40345,Npower Limited,01/04/2015,31/03/2018,1,,,117332,,,,,,Flexible Contract,Tender Completed,No,Yes,02462858_2015_2018
Elec,40346,Npower Limited,01/04/2015,31/03/2018,1,,,155158,,,,,,Flexible Contract,Tender Completed,No,Yes,02462858_2015_2018
Elec,40347,Npower Limited,01/04/2015,31/03/2018,1,,,130961,,,,,,Flexible Contract,Tender Completed,No,Yes,02462858_2015_2018
Elec,40348,Npower Limited,01/04/2015,31/03/2018,1,,,147207,,,,,,Flexible Contract,Tender Completed,No,Yes,02462858_2015_2018
Elec,40349,Npower Limited,01/04/2015,31/03/2018,1,,,118344,,,,,,Flexible Contract,Tender Completed,No,Yes,02462858_2015_2018
Elec,40350,Npower Limited,01/04/2015,31/03/2018,1,,,151231,,,,,,Flexible Contract,Tender Completed,No,Yes,02462858_2015_2018
Elec,40351,Npower Limited,01/04/2015,31/03/2018,1,,,117075,,,,,,Flexible Contract,Tender Completed,No,Yes,02462858_2015_2018
Elec,40352,Npower Limited,01/04/2015,31/03/2018,1,,,152477,,,,,,Flexible Contract,Tender Completed,No,Yes,02462858_2015_2018
Elec,40353,Npower Limited,01/04/2015,31/03/2018,1,,,101297,,,,,,Flexible Contract,Tender Completed,No,Yes,02462858_2015_2018
Elec,40354,Npower Limited,01/04/2015,31/03/2018,1,,,105348,,,,,,Flexible Contract,Tender Completed,No,Yes,02462858_2015_2018
Elec,40355,Npower Limited,01/04/2015,31/03/2018,1,,,148342,,,,,,Flexible Contract,Tender Completed,No,Yes,02462858_2015_2018
Elec,40356,Npower Limited,01/04/2015,31/03/2018,1,,,97551,,,,,,Flexible Contract,Tender Completed,No,Yes,02462858_2015_2018
Elec,40357,Npower Limited,01/04/2015,31/03/2018,1,,,112927,,,,,,Flexible Contract,Tender Completed,No,Yes,02462858_2015_2018
Elec,40358,Npower Limited,01/04/2015,31/03/2018,1,,,164385,,,,,,Flexible Contract,Tender Completed,No,Yes,02462858_2015_2018
Elec,40359,Npower Limited,01/04/2015,31/03/2018,1,,,169345,,,,,,Flexible Contract,Tender Completed,No,Yes,02462858_2015_2018
Elec,40360,Npower Limited,01/04/2015,31/03/2018,1,,,124082,,,,,,Flexible Contract,Tender Completed,No,Yes,02462858_2015_2018
Elec,40361,Npower Limited,01/04/2015,31/03/2018,1,,,2911,,,,,,Flexible Contract,Tender Completed,No,Yes,02462858_2015_2018
Elec,40362,Npower Limited,01/04/2015,31/03/2018,1,,,124463,,,,,,Flexible Contract,Tender Completed,No,Yes,02462858_2015_2018
Elec,40363,Npower Limited,01/04/2015,31/03/2018,1,,,126570,,,,,,Flexible Contract,Tender Completed,No,Yes,02462858_2015_2018
Elec,40364,Npower Limited,01/04/2015,31/03/2018,1,,,697529,,,,,,Flexible Contract,Tender Completed,No,Yes,02462858_2015_2018
Elec,40367,Npower Limited,01/04/2015,31/03/2018,1,,,106952,,,,,,Flexible Contract,Tender Completed,No,Yes,02462858_2015_2018
Elec,40369,Npower Limited,01/04/2015,31/03/2018,1,,,195398,,,,,,Flexible Contract,Tender Completed,No,Yes,02462858_2015_2018
Elec,40371,Npower Limited,01/04/2015,31/03/2018,1,,,101674,,,,,,Flexible Contract,Tender Completed,No,Yes,02462858_2015_2018
Elec,40372,Npower Limited,01/04/2015,31/03/2018,1,,,97832,,,,,,Flexible Contract,Tender Completed,No,Yes,02462858_2015_2018
Elec,40373,Npower Limited,01/04/2015,31/03/2018,1,,,177874,,,,,,Flexible Contract,Tender Completed,No,Yes,02462858_2015_2018
Elec,40375,Npower Limited,01/04/2015,31/03/2018,1,,,157801,,,,,,Flexible Contract,Tender Completed,No,Yes,02462858_2015_2018
Elec,40376,Npower Limited,01/04/2015,31/03/2018,1,,,125220,,,,,,Flexible Contract,Tender Completed,No,Yes,02462858_2015_2018
Elec,40377,Npower Limited,01/04/2015,31/03/2018,1,,,191978,,,,,,Flexible Contract,Tender Completed,No,Yes,02462858_2015_2018
Elec,40378,Npower Limited,01/04/2015,31/03/2018,1,,,204409,,,,,,Flexible Contract,Tender Completed,No,Yes,02462858_2015_2018
Elec,40379,Npower Limited,01/04/2015,31/03/2018,1,,,170259,,,,,,Flexible Contract,Tender Completed,No,Yes,02462858_2015_2018
Elec,40380,Npower Limited,01/04/2015,31/03/2018,1,,,28155,,,,,,Flexible Contract,Tender Completed,No,Yes,02462858_2015_2018
Elec,40381,Npower Limited,01/04/2015,31/03/2018,1,,,185989,,,,,,Flexible Contract,Tender Completed,No,Yes,02462858_2015_2018
Elec,40382,Npower Limited,01/04/2015,31/03/2018,1,,,118805,,,,,,Flexible Contract,Tender Completed,No,Yes,02462858_2015_2018
Elec,40383,Npower Limited,01/04/2015,31/03/2018,1,,,161944,,,,,,Flexible Contract,Tender Completed,No,Yes,02462858_2015_2018
Elec,40384,Npower Limited,01/04/2015,31/03/2018,1,,,162010,,,,,,Flexible Contract,Tender Completed,No,Yes,02462858_2015_2018
Elec,40385,Npower Limited,01/04/2015,31/03/2018,1,,,144511,,,,,,Flexible Contract,Tender Completed,No,Yes,02462858_2015_2018
Elec,40386,Npower Limited,01/04/2015,31/03/2018,1,,,169257,,,,,,Flexible Contract,Tender Completed,No,Yes,02462858_2015_2018
Elec,40387,Npower Limited,01/04/2015,31/03/2018,1,,,111923,,,,,,Flexible Contract,Tender Completed,No,Yes,02462858_2015_2018
Elec,40388,Npower Limited,01/04/2015,31/03/2018,1,,,90131,,,,,,Flexible Contract,Tender Completed,No,Yes,02462858_2015_2018
Elec,40389,Npower Limited,01/04/2015,31/03/2018,1,,,140360,,,,,,Flexible Contract,Tender Completed,No,Yes,02462858_2015_2018
Elec,40390,Npower Limited,01/04/2015,31/03/2018,1,,,150492,,,,,,Flexible Contract,Tender Completed,No,Yes,02462858_2015_2018
Elec,40391,Npower Limited,01/04/2015,31/03/2018,1,,,126729,,,,,,Flexible Contract,Tender Completed,No,Yes,02462858_2015_2018
Elec,40392,Npower Limited,01/04/2015,31/03/2018,1,,,151717,,,,,,Flexible Contract,Tender Completed,No,Yes,02462858_2015_2018
Elec,40393,Npower Limited,01/04/2015,31/03/2018,1,,,142699,,,,,,Flexible Contract,Tender Completed,No,Yes,02462858_2015_2018
Elec,40394,Npower Limited,01/04/2015,31/03/2018,1,,,149139,,,,,,Flexible Contract,Tender Completed,No,Yes,02462858_2015_2018
Elec,40395,Npower Limited,01/04/2015,31/03/2018,1,,,123077,,,,,,Flexible Contract,Tender Completed,No,Yes,02462858_2015_2018
Elec,40396,Npower Limited,01/04/2015,31/03/2018,1,,,125918,,,,,,Flexible Contract,Tender Completed,No,Yes,02462858_2015_2018
Elec,40397,Npower Limited,01/04/2015,31/03/2018,1,,,148694,,,,,,Flexible Contract,Tender Completed,No,Yes,02462858_2015_2018
Elec,40398,Npower Limited,01/04/2015,31/03/2018,1,,,152084,,,,,,Flexible Contract,Tender Completed,No,Yes,02462858_2015_2018
Elec,40399,Npower Limited,01/04/2015,31/03/2018,1,,,154556,,,,,,Flexible Contract,Tender Completed,No,Yes,02462858_2015_2018
Elec,40400,Npower Limited,01/04/2015,31/03/2018,1,,,166420,,,,,,Flexible Contract,Tender Completed,No,Yes,02462858_2015_2018
Elec,40402,Npower Limited,01/04/2015,31/03/2018,1,,,151179,,,,,,Flexible Contract,Tender Completed,No,Yes,02462858_2015_2018
Elec,40403,Npower Limited,01/04/2015,31/03/2018,1,,,145647,,,,,,Flexible Contract,Tender Completed,No,Yes,02462858_2015_2018
Elec,40404,Npower Limited,01/04/2015,31/03/2018,1,,,156698,,,,,,Flexible Contract,Tender Completed,No,Yes,02462858_2015_2018
Elec,40405,Npower Limited,01/04/2015,31/03/2018,1,,,138643,,,,,,Flexible Contract,Tender Completed,No,Yes,02462858_2015_2018
Elec,40406,Npower Limited,01/04/2015,31/03/2018,1,,,130870,,,,,,Flexible Contract,Tender Completed,No,Yes,02462858_2015_2018
Elec,40408,Npower Limited,01/04/2015,31/03/2018,1,,,14362,,,,,,Flexible Contract,Tender Completed,No,Yes,02462858_2015_2018
Elec,40410,Npower Limited,01/04/2015,31/03/2018,1,,,266,,,,,,Flexible Contract,Tender Completed,No,Yes,02462858_2015_2018
Elec,40411,Npower Limited,01/04/2015,31/03/2018,1,,,205243,,,,,,Flexible Contract,Tender Completed,No,Yes,02462858_2015_2018
Elec,40412,Npower Limited,01/04/2015,31/03/2018,1,,,160037,,,,,,Flexible Contract,Tender Completed,No,Yes,02462858_2015_2018
Elec,40413,Npower Limited,01/04/2015,31/03/2018,1,,,151088,,,,,,Flexible Contract,Tender Completed,No,Yes,02462858_2015_2018
Elec,40414,Npower Limited,01/04/2015,31/03/2018,1,,,89928,,,,,,Flexible Contract,Tender Completed,No,Yes,02462858_2015_2018
Elec,40415,Npower Limited,01/04/2015,31/03/2018,1,,,110172,,,,,,Flexible Contract,Tender Completed,No,Yes,02462858_2015_2018
Elec,40416,Npower Limited,01/04/2015,31/03/2018,1,,,85010,,,,,,Flexible Contract,Tender Completed,No,Yes,02462858_2015_2018
Elec,40417,Npower Limited,01/04/2015,31/03/2018,1,,,116506,,,,,,Flexible Contract,Tender Completed,No,Yes,02462858_2015_2018
Elec,40418,Npower Limited,01/04/2015,31/03/2018,1,,,188427,,,,,,Flexible Contract,Tender Completed,No,Yes,02462858_2015_2018
Elec,40419,Npower Limited,01/04/2015,31/03/2018,1,,,113682,,,,,,Flexible Contract,Tender Completed,No,Yes,02462858_2015_2018
Elec,40420,Npower Limited,01/04/2015,31/03/2018,1,,,53441,,,,,,Flexible Contract,Tender Completed,No,Yes,02462858_2015_2018
Elec,40422,Npower Limited,01/04/2015,31/03/2018,1,,,123026,,,,,,Flexible Contract,Tender Completed,No,Yes,02462858_2015_2018
Elec,40424,Npower Limited,01/04/2015,31/03/2018,1,,,143289,,,,,,Flexible Contract,Tender Completed,No,Yes,02462858_2015_2018
Elec,40425,Npower Limited,01/04/2015,31/03/2018,1,,,184445,,,,,,Flexible Contract,Tender Completed,No,Yes,02462858_2015_2018
Elec,40426,Npower Limited,01/04/2015,31/03/2018,1,,,76209,,,,,,Flexible Contract,Tender Completed,No,Yes,02462858_2015_2018
Elec,40427,Npower Limited,01/04/2015,31/03/2018,1,,,117776,,,,,,Flexible Contract,Tender Completed,No,Yes,02462858_2015_2018
Elec,40428,Npower Limited,01/04/2015,31/03/2018,1,,,203211,,,,,,Flexible Contract,Tender Completed,No,Yes,02462858_2015_2018
Elec,40429,Npower Limited,01/04/2015,31/03/2018,1,,,176713,,,,,,Flexible Contract,Tender Completed,No,Yes,02462858_2015_2018
Elec,40430,Npower Limited,01/04/2015,31/03/2018,1,,,230986,,,,,,Flexible Contract,Tender Completed,No,Yes,02462858_2015_2018
Elec,40431,Npower Limited,01/04/2015,31/03/2018,1,,,241100,,,,,,Flexible Contract,Tender Completed,No,Yes,02462858_2015_2018
Elec,40432,Npower Limited,01/04/2015,31/03/2018,1,,,144119,,,,,,Flexible Contract,Tender Completed,No,Yes,02462858_2015_2018
Elec,40433,Npower Limited,01/04/2015,31/03/2018,1,,,106489,,,,,,Flexible Contract,Tender Completed,No,Yes,02462858_2015_2018
Elec,40434,Npower Limited,01/04/2015,31/03/2018,1,,,161188,,,,,,Flexible Contract,Tender Completed,No,Yes,02462858_2015_2018
Elec,40435,Npower Limited,01/04/2015,31/03/2018,1,,,122720,,,,,,Flexible Contract,Tender Completed,No,Yes,02462858_2015_2018
Elec,40436,Npower Limited,01/04/2015,31/03/2018,1,,,110820,,,,,,Flexible Contract,Tender Completed,No,Yes,02462858_2015_2018
Elec,40437,Npower Limited,01/04/2015,31/03/2018,1,,,125918,,,,,,Flexible Contract,Tender Completed,No,Yes,02462858_2015_2018
Elec,40438,Npower Limited,01/04/2015,31/03/2018,1,,,132158,,,,,,Flexible Contract,Tender Completed,No,Yes,02462858_2015_2018
Elec,40439,Npower Limited,01/04/2015,31/03/2018,1,,,115608,,,,,,Flexible Contract,Tender Completed,No,Yes,02462858_2015_2018
Elec,40440,Npower Limited,01/04/2015,31/03/2018,1,,,132182,,,,,,Flexible Contract,Tender Completed,No,Yes,02462858_2015_2018
Elec,40441,Npower Limited,01/04/2015,31/03/2018,1,,,127765,,,,,,Flexible Contract,Tender Completed,No,Yes,02462858_2015_2018
Elec,40442,Npower Limited,01/04/2015,31/03/2018,1,,,128201,,,,,,Flexible Contract,Tender Completed,No,Yes,02462858_2015_2018
Elec,40443,Npower Limited,01/04/2015,31/03/2018,1,,,115686,,,,,,Flexible Contract,Tender Completed,No,Yes,02462858_2015_2018
Elec,40444,Npower Limited,01/04/2015,31/03/2018,1,,,137923,,,,,,Flexible Contract,Tender Completed,No,Yes,02462858_2015_2018
Elec,40445,Npower Limited,01/04/2015,31/03/2018,1,,,14386,,,,,,Flexible Contract,Tender Completed,No,Yes,02462858_2015_2018
Elec,40446,Npower Limited,01/04/2015,31/03/2018,1,,,119390,,,,,,Flexible Contract,Tender Completed,No,Yes,02462858_2015_2018
Elec,40447,Npower Limited,01/04/2015,31/03/2018,1,,,116744,,,,,,Flexible Contract,Tender Completed,No,Yes,02462858_2015_2018
Elec,39735,Npower Limited,01/04/2015,31/03/2018,1,,,1,,,,,,Flexible Contract,Tender Completed,No,Yes,02462858_2015_2018
