fuel,site_id,supplier_name,start_date,end_date,rate_allunit,rate_day,rate_night,usage_allunit,usage_day,usage_night,standingcharge_month,commission_kwh,commission_year,contract_type,tender_status,termination_optout,registration_confirmed,contract_id
Gas,19892,Gazprom M and T Limited,01/10/2015,30/09/2016,1,,,562015,,,,,,Flexible Basket Contract,Tender Completed,No,Yes,09471415_2015_2016
Gas,19893,Gazprom M and T Limited,01/10/2015,30/09/2016,1,,,92838,,,,,,Flexible Basket Contract,Tender Completed,No,Yes,09471415_2015_2016
Gas,19894,Gazprom M and T Limited,01/10/2015,30/09/2016,1,,,1052921,,,,,,Flexible Basket Contract,Tender Completed,No,Yes,09471415_2015_2016
Gas,19910,Gazprom M and T Limited,01/10/2015,30/09/2016,1,,,2084997,,,,,,Flexible Basket Contract,Tender Completed,No,Yes,09471415_2015_2016
Gas,19906,Gazprom M and T Limited,01/10/2015,30/09/2016,1,,,164616,,,,,,Flexible Basket Contract,Tender Completed,No,Yes,09471415_2015_2016
Gas,19907,Gazprom M and T Limited,01/10/2015,30/09/2016,1,,,176703,,,,,,Flexible Basket Contract,Tender Completed,No,Yes,09471415_2015_2016
Gas,19908,Gazprom M and T Limited,01/10/2015,30/09/2016,1,,,1370316,,,,,,Flexible Basket Contract,Tender Completed,No,Yes,09471415_2015_2016
Gas,19909,Gazprom M and T Limited,01/10/2015,30/09/2016,1,,,352384,,,,,,Flexible Basket Contract,Tender Completed,No,Yes,09471415_2015_2016
Gas,19074,Gazprom M and T Limited,01/10/2015,30/09/2016,1,,,268546,,,,,,Flexible Basket Contract,Tender Completed,No,Yes,09471415_2015_2016
Gas,19075,Gazprom M and T Limited,01/10/2015,30/09/2016,1,,,102589,,,,,,Flexible Basket Contract,Tender Completed,No,Yes,09471415_2015_2016
Gas,19077,Gazprom M and T Limited,01/10/2015,30/09/2016,1,,,381372,,,,,,Flexible Basket Contract,Tender Completed,No,Yes,09471415_2015_2016
Gas,19078,Gazprom M and T Limited,01/10/2015,30/09/2016,1,,,99088,,,,,,Flexible Basket Contract,Tender Completed,No,Yes,09471415_2015_2016
Gas,19079,Gazprom M and T Limited,01/10/2015,30/09/2016,1,,,1786282,,,,,,Flexible Basket Contract,Tender Completed,No,Yes,09471415_2015_2016
Gas,19076,Gazprom M and T Limited,01/10/2015,30/09/2016,1,,,83603,,,,,,Flexible Basket Contract,Tender Completed,No,Yes,09471415_2015_2016
Gas,14211,Gazprom M and T Limited,01/10/2015,30/09/2016,1,,,1101242,,,,,,Flexible Basket Contract,Tender Completed,No,Yes,09471415_2015_2016
Gas,10305,Gazprom M and T Limited,01/10/2015,30/09/2016,1,,,13039,,,,,,Flexible Basket Contract,Tender Completed,No,Yes,09471415_2015_2016
