fuel,site_id,supplier_name,start_date,end_date,rate_allunit,rate_day,rate_night,usage_allunit,usage_day,usage_night,standingcharge_month,commission_kwh,commission_year,contract_type,tender_status,termination_optout,registration_confirmed
Elec,32293,Haven Power,01/10/2014,30/09/2016,,30204,41711,,11.145,6.875,4.56,,,Fixed Contract,Tender Complete,No,Yes
Elec,32294,Haven Power,01/10/2014,30/09/2016,,51928,18245,,11.545,6.805,20.38,,,Fixed Contract,Tender Complete,No,Yes
Elec,32295,Haven Power,01/10/2014,30/09/2016,62864,,,11.565,,,5.17,,,Fixed Contract,Tender Complete,No,Yes
Elec,32296,Haven Power,01/10/2014,30/09/2016,97569,,,11.575,,,22.51,,,Fixed Contract,Tender Complete,No,Yes
Elec,32297,Haven Power,01/10/2014,30/09/2016,,51270,19938,,11.145,6.805,19.77,,,Fixed Contract,Tender Complete,No,Yes
Elec,32298,Haven Power,01/10/2014,30/09/2016,,3608,56522,,11.175,6.965,4.56,,,Fixed Contract,Tender Complete,No,Yes
Elec,32300,Haven Power,01/10/2014,30/09/2016,593,,,10.685,,,4.56,,,Fixed Contract,Tender Complete,No,Yes
Elec,32301,Haven Power,01/10/2014,30/09/2016,67090,,,10.895,,,5.17,,,Fixed Contract,Tender Complete,No,Yes
Elec,32302,Haven Power,01/10/2014,30/09/2016,65632,,,10.605,,,5.17,,,Fixed Contract,Tender Complete,No,Yes
Elec,32303,Haven Power,01/10/2014,30/09/2016,2145,,,10.215,,,20.68,,,Fixed Contract,Tender Complete,No,Yes
Elec,32305,Haven Power,01/10/2014,30/09/2016,67386,,,10.555,,,4.56,,,Fixed Contract,Tender Complete,No,Yes
Elec,32306,Haven Power,01/10/2014,30/09/2016,79255,,,10.645,,,4.87,,,Fixed Contract,Tender Complete,No,Yes
Elec,32307,Haven Power,01/10/2014,30/09/2016,28933,,,10.255,,,20.68,,,Fixed Contract,Tender Complete,No,Yes
Elec,32308,Haven Power,01/10/2014,30/09/2016,,2134,567,,12.835,7.175,5.17,,,Fixed Contract,Tender Complete,No,Yes
Elec,32309,Haven Power,01/10/2014,30/09/2016,,126942,49366,,11.025,6.785,20.38,,,Fixed Contract,Tender Complete,No,Yes
Elec,32310,Haven Power,01/10/2014,30/09/2016,,37159,14450,,11.175,6.965,4.56,,,Fixed Contract,Tender Complete,No,Yes
Elec,32311,Haven Power,01/10/2014,30/09/2016,259262,,,10.405,,,4.56,,,Fixed Contract,Tender Complete,No,Yes
Elec,32312,Haven Power,01/10/2014,30/09/2016,206582,,,10.405,,,4.56,,,Fixed Contract,Tender Complete,No,Yes
Elec,32313,Haven Power,01/10/2014,30/09/2016,,228993,89053,,10.925,6.885,20.38,,,Fixed Contract,Tender Complete,No,Yes
Elec,32314,Haven Power,01/10/2014,30/09/2016,23180,,,10.455,,,20.38,,,Fixed Contract,Tender Complete,No,Yes
Elec,32315,Haven Power,01/10/2014,30/09/2016,,57656,22418,,11.275,6.735,20.68,,,Fixed Contract,Tender Complete,No,Yes
Elec,32318,Haven Power,01/10/2014,30/09/2016,51135,,,10.605,,,20.38,,,Fixed Contract,Tender Complete,No,Yes
Elec,32319,Haven Power,01/10/2014,30/09/2016,39950,,,10.605,,,20.38,,,Fixed Contract,Tender Complete,No,Yes
Elec,32320,Haven Power,01/10/2014,30/09/2016,,6500,3500,,11.145,6.875,4.56,,,Fixed Contract,Tender Complete,No,Yes
Elec,32321,Haven Power,01/10/2014,30/09/2016,,9209,4137,,11.815,6.975,4.56,,,Fixed Contract,Tender Complete,No,Yes
Elec,32325,Haven Power,01/10/2014,30/09/2016,9162,,,10.685,,,4.56,,,Fixed Contract,Tender Complete,No,Yes
Elec,32323,Haven Power,01/10/2014,30/09/2016,25130,,,12.525,,,4.56,,,Fixed Contract,Tender Complete,No,Yes
Elec,32324,Haven Power,01/10/2014,30/09/2016,,14844,3482,,13.425,7.205,4.56,,,Fixed Contract,Tender Complete,No,Yes
Elec,32327,Haven Power,01/10/2014,30/09/2016,,48278,17856,,12.455,7.045,5.17,,,Fixed Contract,Tender Complete,No,Yes
Elec,32328,Haven Power,01/10/2014,30/09/2016,87482,,,10.795,,,18.25,,,Fixed Contract,Tender Complete,No,Yes
Elec,32329,Haven Power,01/10/2014,30/09/2016,,72561,31098,,11.845,7.055,4.56,,,Fixed Contract,Tender Complete,No,Yes
Elec,32291,Haven Power,01/10/2014,30/09/2016,19992,,,10.615,,,18.25,,,Fixed Contract,Tender Complete,No,Yes
Elec,17391,Haven Power,01/10/2014,30/09/2016,,27997,11999,,12.595,6.995,25.85,,,Fixed Contract,Tender Complete,No,Yes
Elec,34235,Haven Power,01/10/2014,30/09/2016,37000,,,11.505,,,18.25,,,Fixed Contract,Tender Complete,No,Yes
