fuel,site_id,supplier_name,start_date,end_date,rate_allunit,rate_day,rate_night,usage_allunit,usage_day,usage_night,standingcharge_month,commission_kwh,commission_year,contract_type,tender_status,termination_optout,registration_confirmed,contract_id
Gas,41472,Gazprom M and T Limited,01/01/2016,31/12/2016,1,,,184166,,,,,,Flexible Contract,Tender Completed,No,Yes,Mondelez_2016
Gas,41473,Gazprom M and T Limited,01/01/2016,31/12/2016,1,,,907247,,,,,,Flexible Contract,Tender Completed,No,Yes,Mondelez_2016
Gas,41474,Gazprom M and T Limited,01/01/2016,31/12/2016,1,,,54771808,,,,,,Flexible Contract,Tender Completed,No,Yes,Mondelez_2016
Gas,41476,Gazprom M and T Limited,01/01/2016,31/12/2016,1,,,616787,,,,,,Flexible Contract,Tender Completed,No,Yes,Mondelez_2016
Gas,41477,Gazprom M and T Limited,01/01/2016,31/12/2016,1,,,26391244,,,,,,Flexible Contract,Tender Completed,No,Yes,Mondelez_2016
Gas,41478,Gazprom M and T Limited,01/01/2016,31/12/2016,1,,,1,,,,,,Flexible Contract,Tender Completed,No,Yes,Mondelez_2016
Gas,17352,Gazprom M and T Limited,01/01/2016,31/12/2016,1,,,129747,,,,,,Flexible Contract,Tender Completed,No,Yes,Mondelez_2016
Gas,17250,Gazprom M and T Limited,01/01/2016,31/12/2016,1,,,62860815,,,,,,Flexible Contract,Tender Completed,No,Yes,Mondelez_2016
Gas,41482,Gazprom M and T Limited,01/01/2016,31/12/2016,1,,,21601,,,,,,Flexible Contract,Tender Completed,No,Yes,Mondelez_2016
Gas,41479,Gazprom M and T Limited,01/01/2016,31/12/2016,1,,,3033784,,,,,,Flexible Contract,Tender Completed,No,Yes,Mondelez_2016
Gas,9555,Gazprom M and T Limited,01/01/2016,31/12/2016,1,,,118362,,,,,,Flexible Contract,Tender Completed,No,Yes,Mondelez_2016
Gas,41480,Gazprom M and T Limited,01/01/2016,31/12/2016,1,,,284600,,,,,,Flexible Contract,Tender Completed,No,Yes,Mondelez_2016
Gas,41481,Gazprom M and T Limited,01/01/2016,31/12/2016,1,,,112698,,,,,,Flexible Contract,Tender Completed,No,Yes,Mondelez_2016
Gas,41487,Gazprom M and T Limited,01/01/2016,31/12/2016,1,,,1350222,,,,,,Flexible Contract,Tender Completed,No,Yes,Mondelez_2016
Gas,41483,Gazprom M and T Limited,01/01/2016,31/12/2016,1,,,241999,,,,,,Flexible Contract,Tender Completed,No,Yes,Mondelez_2016
Gas,41484,Gazprom M and T Limited,01/01/2016,31/12/2016,1,,,58555168,,,,,,Flexible Contract,Tender Completed,No,Yes,Mondelez_2016
Gas,41485,Gazprom M and T Limited,01/01/2016,31/12/2016,1,,,3264930,,,,,,Flexible Contract,Tender Completed,No,Yes,Mondelez_2016
Gas,41486,Gazprom M and T Limited,01/01/2016,31/12/2016,1,,,704224,,,,,,Flexible Contract,Tender Completed,No,Yes,Mondelez_2016
Gas,41488,Gazprom M and T Limited,01/01/2016,31/12/2016,1,,,227539,,,,,,Flexible Contract,Tender Completed,No,Yes,Mondelez_2016
