fuel,customer_id,customer_name,site_id,site_name,address_1,address_2,address_3,postcode,analyst_name,accountmanager_name,meter,read_frequency,supplier_name,start_date,end_date,rate_allunit,rate_day,rate_night,usage_allunit,usage_day,usage_night,standingcharge_month,commission_kwh,commission_year,contract_type,tender_status,termination_optout,registration_confirmed,contract_id
Gas,3128,Rolls Royce,,Annesley - 8874186608,Unit 5 Littleoak Drive,"Sherwood Park, Annesley",Nottingham,NG15 0DR,Tamas Gyomber,Kevin Melville,8874186608,NDM,ENGIE (FORMER GDF SUEZ),01/04/2016,31/03/2019,1,,,1634572,,,,,,Flexible Contract,Tender Completed,No,Yes,1003142_2016_2019
Gas,3128,Rolls Royce,,Ansty - 11915802,Brinklow Road,Binley,Coventry,CV7 9JR,Tamas Gyomber,Kevin Melville,11915802,NDM,ENGIE (FORMER GDF SUEZ),01/04/2016,31/03/2019,1,,,4922899,,,,,,Flexible Contract,Tender Completed,No,Yes,1003142_2016_2019
Gas,3128,Rolls Royce,,Ansty - 9101778006,Brinklow Road,Binley,Coventry,CV7 9JR,Tamas Gyomber,Kevin Melville,9101778006,DM,ENGIE (FORMER GDF SUEZ),01/04/2016,31/03/2019,1,,,14277503,,,,,,Flexible Contract,Tender Completed,No,Yes,1003142_2016_2019
Gas,3128,Rolls Royce,,Barnoldswick - 10080502,Skipton Road,Barnlodswick,Colne Lancs,BB8 5RU,Tamas Gyomber,Kevin Melville,10080502,NDM,ENGIE (FORMER GDF SUEZ),01/04/2016,31/03/2019,1,,,18711229,,,,,,Flexible Contract,Tender Completed,No,Yes,1003142_2016_2019
Gas,3128,Rolls Royce,,Barnoldswick - 10163304,Skipton Road,Barnlodswick,Colne Lancs,BB8 5RU,Tamas Gyomber,Kevin Melville,10163304,NDM,ENGIE (FORMER GDF SUEZ),01/04/2016,31/03/2019,1,,,5098332,,,,,,Flexible Contract,Tender Completed,No,Yes,1003142_2016_2019
Gas,3128,Rolls Royce,,Barnoldswick - 9089930607,Skipton Road,Barnlodswick,Colne Lancs,BB8 5RU,Tamas Gyomber,Kevin Melville,9089930607,NDM,ENGIE (FORMER GDF SUEZ),01/04/2016,31/03/2019,1,,,35280290,,,,,,Flexible Contract,Tender Completed,No,Yes,1003142_2016_2019
Gas,3128,Rolls Royce,,Coates Welfare - Barnoldswick - 5353609,Skipton Road,Barnlodswick,Colne Lancs,BB8 5RU,Tamas Gyomber,Kevin Melville,5353609,NDM,ENGIE (FORMER GDF SUEZ),01/04/2016,31/03/2019,1,,,303400,,,,,,Flexible Contract,Tender Completed,No,Yes,1003142_2016_2019
Gas,3128,Rolls Royce,,Dalgety Bay - Dunfermline - 19641405,Taxiway,Hillend Industrtial Park,Dalgety Bay,KY11 9JT,Tamas Gyomber,Kevin Melville,19641405,NDM,ENGIE (FORMER GDF SUEZ),01/04/2016,31/03/2019,1,,,1002147,,,,,,Flexible Contract,Tender Completed,No,Yes,1003142_2016_2019
Gas,3128,Rolls Royce,,Dalgety Bay - Dunfermline - 74744909,Taxiway,Hillend Industrtial Park,Dalgety Bay,KY11 9JT,Tamas Gyomber,Kevin Melville,74744909,NDM,ENGIE (FORMER GDF SUEZ),01/04/2016,31/03/2019,1,,,1,,,,,,Flexible Contract,Tender Completed,No,Yes,1003142_2016_2019
Gas,3128,Rolls Royce,,DBH - 80273904,Duffield Bank,Duffield,Belper,DE56 4BG,Tamas Gyomber,Kevin Melville,80273904,NDM,ENGIE (FORMER GDF SUEZ),01/04/2016,31/03/2019,1,,,443787,,,,,,Flexible Contract,Tender Completed,No,Yes,1003142_2016_2019
Gas,3128,Rolls Royce,,DBH - 2082020104,Duffield Bank,Duffield,Belper,DE56 4BG,Tamas Gyomber,Kevin Melville,2082020104,NDM,ENGIE (FORMER GDF SUEZ),01/04/2016,31/03/2019,1,,,26599,,,,,,Flexible Contract,Tender Completed,No,Yes,1003142_2016_2019
Gas,3128,Rolls Royce,,Derby Main - 9902300,Wilmore Rd,,Derby,DE24 9BD,Tamas Gyomber,Kevin Melville,9902300,NDM,ENGIE (FORMER GDF SUEZ),01/04/2016,31/03/2019,1,,,655060,,,,,,Flexible Contract,Tender Completed,No,Yes,1003142_2016_2019
Gas,3128,Rolls Royce,,Derby Main - 9916906,Moor Lane,Allenton,Derby,DE24 9HY,Tamas Gyomber,Kevin Melville,9916906,NDM,ENGIE (FORMER GDF SUEZ),01/04/2016,31/03/2019,1,,,485805,,,,,,Flexible Contract,Tender Completed,No,Yes,1003142_2016_2019
Gas,3128,Rolls Royce,,Derby Main - 79543801,Wilmore Rd,,Derby,DE24 9BD,Tamas Gyomber,Kevin Melville,79543801,DM,ENGIE (FORMER GDF SUEZ),01/04/2016,31/03/2019,1,,,14261630,,,,,,Flexible Contract,Tender Completed,No,Yes,1003142_2016_2019
Gas,3128,Rolls Royce,,Derby Main - 70569302,Wilmore Rd,,Derby,DE24 9BD,Tamas Gyomber,Kevin Melville,70569302,DM,ENGIE (FORMER GDF SUEZ),01/04/2016,31/03/2019,1,,,76735717,,,,,,Flexible Contract,Tender Completed,No,Yes,1003142_2016_2019
Gas,3128,Rolls Royce,,Derby Main - 70570208,Wilmore Rd,,Derby,DE24 9BD,Tamas Gyomber,Kevin Melville,70570208,NDM,ENGIE (FORMER GDF SUEZ),01/04/2016,31/03/2019,1,,,1,,,,,,Flexible Contract,Tender Completed,No,Yes,1003142_2016_2019
Gas,3128,Rolls Royce,,Derby Main - 58737000,Elton Road,,Derby,DE24 8ED,Tamas Gyomber,Kevin Melville,58737000,NDM,ENGIE (FORMER GDF SUEZ),01/04/2016,31/03/2019,1,,,243067,,,,,,Flexible Contract,Tender Completed,No,Yes,1003142_2016_2019
Gas,3128,Rolls Royce,,Derby Main - 9897210,Victory Road,,Derby,DE24 8EJ,Tamas Gyomber,Kevin Melville,9897210,NDM,ENGIE (FORMER GDF SUEZ),01/04/2016,31/03/2019,1,,,1,,,,,,Flexible Contract,Tender Completed,No,Yes,1003142_2016_2019
Gas,3128,Rolls Royce,,Derby Main - 9897603,Moor Lane,Allenton,Derby,DE24 9HY,Tamas Gyomber,Kevin Melville,9897603,NDM,ENGIE (FORMER GDF SUEZ),01/04/2016,31/03/2019,1,,,136,,,,,,Flexible Contract,Tender Completed,No,Yes,1003142_2016_2019
Gas,3128,Rolls Royce,,Derby Main - 9897805,Victory Road,,Derby,DE24 8EJ,Tamas Gyomber,Kevin Melville,9897805,NDM,ENGIE (FORMER GDF SUEZ),01/04/2016,31/03/2019,1,,,134769,,,,,,Flexible Contract,Tender Completed,No,Yes,1003142_2016_2019
Gas,3128,Rolls Royce,,Derby Main - 9890701,Sinfin Lane,,Derby,DE24 9GG,Tamas Gyomber,Kevin Melville,9890701,NDM,ENGIE (FORMER GDF SUEZ),01/04/2016,31/03/2019,1,,,3948532,,,,,,Flexible Contract,Tender Completed,No,Yes,1003142_2016_2019
Gas,3128,Rolls Royce,,Derby Main - 9890802,Sinfin Lane,,Derby,DE24 9GG,Tamas Gyomber,Kevin Melville,9890802,NDM,ENGIE (FORMER GDF SUEZ),01/04/2016,31/03/2019,1,,,563132,,,,,,Flexible Contract,Tender Completed,No,Yes,1003142_2016_2019
Gas,3128,Rolls Royce,,Derby Main - 9115624903,No. 9 Gate,Wilmore Road,Derby,DE24 9BD,Tamas Gyomber,Kevin Melville,9115624903,NDM,ENGIE (FORMER GDF SUEZ),01/04/2016,31/03/2019,1,,,5822768,,,,,,Flexible Contract,Tender Completed,No,Yes,1003142_2016_2019
Gas,3128,Rolls Royce,,Derby Main - 9917706,Victory Road,,Derby,DE24 8EJ,Tamas Gyomber,Kevin Melville,9917706,NDM,ENGIE (FORMER GDF SUEZ),01/04/2016,31/03/2019,1,,,22211,,,,,,Flexible Contract,Tender Completed,No,Yes,1003142_2016_2019
Gas,3128,Rolls Royce,,Derby Main - 57417908,Victory Road,,Derby,DE24 8EJ,Tamas Gyomber,Kevin Melville,57417908,DM,ENGIE (FORMER GDF SUEZ),01/04/2016,31/03/2019,1,,,15391358,,,,,,Flexible Contract,Tender Completed,No,Yes,1003142_2016_2019
Gas,3128,Rolls Royce,,East Kilbride - 83537108,Manor Avenue,Nerston Industrial Estate,Nerston,G74 4NY,Tamas Gyomber,Kevin Melville,83537108,DM,ENGIE (FORMER GDF SUEZ),01/04/2016,31/03/2019,1,,,21598008,,,,,,Flexible Contract,Tender Completed,No,Yes,1003142_2016_2019
Gas,3128,Rolls Royce,,Gateshead - 8906770210,"Unit 13-14 Princes park, Fourth Avenue",Team Valley Trading Estate,Gateshead,NE11 0NF,Tamas Gyomber,Kevin Melville,8906770210,NDM,ENGIE (FORMER GDF SUEZ),01/04/2016,31/03/2019,1,,,97687,,,,,,Flexible Contract,Tender Completed,No,Yes,1003142_2016_2019
Gas,3128,Rolls Royce,,Gypsy Patch - Bristol - 7643509605,"PO Box 3, Gypsy Patch Lane",Filton,Bristol,BS34 7QE,Tamas Gyomber,Kevin Melville,7643509605,NDM,ENGIE (FORMER GDF SUEZ),01/04/2016,31/03/2019,1,,,7942492.716,,,,,,Flexible Contract,Tender Completed,No,Yes,1003142_2016_2019
Gas,3128,Rolls Royce,,Gypsy Patch - Bristol - 7643509010,"PO Box 3, Gypsy Patch Lane",Filton,Bristol,BS34 7QE,Tamas Gyomber,Kevin Melville,7643509010,NDM,ENGIE (FORMER GDF SUEZ),01/04/2016,31/03/2019,1,,,1103450.067,,,,,,Flexible Contract,Tender Completed,No,Yes,1003142_2016_2019
Gas,3128,Rolls Royce,,Gypsy Patch - Bristol - 7643509100,"PO Box 3, Gypsy Patch Lane",Filton,Bristol,BS34 7QE,Tamas Gyomber,Kevin Melville,7643509100,NDM,ENGIE (FORMER GDF SUEZ),01/04/2016,31/03/2019,1,,,3121648.501,,,,,,Flexible Contract,Tender Completed,No,Yes,1003142_2016_2019
Gas,3128,Rolls Royce,,Gypsy Patch - Bristol - 7643509504,"PO Box 3, Gypsy Patch Lane",Filton,Bristol,BS34 7QE,Tamas Gyomber,Kevin Melville,7643509504,NDM,ENGIE (FORMER GDF SUEZ),01/04/2016,31/03/2019,1,,,1359650.043,,,,,,Flexible Contract,Tender Completed,No,Yes,1003142_2016_2019
Gas,3128,Rolls Royce,,Gypsy Patch - Bristol - 7643509201,"PO Box 3, Gypsy Patch Lane",Filton,Bristol,BS34 7QE,Tamas Gyomber,Kevin Melville,7643509201,NDM,ENGIE (FORMER GDF SUEZ),01/04/2016,31/03/2019,1,,,214233.6566,,,,,,Flexible Contract,Tender Completed,No,Yes,1003142_2016_2019
Gas,3128,Rolls Royce,,Gypsy Patch - Bristol - 7643509302,"PO Box 3, Gypsy Patch Lane",Filton,Bristol,BS34 7QE,Tamas Gyomber,Kevin Melville,7643509302,NDM,ENGIE (FORMER GDF SUEZ),01/04/2016,31/03/2019,1,,,464270.7463,,,,,,Flexible Contract,Tender Completed,No,Yes,1003142_2016_2019
Gas,3128,Rolls Royce,,Gypsy Patch - Bristol - 7643509706,"PO Box 3, Gypsy Patch Lane",Filton,Bristol,BS34 7QE,Tamas Gyomber,Kevin Melville,7643509706,NDM,ENGIE (FORMER GDF SUEZ),01/04/2016,31/03/2019,1,,,258254.271,,,,,,Flexible Contract,Tender Completed,No,Yes,1003142_2016_2019
Gas,3128,Rolls Royce,,Gypsy Patch - Bristol - 9171038008,"PO Box 3, Gypsy Patch Lane",Filton,Bristol,BS34 7QE,Tamas Gyomber,Kevin Melville,9171038008,NDM,ENGIE (FORMER GDF SUEZ),01/04/2016,31/03/2019,1,,,6628399,,,,,,Flexible Contract,Tender Completed,No,Yes,1003142_2016_2019
Gas,3128,Rolls Royce,,Gypsy Patch - Bristol - 8815884702,165 Gypsy Patch Lane,Filton,Bristol,BS12 7QE,Tamas Gyomber,Kevin Melville,8815884702,NDM,ENGIE (FORMER GDF SUEZ),01/04/2016,31/03/2019,1,,,387141,,,,,,Flexible Contract,Tender Completed,No,Yes,1003142_2016_2019
Gas,3128,Rolls Royce,,Gypsy Patch - Bristol - 8928352910,"PO Box 3, Gypsy Patch Lane",Filton,Bristol,BS34 7QE,Tamas Gyomber,Kevin Melville,8928352910,NDM,ENGIE (FORMER GDF SUEZ),01/04/2016,31/03/2019,1,,,178766,,,,,,Flexible Contract,Tender Completed,No,Yes,1003142_2016_2019
Gas,3128,Rolls Royce,,Hawthorn St Security Office - 2079266110,78 Hawthorn Street,,Derby,DE24 8BB,Tamas Gyomber,Kevin Melville,2079266110,NDM,ENGIE (FORMER GDF SUEZ),01/04/2016,31/03/2019,1,,,45997,,,,,,Flexible Contract,Tender Completed,No,Yes,1003142_2016_2019
Gas,3128,Rolls Royce,,Hucknall - 8814861101,Watnall Road,Hucknall,Nottingham,NG15 6EU,Tamas Gyomber,Kevin Melville,8814861101,DM,ENGIE (FORMER GDF SUEZ),01/04/2016,31/03/2019,1,,,20017027,,,,,,Flexible Contract,Tender Completed,No,Yes,1003142_2016_2019
Gas,3128,Rolls Royce,,Hucknall - 17150510,Watnall Road,Hucknall,Nottingham,NG15 6EU,Tamas Gyomber,Kevin Melville,17150510,NDM,ENGIE (FORMER GDF SUEZ),01/04/2016,31/03/2019,1,,,9268608,,,,,,Flexible Contract,Tender Completed,No,Yes,1003142_2016_2019
Gas,3128,Rolls Royce,,Inchinnan - 9086126209,Inchinnan Business Park,Inchinnan Drive,Renfrew,PA4 9AF,Tamas Gyomber,Kevin Melville,9086126209,NDM,ENGIE (FORMER GDF SUEZ),01/04/2016,31/03/2019,1,,,2928277,,,,,,Flexible Contract,Tender Completed,No,Yes,1003142_2016_2019
Gas,3128,Rolls Royce,,Jubilee House Pride Park - 8923965009,Jubilee House,Pride Park,Derby,DE24 8JH,Tamas Gyomber,Kevin Melville,8923965009,NDM,ENGIE (FORMER GDF SUEZ),01/04/2016,31/03/2019,1,,,831971,,,,,,Flexible Contract,Tender Completed,No,Yes,1003142_2016_2019
Gas,3128,Rolls Royce,,Light Alloy Foundry (LAF) - 70571502,OSMASTON ROAD,,Derby,DE24 8AE,Tamas Gyomber,Kevin Melville,70571502,NDM,ENGIE (FORMER GDF SUEZ),01/04/2016,31/03/2019,1,,,1439114,,,,,,Flexible Contract,Tender Completed,No,Yes,1003142_2016_2019
Gas,3128,Rolls Royce,,London - The Portal - Heathrow - 7678614601,"Units 2 & 4, The Portal",Scylla Road,Heathrow,TW6 3FE,Tamas Gyomber,Kevin Melville,7678614601,NDM,ENGIE (FORMER GDF SUEZ),01/04/2016,31/03/2019,1,,,1,,,,,,Flexible Contract,Tender Completed,No,Yes,1003142_2016_2019
Gas,3128,Rolls Royce,,Newstead Ind Est - Trentham - 898907,Plantation Road,"Newstead Trading Estate,",Stoke on Trent,ST4 8HX,Tamas Gyomber,Kevin Melville,898907,NDM,ENGIE (FORMER GDF SUEZ),01/04/2016,31/03/2019,1,,,3023773,,,,,,Flexible Contract,Tender Completed,No,Yes,1003142_2016_2019
Gas,3128,Rolls Royce,,Old Church Farm Rudgeway - 67371310,"Old Church Farm, Church Road",Rudgeway,Bristol,BS35 3SQ,Tamas Gyomber,Kevin Melville,67371310,NDM,ENGIE (FORMER GDF SUEZ),01/04/2016,31/03/2019,1,,,212123,,,,,,Flexible Contract,Tender Completed,No,Yes,1003142_2016_2019
Gas,3128,Rolls Royce,,Raynesway - 9878105,INDUSTRIAL POWER GROUP,Raynesway,Derby,DE24 8BJ,Tamas Gyomber,Kevin Melville,9878105,NDM,ENGIE (FORMER GDF SUEZ),01/04/2016,31/03/2019,1,,,16573657,,,,,,Flexible Contract,Tender Completed,No,Yes,1003142_2016_2019
Gas,3128,Rolls Royce,,Ross Ceramics - Denby - 10701710,Derby Road,,Denby,DE5 8NX,Tamas Gyomber,Kevin Melville,10701710,NDM,ENGIE (FORMER GDF SUEZ),01/04/2016,31/03/2019,1,,,11307680,,,,,,Flexible Contract,Tender Completed,No,Yes,1003142_2016_2019
Gas,3128,Rolls Royce,,Rotherham - ABCF Turbines Factory - 9330696806,Advanced Manufacturing Park,Off Brunel Way,Rotherham,S60 5WG,Tamas Gyomber,Kevin Melville,9330696806,NDM,ENGIE (FORMER GDF SUEZ),01/04/2016,31/03/2019,1,,,2142421,,,,,,Flexible Contract,Tender Completed,No,Yes,1003142_2016_2019
Gas,3128,Rolls Royce,,Sports Ground - Baroldwicks - 8893327809,BARNOLDSWICK SPORTS GROUND,,Colne,BB8 5RU,Tamas Gyomber,Kevin Melville,8893327809,NDM,ENGIE (FORMER GDF SUEZ),01/04/2016,31/03/2019,1,,,122262,,,,,,Flexible Contract,Tender Completed,No,Yes,1003142_2016_2019
Gas,3128,Rolls Royce,,Sunderland - 77693002,Pallion Ind Est,,Sunderland,SR4 6SS,Tamas Gyomber,Kevin Melville,77693002,NDM,ENGIE (FORMER GDF SUEZ),01/04/2016,31/03/2019,1,,,423823,,,,,,Flexible Contract,Tender Completed,No,Yes,1003142_2016_2019
Gas,3128,Rolls Royce,,Sunderland - 77694610,Pallion Ind Est,,Sunderland,SR4 6SS,Tamas Gyomber,Kevin Melville,77694610,NDM,ENGIE (FORMER GDF SUEZ),01/04/2016,31/03/2019,1,,,1683236,,,,,,Flexible Contract,Tender Completed,No,Yes,1003142_2016_2019
Gas,3128,Rolls Royce,,Sunderland - 77695107,Pallion Ind Est,,Sunderland,SR4 6SS,Tamas Gyomber,Kevin Melville,77695107,NDM,ENGIE (FORMER GDF SUEZ),01/04/2016,31/03/2019,1,,,2045870,,,,,,Flexible Contract,Tender Completed,No,Yes,1003142_2016_2019
Gas,3128,Rolls Royce,,Sunderland - 77696300,Pallion Ind Est,,Sunderland,SR4 6SS,Tamas Gyomber,Kevin Melville,77696300,NDM,ENGIE (FORMER GDF SUEZ),01/04/2016,31/03/2019,1,,,100523,,,,,,Flexible Contract,Tender Completed,No,Yes,1003142_2016_2019
Gas,3128,Rolls Royce,,Sunderland - 77696805,Pallion Ind Est,,Sunderland,SR4 6SS,Tamas Gyomber,Kevin Melville,77696805,NDM,ENGIE (FORMER GDF SUEZ),01/04/2016,31/03/2019,1,,,2190875,,,,,,Flexible Contract,Tender Completed,No,Yes,1003142_2016_2019
Gas,3128,Rolls Royce,,Sunderland - 8827274107,Unit 36A,Pallion Ind Est,Sunderland,SR4 6SS,Tamas Gyomber,Kevin Melville,8827274107,NDM,ENGIE (FORMER GDF SUEZ),01/04/2016,31/03/2019,1,,,329915,,,,,,Flexible Contract,Tender Completed,No,Yes,1003142_2016_2019
Gas,3128,Rolls Royce,,Unit 1 - Evolution - 7676227909,"Unit 1, Evolution","Advanced Manufacturing Park,Whittle Way",Rotherham,S60 5BL,Tamas Gyomber,Kevin Melville,7676227909,NDM,ENGIE (FORMER GDF SUEZ),01/04/2016,31/03/2019,1,,,95212,,,,,,Flexible Contract,Tender Completed,No,Yes,1003142_2016_2019
Gas,3128,Rolls Royce,,Unit C Sunderland - 9304989004,Unit C Sunrise Enterprise Park - HH,"FERRYBOAT LANE, SUNRISE ENTERPRISE PARK",Sunderland,SR5 3RX,Tamas Gyomber,Kevin Melville,9304989004,NDM,ENGIE (FORMER GDF SUEZ),01/04/2016,31/03/2019,1,,,396071,,,,,,Flexible Contract,Tender Completed,No,Yes,1003142_2016_2019
Gas,3128,Rolls Royce,,Washington - 9323262804,RADIAL 64,Birtley Road,Washington,NE38 9DA,Tamas Gyomber,Kevin Melville,9323262804,NDM,ENGIE (FORMER GDF SUEZ),01/04/2016,31/03/2019,1,,,3244639,,,,,,Flexible Contract,Tender Completed,No,Yes,1003142_2016_2019
Gas,3128,Rolls Royce,,Winsford - Barlow Drive - 49121408,"Powerfield, Barlow Moor Drive","Woodford Park, Winsford",Crewe,CW7 2JZ,Tamas Gyomber,Kevin Melville,49121408,NDM,ENGIE (FORMER GDF SUEZ),01/04/2016,31/03/2019,1,,,707876,,,,,,Flexible Contract,Tender Completed,No,Yes,1003142_2016_2019
