fuel,customer_id,customer_name,site_id,site_name,address_1,address_2,address_3,postcode,analyst_name,accountmanager_name,voltage,asc,profile,mtc,llf,meter,read_frequency,supplier_name,start_date,end_date,rate_allunit,rate_day,rate_night,usage_allunit,usage_day,usage_night,standingcharge_month,commission_kwh,commission_year,contract_type,tender_status,termination_optout,registration_confirmed,contract_id
Elec,2995,Verizon UK Ltd,,Verizon UK Limited - 1200010116441,Aylesbury St,London,,EC1 R0DR,Antal Hum,Richard Haddelsey,HV,1000,0,845,359,1200010116441,HH,Scottish and Southern Energy PLC,01/10/2016,30/09/2018,1,,,,,3823435.4,,,,Flexible Contract,Tender Completed,No,Yes,2776038_2016_2018
Elec,2995,Verizon UK Ltd,,Verizon UK Limited - 1200010116450,Aylesbury St,London,,EC1 R0DR,Antal Hum,Richard Haddelsey,HV,1000,0,845,359,1200010116450,HH,Scottish and Southern Energy PLC,01/10/2016,30/09/2018,1,,,,,2348004.5,,,,Flexible Contract,Tender Completed,No,Yes,2776038_2016_2018
Elec,2995,Verizon UK Ltd,,Verizon UK Limited - 1411562303002,Heneage Street,Birmingham,,B7 4LY,Antal Hum,Richard Haddelsey,LV,342,0,845,365,1411562303002,HH,Scottish and Southern Energy PLC,01/10/2016,30/09/2018,1,,,,,2528491.4,,,,Flexible Contract,Tender Completed,No,Yes,2776038_2016_2018
Elec,2995,Verizon UK Ltd,,Verizon UK Limited - 2200032011613,Kingsland Industrial Estate,Bristol,,BS2 0JZ,Antal Hum,Richard Haddelsey,HV,800,0,845,510,2200032011613,HH,Scottish and Southern Energy PLC,01/10/2016,30/09/2018,1,,,,,1273251.2,,,,Flexible Contract,Tender Completed,No,Yes,2776038_2016_2018
Elec,2995,Verizon UK Ltd,,Verizon UK Limited - 1023545643723,Unit 5 Nuffield Close,Cambridge,,CB4 1SS,Antal Hum,Richard Haddelsey,LV,215,0,845,80,1023545643723,HH,Scottish and Southern Energy PLC,01/10/2016,30/09/2018,1,,,,,176460.1,,,,Flexible Contract,Tender Completed,No,Yes,2776038_2016_2018
Elec,2995,Verizon UK Ltd,,Verizon UK Limited - 2000050533436,3 Quay Point,Portsmouth,,PO6 3TD,Antal Hum,Richard Haddelsey,LV,500,0,70,658,2000050533436,HH,Scottish and Southern Energy PLC,01/10/2016,30/09/2018,1,,,,,491129.5,,,,Flexible Contract,Tender Completed,No,Yes,2776038_2016_2018
Elec,2995,Verizon UK Ltd,,Verizon UK Limited - 2000014022507,3 Quay Point,Portsmouth,,PO6 3TD,Antal Hum,Richard Haddelsey,LV,100,0,845,658,2000014022507,HH,Scottish and Southern Energy PLC,01/10/2016,30/09/2018,1,,,,,436194.5,,,,Flexible Contract,Tender Completed,No,Yes,2776038_2016_2018
Elec,2995,Verizon UK Ltd,,Verizon UK Limited - 1800051089130,The Clock Tower,Edinburgh,,EH12 9LB,Antal Hum,Richard Haddelsey,HV,1500,0,845,501,1800051089130,HH,Scottish and Southern Energy PLC,01/10/2016,30/09/2018,1,,,,,1938393.6,,,,Flexible Contract,Tender Completed,No,Yes,2776038_2016_2018
Elec,2995,Verizon UK Ltd,,Verizon UK Limited - 2000050046460,Central Way,Feltham,,TW14 0UD,Antal Hum,Richard Haddelsey,HV,1200,0,70,658,2000050046460,HH,Scottish and Southern Energy PLC,01/10/2016,30/09/2018,1,,,,,10713750,,,,Flexible Contract,Tender Completed,No,Yes,2776038_2016_2018
Elec,2995,Verizon UK Ltd,,Verizon UK Limited - 1800051158722,Pentagon Centre,Glasgow,,G3 8AZ,Antal Hum,Richard Haddelsey,HV,800,0,845,501,1800051158722,HH,Scottish and Southern Energy PLC,01/10/2016,30/09/2018,1,,,,,2956881.7,,,,Flexible Contract,Tender Completed,No,Yes,2776038_2016_2018
Elec,2995,Verizon UK Ltd,,Verizon UK Limited - 2300000364908,Lowfields Avenue,Leeds,,LS12 6HH,Antal Hum,Richard Haddelsey,HV,760,0,845,581,2300000364908,HH,Scottish and Southern Energy PLC,01/10/2016,30/09/2018,1,,,,,2114850.8,,,,Flexible Contract,Tender Completed,No,Yes,2776038_2016_2018
Elec,2995,Verizon UK Ltd,,Verizon UK Limited - 1200050014952,3-6 St Pancras Way,London,,NW1 0QG,Antal Hum,Richard Haddelsey,HV,8000,0,846,359,1200050014952,HH,Scottish and Southern Energy PLC,01/10/2016,30/09/2018,1,,,,,12328680,,,,Flexible Contract,Tender Completed,No,Yes,2776038_2016_2018
Elec,2995,Verizon UK Ltd,,Verizon UK Limited - 1200050201821,3-6 St Pancras Way,London,,NW1 0QG,Antal Hum,Richard Haddelsey,HV,4000,0,846,359,1200050201821,HH,Scottish and Southern Energy PLC,01/10/2016,30/09/2018,1,,,,,13085188,,,,Flexible Contract,Tender Completed,No,Yes,2776038_2016_2018
Elec,2995,Verizon UK Ltd,,Verizon UK Limited - 1592006908408,Interlink House,Newcastle,,NE4 7BJ,Antal Hum,Richard Haddelsey,LV,140,0,845,251,1592006908408,HH,Scottish and Southern Energy PLC,01/10/2016,30/09/2018,1,,,,,1420496.6,,,,Flexible Contract,Tender Completed,No,Yes,2776038_2016_2018
Elec,2995,Verizon UK Ltd,,Verizon UK Limited - 2000050467207,Units B1 B2 B3 Forbury Park,Reading,,RG1 3HS,Antal Hum,Richard Haddelsey,HV,800,0,70,658,2000050467207,HH,Scottish and Southern Energy PLC,01/10/2016,30/09/2018,1,,,,,2786099,,,,Flexible Contract,Tender Completed,No,Yes,2776038_2016_2018
Elec,2995,Verizon UK Ltd,,Verizon UK Limited - 2000050740542,Reading Intl Business Park,Reading,,RG2 6DA,Antal Hum,Richard Haddelsey,HV,5600,0,70,658,2000050740542,HH,Scottish and Southern Energy PLC,01/10/2016,30/09/2018,1,,,,,7208248,,,,Flexible Contract,Tender Completed,No,Yes,2776038_2016_2018
Elec,2995,Verizon UK Ltd,,Verizon UK Limited - 1620000036436,Springfield Business Park,Manchester,,M3 7JS,Antal Hum,Richard Haddelsey,LV,288,0,845,802,1620000036436,HH,Scottish and Southern Energy PLC,01/10/2016,30/09/2018,1,,,,,63392.4,,,,Flexible Contract,Tender Completed,No,Yes,2776038_2016_2018
Elec,2995,Verizon UK Ltd,,Verizon UK Limited - 2000027287455,Signal Cabin Off Montague Pass,Uxbridge,,UB8 1QL,Antal Hum,Richard Haddelsey,LV,33,0,845,453,2000027287455,HH,Scottish and Southern Energy PLC,01/10/2016,30/09/2018,1,,,,,182011.4,,,,Flexible Contract,Tender Completed,No,Yes,2776038_2016_2018
Elec,2995,Verizon UK Ltd,,Verizon UK Limited - 1300050719791,Unit 1 Opus 9 Calver Road,Warrington,,WA2 8UD,Antal Hum,Richard Haddelsey,LV,500,0,845,515,1300050719791,HH,Scottish and Southern Energy PLC,01/10/2016,30/09/2018,1,,,,,3054139.4,,,,Flexible Contract,Tender Completed,No,Yes,2776038_2016_2018
Elec,2995,Verizon UK Ltd,,Verizon UK Limited - 1800050892114,Cold Chapel Farm,Abington,,ML12 6RW,Antal Hum,Richard Haddelsey,LV,1,1,801,100,1800050892114,NHH,Scottish and Southern Energy PLC,01/10/2016,30/09/2018,1,,,,,29323,,,,Flexible Contract,Tender Completed,No,Yes,2776038_2016_2018
Elec,2995,Verizon UK Ltd,,Verizon UK Limited - 1800051281054,Old Station Yard,Duns Berwickshire,,TD10 6UD,Antal Hum,Richard Haddelsey,LV,1,3,802,201,1800051281054,NHH,Scottish and Southern Energy PLC,01/10/2016,30/09/2018,1,,,,,24316,,,,Flexible Contract,Tender Completed,No,Yes,2776038_2016_2018
Elec,2995,Verizon UK Ltd,,Verizon UK Limited - 1507576449990,Willowtree Industrial Estates,Alnwick,,NE66 2HA,Antal Hum,Richard Haddelsey,LV,1,3,801,203,1507576449990,NHH,Scottish and Southern Energy PLC,01/10/2016,30/09/2018,1,,,,,15981,,,,Flexible Contract,Tender Completed,No,Yes,2776038_2016_2018
Elec,2995,Verizon UK Ltd,,Verizon UK Limited - 1900010430517,Potters Corner,Ashford,,TN25 4NP,Antal Hum,Richard Haddelsey,LV,1,3,801,320,1900010430517,NHH,Scottish and Southern Energy PLC,01/10/2016,30/09/2018,1,,,,,22635,,,,Flexible Contract,Tender Completed,No,Yes,2776038_2016_2018
Elec,2995,Verizon UK Ltd,,Verizon UK Limited - 2000017655771,Roentgen Road,Basingstoke,,RG24 8NG,Antal Hum,Richard Haddelsey,LV,1,3,801,127,2000017655771,NHH,Scottish and Southern Energy PLC,01/10/2016,30/09/2018,1,,,,,213314,,,,Flexible Contract,Tender Completed,No,Yes,2776038_2016_2018
Elec,2995,Verizon UK Ltd,,Verizon UK Limited - 2000017655762,Roentgen Rd,Basingstoke,,RG23 8NG,Antal Hum,Richard Haddelsey,LV,1,3,801,127,2000017655762,NHH,Scottish and Southern Energy PLC,01/10/2016,30/09/2018,1,,,,,36623,,,,Flexible Contract,Tender Completed,No,Yes,2776038_2016_2018
Elec,2995,Verizon UK Ltd,,Verizon UK Limited - 1415940803007,Mills Farm,Banbury,,OX17 3QP,Antal Hum,Richard Haddelsey,LV,1,5,34,1,1415940803007,NHH,Scottish and Southern Energy PLC,01/10/2016,30/09/2018,1,,,,,33056,,,,Flexible Contract,Tender Completed,No,Yes,2776038_2016_2018
Elec,2995,Verizon UK Ltd,,Verizon UK Limited - 2000027759185,Unit 2 Kiln Lane,Bracknell,,RG12 1NA,Antal Hum,Richard Haddelsey,LV,1,3,801,127,2000027759185,NHH,Scottish and Southern Energy PLC,01/10/2016,30/09/2018,1,,,,,210628,,,,Flexible Contract,Tender Completed,No,Yes,2776038_2016_2018
Elec,2995,Verizon UK Ltd,,Verizon UK Limited - 1900060458528,Land At Brighton Railtrack Dep,Brighton,,BN1 3TU,Antal Hum,Richard Haddelsey,LV,1,3,801,320,1900060458528,NHH,Scottish and Southern Energy PLC,01/10/2016,30/09/2018,1,,,,,65124,,,,Flexible Contract,Tender Completed,No,Yes,2776038_2016_2018
Elec,2995,Verizon UK Ltd,,Verizon UK Limited - 1015679030548,Off Paynes Lane,Chelmsford,,CM3 3HJ,Antal Hum,Richard Haddelsey,LV,1,3,801,239,1015679030548,NHH,Scottish and Southern Energy PLC,01/10/2016,30/09/2018,1,,,,,15227,,,,Flexible Contract,Tender Completed,No,Yes,2776038_2016_2018
Elec,2995,Verizon UK Ltd,,Verizon UK Limited - 2200040029634,Binhamy Road Stratton,Bude,,EX23 8LY,Antal Hum,Richard Haddelsey,LV,1,5,26,570,2200040029634,NHH,Scottish and Southern Energy PLC,01/10/2016,30/09/2018,1,,,,,284020,,,,Flexible Contract,Tender Completed,No,Yes,2776038_2016_2018
Elec,2995,Verizon UK Ltd,,Verizon UK Limited - 1012929127086,19 Eckersley Road,Chelmsford,,CM1 1SL,Antal Hum,Richard Haddelsey,LV,1,4,807,205,1012929127086,NHH,Scottish and Southern Energy PLC,01/10/2016,30/09/2018,1,,,,,4557,,,,Flexible Contract,Tender Completed,No,Yes,2776038_2016_2018
Elec,2995,Verizon UK Ltd,,Verizon UK Limited - 1620000567560,Carlisle Regen Currock Road,Carlisle,,CA2 5AE,Antal Hum,Richard Haddelsey,LV,1,3,801,131,1620000567560,NHH,Scottish and Southern Energy PLC,01/10/2016,30/09/2018,1,,,,,14327,,,,Flexible Contract,Tender Completed,No,Yes,2776038_2016_2018
Elec,2995,Verizon UK Ltd,,Verizon UK Limited - 1900036348606,Unit 4 Spindle Way Indus Estate,Crawley,,RH10 1TG,Antal Hum,Richard Haddelsey,LV,1,3,801,320,1900036348606,NHH,Scottish and Southern Energy PLC,01/10/2016,30/09/2018,1,,,,,36824,,,,Flexible Contract,Tender Completed,No,Yes,2776038_2016_2018
Elec,2995,Verizon UK Ltd,,Verizon UK Limited - 1900005109513,Progress Way,Croydon,,CR0 4XD,Antal Hum,Richard Haddelsey,LV,1,3,801,320,1900005109513,NHH,Scottish and Southern Energy PLC,01/10/2016,30/09/2018,1,,,,,210286,,,,Flexible Contract,Tender Completed,No,Yes,2776038_2016_2018
Elec,2995,Verizon UK Ltd,,Verizon UK Limited - 1900029110145,Progress Way,Croydon,,CR0 4XD,Antal Hum,Richard Haddelsey,LV,1,3,801,320,1900029110145,NHH,Scottish and Southern Energy PLC,01/10/2016,30/09/2018,1,,,,,41351,,,,Flexible Contract,Tender Completed,No,Yes,2776038_2016_2018
Elec,2995,Verizon UK Ltd,,Verizon UK Limited - 1900025429833,Station Road-Kingsdown Road,Dover,,CT15 6TF,Antal Hum,Richard Haddelsey,LV,1,3,801,320,1900025429833,NHH,Scottish and Southern Energy PLC,01/10/2016,30/09/2018,1,,,,,1,,,,Flexible Contract,Tender Completed,No,Yes,2776038_2016_2018
Elec,2995,Verizon UK Ltd,,Verizon UK Limited - 1015680829603,Melling Drive,Enfield,,EN1 4BW,Antal Hum,Richard Haddelsey,LV,1,3,801,239,1015680829603,NHH,Scottish and Southern Energy PLC,01/10/2016,30/09/2018,1,,,,,25890,,,,Flexible Contract,Tender Completed,No,Yes,2776038_2016_2018
Elec,2995,Verizon UK Ltd,,Verizon UK Limited - 2200031977657,Land To West Of Cowley Bridge,Exeter,,EX4 4NX,Antal Hum,Richard Haddelsey,LV,1,3,801,110,2200031977657,NHH,Scottish and Southern Energy PLC,01/10/2016,30/09/2018,1,,,,,74448,,,,Flexible Contract,Tender Completed,No,Yes,2776038_2016_2018
Elec,2995,Verizon UK Ltd,,Verizon UK Limited - 2000016099194,Eelmoor Raod,Farnborough,,GU14 7QH,Antal Hum,Richard Haddelsey,LV,1,3,801,127,2000016099194,NHH,Scottish and Southern Energy PLC,01/10/2016,30/09/2018,1,,,,,7762,,,,Flexible Contract,Tender Completed,No,Yes,2776038_2016_2018
Elec,2995,Verizon UK Ltd,,Verizon UK Limited - 1015679648784,Off Old A12 Copdock,Ipswich,,IP8 3JL,Antal Hum,Richard Haddelsey,LV,1,3,801,239,1015679648784,NHH,Scottish and Southern Energy PLC,01/10/2016,30/09/2018,1,,,,,41574,,,,Flexible Contract,Tender Completed,No,Yes,2776038_2016_2018
Elec,2995,Verizon UK Ltd,,Verizon UK Limited - 1620000567686,Beech Tree Garage,Oxenholme,,LA9 7QT,Antal Hum,Richard Haddelsey,LV,1,3,801,131,1620000567686,NHH,Scottish and Southern Energy PLC,01/10/2016,30/09/2018,1,,,,,10806,,,,Flexible Contract,Tender Completed,No,Yes,2776038_2016_2018
Elec,2995,Verizon UK Ltd,,Verizon UK Limited - 1100012342549,34-36 38-40 Crafton St West,Leicester,,LE1 2DE,Antal Hum,Richard Haddelsey,LV,1,3,801,13,1100012342549,NHH,Scottish and Southern Energy PLC,01/10/2016,30/09/2018,1,,,,,179181,,,,Flexible Contract,Tender Completed,No,Yes,2776038_2016_2018
Elec,2995,Verizon UK Ltd,,Verizon UK Limited - 1100012342558,34-36 38-40 Crafton St West,Leicester,,LE1 2DE,Antal Hum,Richard Haddelsey,LV,1,3,801,13,1100012342558,NHH,Scottish and Southern Energy PLC,01/10/2016,30/09/2018,1,,,,,581,,,,Flexible Contract,Tender Completed,No,Yes,2776038_2016_2018
Elec,2995,Verizon UK Ltd,,Verizon UK Limited - 1200034636396,2D-4 North Crescent,London,,E16 4TQ,Antal Hum,Richard Haddelsey,LV,1,3,801,952,1200034636396,NHH,Scottish and Southern Energy PLC,01/10/2016,30/09/2018,1,,,,,23494,,,,Flexible Contract,Tender Completed,No,Yes,2776038_2016_2018
Elec,2995,Verizon UK Ltd,,Verizon UK Limited - 1200010014689,245 Hammersmith Road,London,,W6 8PW,Antal Hum,Richard Haddelsey,LV,1,8,808,404,1200010014689,NHH,Scottish and Southern Energy PLC,01/10/2016,30/09/2018,1,,,,,5090,,,,Flexible Contract,Tender Completed,No,Yes,2776038_2016_2018
Elec,2995,Verizon UK Ltd,,Verizon UK Limited - 1012701836481,South Lowestoft Indusl Estate,Lowestoft,,NR33 7NB,Antal Hum,Richard Haddelsey,LV,1,3,801,239,1012701836481,NHH,Scottish and Southern Energy PLC,01/10/2016,30/09/2018,1,,,,,90929,,,,Flexible Contract,Tender Completed,No,Yes,2776038_2016_2018
Elec,2995,Verizon UK Ltd,,Verizon UK Limited - 1570000163131,Cargo Fleet Road,Middlesborough,,TS3 6AG,Antal Hum,Richard Haddelsey,LV,1,6,807,257,1570000163131,NHH,Scottish and Southern Energy PLC,01/10/2016,30/09/2018,1,,,,,19728,,,,Flexible Contract,Tender Completed,No,Yes,2776038_2016_2018
Elec,2995,Verizon UK Ltd,,Verizon UK Limited - 1100015167701,Unit 69 Alston Drive,Milton Keynes,,MK13 9HB,Antal Hum,Richard Haddelsey,LV,1,3,22,13,1100015167701,NHH,Scottish and Southern Energy PLC,01/10/2016,30/09/2018,1,,,,,159796,,,,Flexible Contract,Tender Completed,No,Yes,2776038_2016_2018
Elec,2995,Verizon UK Ltd,,Verizon UK Limited - 2000027766401,Unit A George Lillian Court,Newbury,,RG14 5SH,Antal Hum,Richard Haddelsey,LV,1,3,801,126,2000027766401,NHH,Scottish and Southern Energy PLC,01/10/2016,30/09/2018,1,,,,,520141,,,,Flexible Contract,Tender Completed,No,Yes,2776038_2016_2018
Elec,2995,Verizon UK Ltd,,Verizon UK Limited - 2200030101692,Mci Communication Centre,Penzance,,TR19 7AP,Antal Hum,Richard Haddelsey,LV,1,8,802,540,2200030101692,NHH,Scottish and Southern Energy PLC,01/10/2016,30/09/2018,1,,,,,56220,,,,Flexible Contract,Tender Completed,No,Yes,2776038_2016_2018
Elec,2995,Verizon UK Ltd,,Verizon UK Limited - 2200010078667,Land At Stuart Road,Plymouth,,PL3 4EA,Antal Hum,Richard Haddelsey,LV,1,3,801,110,2200010078667,NHH,Scottish and Southern Energy PLC,01/10/2016,30/09/2018,1,,,,,4866,,,,Flexible Contract,Tender Completed,No,Yes,2776038_2016_2018
Elec,2995,Verizon UK Ltd,,Verizon UK Limited - 1620000544990,Fylde Industrial Estate,Preston,,PR1 2TY,Antal Hum,Richard Haddelsey,LV,1,3,801,631,1620000544990,NHH,Scottish and Southern Energy PLC,01/10/2016,30/09/2018,1,,,,,15177,,,,Flexible Contract,Tender Completed,No,Yes,2776038_2016_2018
Elec,2995,Verizon UK Ltd,,Verizon UK Limited - 1900021429820,Smarts Garden Centre,Sevenoaks,,TN14 6ED,Antal Hum,Richard Haddelsey,LV,1,3,801,320,1900021429820,NHH,Scottish and Southern Energy PLC,01/10/2016,30/09/2018,1,,,,,11444,,,,Flexible Contract,Tender Completed,No,Yes,2776038_2016_2018
Elec,2995,Verizon UK Ltd,,Verizon UK Limited - 2335000114016,Unit 29 Enterprise Park Estat,Sheffield,,S9 3JL,Antal Hum,Richard Haddelsey,LV,1,3,801,240,2335000114016,NHH,Scottish and Southern Energy PLC,01/10/2016,30/09/2018,1,,,,,131997,,,,Flexible Contract,Tender Completed,No,Yes,2776038_2016_2018
Elec,2995,Verizon UK Ltd,,Verizon UK Limited - 2200040052322,Kingsland Barton Farm,South Molton,,EX36 4HP,Antal Hum,Richard Haddelsey,LV,1,3,801,110,2200040052322,NHH,Scottish and Southern Energy PLC,01/10/2016,30/09/2018,1,,,,,19897,,,,Flexible Contract,Tender Completed,No,Yes,2776038_2016_2018
Elec,2995,Verizon UK Ltd,,Verizon UK Limited - 2200022437805,Manor Farm (1) Burngullow,St Austell,,PL26 7TQ,Antal Hum,Richard Haddelsey,LV,1,3,801,110,2200022437805,NHH,Scottish and Southern Energy PLC,01/10/2016,30/09/2018,1,,,,,5053,,,,Flexible Contract,Tender Completed,No,Yes,2776038_2016_2018
Elec,2995,Verizon UK Ltd,,Verizon UK Limited - 2200040021955,Quoits Farm,St Columb,,TR9 6HY,Antal Hum,Richard Haddelsey,LV,1,3,801,110,2200040021955,NHH,Scottish and Southern Energy PLC,01/10/2016,30/09/2018,1,,,,,6598,,,,Flexible Contract,Tender Completed,No,Yes,2776038_2016_2018
Elec,2995,Verizon UK Ltd,,Verizon UK Limited - 1412513903007,Land At Norton Bridge,Norton Bridge,,ST15 0NT,Antal Hum,Richard Haddelsey,LV,1,3,801,7,1412513903007,NHH,Scottish and Southern Energy PLC,01/10/2016,30/09/2018,1,,,,,30621,,,,Flexible Contract,Tender Completed,No,Yes,2776038_2016_2018
Elec,2995,Verizon UK Ltd,,Verizon UK Limited - 2000050466374,Stratton Road,Swindon,,SN1 2PR,Antal Hum,Richard Haddelsey,LV,1,3,801,127,2000050466374,NHH,Scottish and Southern Energy PLC,01/10/2016,30/09/2018,1,,,,,90495,,,,Flexible Contract,Tender Completed,No,Yes,2776038_2016_2018
Elec,2995,Verizon UK Ltd,,Verizon UK Limited - 2200031989208,Land At Priorswood Indus Est,Taunton,,TA2 8DE,Antal Hum,Richard Haddelsey,LV,1,3,801,110,2200031989208,NHH,Scottish and Southern Energy PLC,01/10/2016,30/09/2018,1,,,,,30624,,,,Flexible Contract,Tender Completed,No,Yes,2776038_2016_2018
Elec,2995,Verizon UK Ltd,,Verizon UK Limited - 1507546669998,Off A61 Carlton Road,Thirsk,,YO7 4NJ,Antal Hum,Richard Haddelsey,LV,1,8,807,257,1507546669998,NHH,Scottish and Southern Energy PLC,01/10/2016,30/09/2018,1,,,,,19991,,,,Flexible Contract,Tender Completed,No,Yes,2776038_2016_2018
Elec,2995,Verizon UK Ltd,,Verizon UK Limited - 2000051380513,Manor Farm (2) Railtrack Land,Woodborough,,SN9 5PL,Antal Hum,Richard Haddelsey,LV,1,3,801,126,2000051380513,NHH,Scottish and Southern Energy PLC,01/10/2016,30/09/2018,1,,,,,9456,,,,Flexible Contract,Tender Completed,No,Yes,2776038_2016_2018
Elec,2995,Verizon UK Ltd,,Verizon UK Limited - 2000050590230,Premises Adjacent To Yjs,Yeovil,,BA22 9UU,Antal Hum,Richard Haddelsey,LV,1,3,801,127,2000050590230,NHH,Scottish and Southern Energy PLC,01/10/2016,30/09/2018,1,,,,,21145,,,,Flexible Contract,Tender Completed,No,Yes,2776038_2016_2018
