fuel,customer_id,customer_name,site_id,site_name,address_1,address_2,address_3,postcode,analyst_name,accountmanager_name,voltage,asc,profile,mtc,llf,meter,read_frequency,supplier_name,start_date,end_date,rate_allunit,rate_day,rate_night,usage_allunit,usage_day,usage_night,standingcharge_month,commission_kwh,commission_year,contract_type,tender_status,termination_optout,registration_confirmed,contract_id
Elec,2881,Nationwide Building Society,,Nationwide Building Society - 1100039206191,Unit 3 49-51 Clumber Street,Nottingham,Nottinghamshire,NG1 3ED,Tamas Gyomber,Richard Bailey,LV  ,60,0,845,58,1100039206191,HH,Scottish and Southern Energy PLC,01/04/2016,30/06/2016,1,,,8842.4,,,,,,Flexible Contract,Tender Completed,No,Yes,00106078_3m
Elec,2881,Nationwide Building Society,,Nationwide Building Society - 1200061361694,One Threadneedle Street,London,London,EC2R 8BE,Tamas Gyomber,Richard Bailey,LV  ,800,0,845,9,1200061361694,HH,Scottish and Southern Energy PLC,01/04/2016,30/06/2016,1,,,1325697.2,,,,,,Flexible Contract,Tender Completed,No,Yes,00106078_3m
Elec,2881,Nationwide Building Society,,Nationwide Building Society - 2000055814942,Marshall Rd Hillmead,Swindon,Wilts,SN5 9YZ,Tamas Gyomber,Richard Bailey,HV  ,2300,0,845,658,2000055814942,HH,Scottish and Southern Energy PLC,01/04/2016,30/06/2016,1,,,2199053.3,,,,,,Flexible Contract,Tender Completed,No,Yes,00106078_3m
Elec,2881,Nationwide Building Society,,Nationwide Building Society - 2316510138010,1 Tyrell Street,,Bradford,BD1 1LH,Tamas Gyomber,Richard Bailey,LV  ,140,0,845,281,2316510138010,HH,Scottish and Southern Energy PLC,01/04/2016,30/06/2016,1,,,1885.8,,,,,,Flexible Contract,Tender Completed,No,Yes,00106078_3m
Elec,2881,Nationwide Building Society,,Nationwide Building Society - 2000027107480,37  SALISBURY Street    ,AMESBURY,SALISBURY,SP4 7AW,Tamas Gyomber,Richard Bailey,LV  ,1,3,801,126,2000027107480,NHH,Scottish and Southern Energy PLC,01/04/2016,30/06/2016,1,,,1879.5,,,,,,Flexible Contract,Tender Completed,No,Yes,00106078_3m
Elec,2881,Nationwide Building Society,,Nationwide Building Society - 1300006360775,35-37 Milton Pavement,Birkenhead,Merseyside,CH41 2YA,Tamas Gyomber,Richard Bailey,LV  ,1,3,801,201,1300006360775,NHH,Scottish and Southern Energy PLC,01/04/2016,30/06/2016,1,,,46069,,,,,,Flexible Contract,Tender Completed,No,Yes,00106078_3m
Elec,2881,Nationwide Building Society,,Nationwide Building Society - 1100001257648,17 North St,Bourne,Lincolnshire,PE10 9AE,Tamas Gyomber,Richard Bailey,LV  ,1,4,830,37,1100001257648,NHH,Scottish and Southern Energy PLC,01/04/2016,30/06/2016,1,,,19492.8,,,,,,Flexible Contract,Tender Completed,No,Yes,00106078_3m
Elec,2881,Nationwide Building Society,,Nationwide Building Society - 1100008110287,36-38 Rose Hill,Chesterfield,Derbyshire,S40 1LR,Tamas Gyomber,Richard Bailey,LV  ,1,3,801,13,1100008110287,NHH,Scottish and Southern Energy PLC,01/04/2016,30/06/2016,1,,,1898.6,,,,,,Flexible Contract,Tender Completed,No,Yes,00106078_3m
Elec,2881,Nationwide Building Society,,Nationwide Building Society - 1410570340008,"Unit 1 Avon House, Market Place",Cannock,Staffordshire,WS11 1AG,Tamas Gyomber,Richard Bailey,LV  ,1,3,801,7,1410570340008,NHH,Scottish and Southern Energy PLC,01/04/2016,30/06/2016,1,,,63471.5,,,,,,Flexible Contract,Tender Completed,No,Yes,00106078_3m
Elec,2881,Nationwide Building Society,,Nationwide Building Society - 2000012788894,"Unit 8 Bishops Walk, 16-18 Cricklade Street",Cirencester,Gloucestershire,GL7 1JH,Tamas Gyomber,Richard Bailey,LV  ,1,4,111,136,2000012788894,NHH,Scottish and Southern Energy PLC,01/04/2016,30/06/2016,1,,,6150.3,,,,,,Flexible Contract,Tender Completed,No,Yes,00106078_3m
Elec,2881,Nationwide Building Society,,Nationwide Building Society - 2336591831011,21a-27 St Sepulchre Gate,Doncaster,South Yorkshire,DN1 1TD,Tamas Gyomber,Richard Bailey,LV  ,1,6,808,290,2336591831011,NHH,Scottish and Southern Energy PLC,01/04/2016,30/06/2016,1,,,70057,,,,,,Flexible Contract,Tender Completed,No,Yes,00106078_3m
Elec,2881,Nationwide Building Society,,Nationwide Building Society - 1716011151605,59 Reform St,Dundee,Tayside,DD1 1TF,Tamas Gyomber,Richard Bailey,LV  ,1,3,500,350,1716011151605,NHH,Scottish and Southern Energy PLC,01/04/2016,30/06/2016,1,,,1,,,,,,Flexible Contract,Tender Completed,No,Yes,00106078_3m
Elec,2881,Nationwide Building Society,,Nationwide Building Society - 1200040023904,156 Eltham High Street,Eltham,London,SE9 1BJ,Tamas Gyomber,Richard Bailey,LV  ,1,3,801,952,1200040023904,NHH,Scottish and Southern Energy PLC,01/04/2016,30/06/2016,1,,,14697.6,,,,,,Flexible Contract,Tender Completed,No,Yes,00106078_3m
Elec,2881,Nationwide Building Society,,Nationwide Building Society - 2000027840223,8 Market Place,Frome,Somerset,BA11 1AB,Tamas Gyomber,Richard Bailey,LV  ,1,3,801,126,2000027840223,NHH,Scottish and Southern Energy PLC,01/04/2016,30/06/2016,1,,,520.7,,,,,,Flexible Contract,Tender Completed,No,Yes,00106078_3m
Elec,2881,Nationwide Building Society,,Nationwide Building Society - 2000027840214,8 Market Place,Frome,Somerset,BA11 1AB,Tamas Gyomber,Richard Bailey,LV  ,1,2,805,104,2000027840214,NHH,Scottish and Southern Energy PLC,01/04/2016,30/06/2016,1,,,3889.8,,,,,,Flexible Contract,Tender Completed,No,Yes,00106078_3m
Elec,2881,Nationwide Building Society,,Nationwide Building Society - 1200038395926,498-504 Fulham Rd Grayton House,Fulham ,London,SW6 5NH,Tamas Gyomber,Richard Bailey,LV  ,1,3,7,960,1200038395926,NHH,Scottish and Southern Energy PLC,01/04/2016,30/06/2016,1,,,60737.6,,,,,,Flexible Contract,Tender Completed,No,Yes,00106078_3m
Elec,2881,Nationwide Building Society,,Nationwide Building Society - 1610000045071,The Observatory Prt 2nd Flr 6th flr,Chapel Walks,Manchester,M2 1HL,Tamas Gyomber,Richard Bailey,LV  ,1,3,801,131,1610000045071,NHH,Scottish and Southern Energy PLC,01/04/2016,30/06/2016,1,,,41681.5,,,,,,Flexible Contract,Tender Completed,No,Yes,00106078_3m
Elec,2881,Nationwide Building Society,,Nationwide Building Society - 1600000004176,41-41a Fishergate,Preston,Lancashire,PR1 2AD,Tamas Gyomber,Richard Bailey,LV  ,1,6,808,751,1600000004176,NHH,Scottish and Southern Energy PLC,01/04/2016,30/06/2016,1,,,106251.4,,,,,,Flexible Contract,Tender Completed,No,Yes,00106078_3m
Elec,2881,Nationwide Building Society,,Nationwide Building Society - 2000055216914,22 Friar St 1 STATION RD,Reading,Berkshire,RG1 1LG,Tamas Gyomber,Richard Bailey,LV  ,1,3,801,127,2000055216914,NHH,Scottish and Southern Energy PLC,01/04/2016,30/06/2016,1,,,1,,,,,,Flexible Contract,Tender Completed,No,Yes,00106078_3m
Elec,2881,Nationwide Building Society,,Nationwide Building Society - 2000027484493,19-21 Old George Mall and 49-51 New Canal,Salisbury,Wiltshire,SP1 2AF,Tamas Gyomber,Richard Bailey,LV  ,1,5,802,400,2000027484493,NHH,Scottish and Southern Energy PLC,01/04/2016,30/06/2016,1,,,16766.2,,,,,,Flexible Contract,Tender Completed,No,Yes,00106078_3m
Elec,2881,Nationwide Building Society,,Nationwide Building Society - 2000026729107,19-21 Old George Mall and 49-51 New Canal,Salisbury,Wiltshire,SP1 2AF,Tamas Gyomber,Richard Bailey,LV  ,1,3,801,127,2000026729107,NHH,Scottish and Southern Energy PLC,01/04/2016,30/06/2016,1,,,3098,,,,,,Flexible Contract,Tender Completed,No,Yes,00106078_3m
Elec,2881,Nationwide Building Society,,Nationwide Building Society - 2000053678914,Wakefield House grd Flr,"Aspect Park, Pipers Way",Swindon,SN3 1RE,Tamas Gyomber,Richard Bailey,LV  ,1,3,801,127,2000053678914,NHH,Scottish and Southern Energy PLC,01/04/2016,30/06/2016,1,,,95952.3,,,,,,Flexible Contract,Tender Completed,No,Yes,00106078_3m
Elec,2881,Nationwide Building Society,,Nationwide Building Society - 1591015010334,Galleries Shopping Centre,Washington,Tyne & Wear,NE38 7SD,Tamas Gyomber,Richard Bailey,LV  ,1,7,801,256,1591015010334,NHH,Scottish and Southern Energy PLC,01/04/2016,30/06/2016,1,,,42063.5,,,,,,Flexible Contract,Tender Completed,No,Yes,00106078_3m
Elec,2881,Nationwide Building Society,,Nationwide Building Society - 1800036577679,51 Princes mall,East kilbride,,G74 1LB,Tamas Gyomber,Richard Bailey,LV  ,1,7,802,400,1800036577679,NHH,Scottish and Southern Energy PLC,01/04/2016,30/06/2016,1,,,1,,,,,,Flexible Contract,Tender Completed,No,Yes,00106078_3m
Elec,2881,Nationwide Building Society,,Nationwide Building Society - 1610000045062,"The Observatory Prt 2nd Flr 6th flr, chapel walks",,Manchester,M2 1HL,Tamas Gyomber,Richard Bailey,LV  ,1,3,801,631,1610000045062,NHH,Scottish and Southern Energy PLC,01/04/2016,30/06/2016,1,,,1,,,,,,Flexible Contract,Tender Completed,No,Yes,00106078_3m
Elec,2881,Nationwide Building Society,,Nationwide Building Society - 2000053678905,"Wakefield house Ground floor, Aspect house, pipers way",,Swindon,SN3 1RE,Tamas Gyomber,Richard Bailey,LV  ,1,8,801,400,2000053678905,NHH,Scottish and Southern Energy PLC,01/04/2016,30/06/2016,1,,,1,,,,,,Flexible Contract,Tender Completed,No,Yes,00106078_3m
