fuel,site_id,supplier_name,start_date,end_date,rate_allunit,rate_day,rate_night,usage_allunit,usage_day,usage_night,standingcharge_month,commission_kwh,commission_year,contract_type,tender_status,termination_optout,registration_confirmed,contract_id
Elec,33224,Npower Limited,01/05/2016,31/03/2021,1,,,4908564.4,,,,,,Flexible Contract,Tender Completed,No,Yes,WaltDisney_59months
Elec,33219,Npower Limited,01/05/2016,31/03/2021,1,,,1376415.5,,,,,,Flexible Contract,Tender Completed,No,Yes,WaltDisney_59months
Elec,33218,Npower Limited,01/05/2016,31/03/2021,1,,,3760318.5,,,,,,Flexible Contract,Tender Completed,No,Yes,WaltDisney_59months
Elec,33189,Npower Limited,01/05/2016,31/03/2021,1,,,461065.8,,,,,,Flexible Contract,Tender Completed,No,Yes,WaltDisney_59months
Elec,33296,Npower Limited,01/05/2016,31/03/2021,1,,,1050590.2,,,,,,Flexible Contract,Tender Completed,No,Yes,WaltDisney_59months
Elec,19978,Npower Limited,01/05/2016,31/03/2021,1,,,182917.1,,,,,,Flexible Contract,Tender Completed,No,Yes,WaltDisney_59months
Elec,33221,Npower Limited,01/05/2016,31/03/2021,1,,,231282.8,,,,,,Flexible Contract,Tender Completed,No,Yes,WaltDisney_59months
Elec,33222,Npower Limited,01/05/2016,31/03/2021,1,,,2801662,,,,,,Flexible Contract,Tender Completed,No,Yes,WaltDisney_59months
Elec,33183,Npower Limited,01/05/2016,31/03/2021,1,,,154847,,,,,,Flexible Contract,Tender Completed,No,Yes,WaltDisney_59months
Elec,33184,Npower Limited,01/05/2016,31/03/2021,1,,,101123,,,,,,Flexible Contract,Tender Completed,No,Yes,WaltDisney_59months
Elec,33188,Npower Limited,01/05/2016,31/03/2021,1,,,43439,,,,,,Flexible Contract,Tender Completed,No,Yes,WaltDisney_59months
Elec,33195,Npower Limited,01/05/2016,31/03/2021,1,,,95229,,,,,,Flexible Contract,Tender Completed,No,Yes,WaltDisney_59months
Elec,33198,Npower Limited,01/05/2016,31/03/2021,1,,,128949,,,,,,Flexible Contract,Tender Completed,No,Yes,WaltDisney_59months
Elec,33203,Npower Limited,01/05/2016,31/03/2021,1,,,89,,,,,,Flexible Contract,Tender Completed,No,Yes,WaltDisney_59months
Elec,33214,Npower Limited,01/05/2016,31/03/2021,1,,,210106,,,,,,Flexible Contract,Tender Completed,No,Yes,WaltDisney_59months
Elec,33181,Npower Limited,01/05/2016,31/03/2021,1,,,226257,,,,,,Flexible Contract,Tender Completed,No,Yes,WaltDisney_59months
Elec,33182,Npower Limited,01/05/2016,31/03/2021,1,,,150073,,,,,,Flexible Contract,Tender Completed,No,Yes,WaltDisney_59months
Elec,33185,Npower Limited,01/05/2016,31/03/2021,1,,,122061,,,,,,Flexible Contract,Tender Completed,No,Yes,WaltDisney_59months
Elec,33186,Npower Limited,01/05/2016,31/03/2021,1,,,121560,,,,,,Flexible Contract,Tender Completed,No,Yes,WaltDisney_59months
Elec,40734,Npower Limited,01/05/2016,31/03/2021,1,,,112258,,,,,,Flexible Contract,Tender Completed,No,Yes,WaltDisney_59months
Elec,33190,Npower Limited,01/05/2016,31/03/2021,1,,,111559,,,,,,Flexible Contract,Tender Completed,No,Yes,WaltDisney_59months
Elec,33191,Npower Limited,01/05/2016,31/03/2021,1,,,107797,,,,,,Flexible Contract,Tender Completed,No,Yes,WaltDisney_59months
Elec,33192,Npower Limited,01/05/2016,31/03/2021,1,,,90114,,,,,,Flexible Contract,Tender Completed,No,Yes,WaltDisney_59months
Elec,33193,Npower Limited,01/05/2016,31/03/2021,1,,,211122,,,,,,Flexible Contract,Tender Completed,No,Yes,WaltDisney_59months
Elec,33194,Npower Limited,01/05/2016,31/03/2021,1,,,136314,,,,,,Flexible Contract,Tender Completed,No,Yes,WaltDisney_59months
Elec,33196,Npower Limited,01/05/2016,31/03/2021,1,,,95300,,,,,,Flexible Contract,Tender Completed,No,Yes,WaltDisney_59months
Elec,33197,Npower Limited,01/05/2016,31/03/2021,1,,,249407,,,,,,Flexible Contract,Tender Completed,No,Yes,WaltDisney_59months
Elec,33199,Npower Limited,01/05/2016,31/03/2021,1,,,171978,,,,,,Flexible Contract,Tender Completed,No,Yes,WaltDisney_59months
Elec,33200,Npower Limited,01/05/2016,31/03/2021,1,,,136060,,,,,,Flexible Contract,Tender Completed,No,Yes,WaltDisney_59months
Elec,33201,Npower Limited,01/05/2016,31/03/2021,1,,,80861,,,,,,Flexible Contract,Tender Completed,No,Yes,WaltDisney_59months
Elec,33205,Npower Limited,01/05/2016,31/03/2021,1,,,205769,,,,,,Flexible Contract,Tender Completed,No,Yes,WaltDisney_59months
Elec,33209,Npower Limited,01/05/2016,31/03/2021,1,,,108760,,,,,,Flexible Contract,Tender Completed,No,Yes,WaltDisney_59months
Elec,33210,Npower Limited,01/05/2016,31/03/2021,1,,,83515,,,,,,Flexible Contract,Tender Completed,No,Yes,WaltDisney_59months
Elec,33213,Npower Limited,01/05/2016,31/03/2021,1,,,188515,,,,,,Flexible Contract,Tender Completed,No,Yes,WaltDisney_59months
