fuel,customer_id,customer_name,site_id,site_name,address_1,address_2,address_3,postcode,country,analyst_name,accountmanager_name,meter,read_frequency,supplier_name,start_date,end_date,rate_allunit,rate_day,rate_night,usage_allunit,usage_day,usage_night,standingcharge_month,commission_kwh,commission_year,contract_type,tender_status,termination_optout,registration_confirmed,contract_id
gas,3139,Arriva Rail North Limited,,NEWTON LE WILLOWS STATION GAS,   ,   ,   ,WA12 0BU,United Kingdom,Paula Stevens,Wilma Kinniburgh,1498366209,NDM,Gazprom M and T Limited,01/04/2016,30/09/2016,1.485,,,16375,,,284.17002,,,Fixed Contract,Tender Complete,No,Yes,105227
gas,3139,Arriva Rail North Limited,,WIGAN WALLGATE STATION GAS,   ,   ,   ,WN1 1BB,United Kingdom,Paula Stevens,Wilma Kinniburgh,1513154710,NDM,Gazprom M and T Limited,01/04/2016,30/09/2016,1.485,,,69547,,,781.820145,,,Fixed Contract,Tender Complete,No,Yes,105227
gas,3139,Arriva Rail North Limited,,NEVILLE HILL STATION MPD GAS,   ,   ,   ,LS9 9BJ,United Kingdom,Paula Stevens,Wilma Kinniburgh,6142107,NDM,Gazprom M and T Limited,01/04/2016,30/09/2016,1.485,,,8958815,,,35442.00078,,,Fixed Contract,Tender Complete,No,Yes,105227
gas,3139,Arriva Rail North Limited,,BUXTON STATION GAS,   ,   ,   ,SK17 6AQ,United Kingdom,Paula Stevens,Wilma Kinniburgh,6453102,NDM,Gazprom M and T Limited,01/04/2016,30/09/2016,1.485,,,145804,,,1254.04875,,,Fixed Contract,Tender Complete,No,Yes,105227
gas,3139,Arriva Rail North Limited,,EDGE HILL STATION GAS,   ,   ,   ,L7 6ND,United Kingdom,Paula Stevens,Wilma Kinniburgh,6454003,NDM,Gazprom M and T Limited,01/04/2016,30/09/2016,1.485,,,137538,,,1142.16165,,,Fixed Contract,Tender Complete,No,Yes,105227
gas,3139,Arriva Rail North Limited,,VICTORIA STATION HUNTS BANK GAS,   ,   ,   ,M3 1PB,United Kingdom,Paula Stevens,Wilma Kinniburgh,6459305,NDM,Gazprom M and T Limited,01/04/2016,30/09/2016,1.485,,,178983,,,1462.55208,,,Fixed Contract,Tender Complete,No,Yes,105227
gas,3139,Arriva Rail North Limited,,BLACKBURN STATION GAS,   ,   ,   ,BB1 1EY,United Kingdom,Paula Stevens,Wilma Kinniburgh,6510806,NDM,Gazprom M and T Limited,01/04/2016,30/09/2016,1.485,,,1,,,607.10523,,,Fixed Contract,Tender Complete,No,Yes,105227
gas,3139,Arriva Rail North Limited,,NEWTON HEATH TMD GAS,,,,M40 3AB,United Kingdom,Paula Stevens,Wilma Kinniburgh,6525606,NDM,Gazprom M and T Limited,01/04/2016,30/09/2016,1.485,,,501982,,,3621.14456,,,Fixed Contract,Tender Complete,No,Yes,105227
gas,3139,Arriva Rail North Limited,,MORPETH STATION GAS,   ,   ,   ,NE61 6JN,United Kingdom,Paula Stevens,Wilma Kinniburgh,6991310,NDM,Gazprom M and T Limited,01/04/2016,30/09/2016,1.485,,,1,,,149.071475,,,Fixed Contract,Tender Complete,No,Yes,105227
gas,3139,Arriva Rail North Limited,,SUNDERLAND STATION GAS,Railway Station,Athenaeum Street,SUNDERLAND,SR1 3HP,United Kingdom,Paula Stevens,Wilma Kinniburgh,7106501,NDM,Gazprom M and T Limited,01/04/2016,30/09/2016,1.485,,,1,,,99.44425,,,Fixed Contract,Tender Complete,No,Yes,105227
gas,3139,Arriva Rail North Limited,,BLACKPOOL NORTH STATION GAS,   ,   ,   ,FY1 2AB,United Kingdom,Paula Stevens,Wilma Kinniburgh,7208700,NDM,Gazprom M and T Limited,01/04/2016,30/09/2016,1.485,,,374127,,,2940.214065,,,Fixed Contract,Tender Complete,No,Yes,105227
gas,3139,Arriva Rail North Limited,,HARROGATES STATION GAS,   ,   ,   ,HG1 1TE,United Kingdom,Paula Stevens,Wilma Kinniburgh,7513806,NDM,Gazprom M and T Limited,01/04/2016,30/09/2016,1.485,,,194745,,,1514.020365,,,Fixed Contract,Tender Complete,No,Yes,105227
gas,3139,Arriva Rail North Limited,,SKIPTON RAILWAY STATION GAS,   ,   ,   ,BD23 1RT,United Kingdom,Paula Stevens,Wilma Kinniburgh,9936205,NDM,Gazprom M and T Limited,01/04/2016,30/09/2016,1.485,,,127124,,,1041.1041,,,Fixed Contract,Tender Complete,No,Yes,105227
gas,3139,Arriva Rail North Limited,,NEWCASTLE UPON TYNE GAS,   ,   ,   ,NE6 2XT,United Kingdom,Paula Stevens,Wilma Kinniburgh,20208710,NDM,Gazprom M and T Limited,01/04/2016,30/09/2016,1.485,,,2243945,,,15405.93387,,,Fixed Contract,Tender Complete,No,Yes,105227
gas,3139,Arriva Rail North Limited,,ROCHDALE STATION GAS,   ,   ,   ,OL11 1DR,United Kingdom,Paula Stevens,Wilma Kinniburgh,53632802,NDM,Gazprom M and T Limited,01/04/2016,30/09/2016,1.485,,,2270,,,168.86287,,,Fixed Contract,Tender Complete,No,Yes,105227
gas,3139,Arriva Rail North Limited,,BURNLEY CENTRAL STATION GAS,   ,   ,   ,BB11 1DA,United Kingdom,Paula Stevens,Wilma Kinniburgh,53961103,NDM,Gazprom M and T Limited,01/04/2016,30/09/2016,1.485,,,81739,,,726.809535,,,Fixed Contract,Tender Complete,No,Yes,105227
gas,3139,Arriva Rail North Limited,,NEWTON HEATH TMD GAS,   ,   ,   ,M40 5BN,United Kingdom,Paula Stevens,Wilma Kinniburgh,54496309,NDM,Gazprom M and T Limited,01/04/2016,30/09/2016,1.485,,,142453,,,1148.3338,,,Fixed Contract,Tender Complete,No,Yes,105227
gas,3139,Arriva Rail North Limited,,WILMSLOW STATION GAS,   ,   ,   ,SK9 1BU,United Kingdom,Paula Stevens,Wilma Kinniburgh,63396306,NDM,Gazprom M and T Limited,01/04/2016,30/09/2016,1.485,,,1,,,124.213515,,,Fixed Contract,Tender Complete,No,Yes,105227
gas,3139,Arriva Rail North Limited,,WHITEHAVEN STATION GAS,   ,   ,   ,CA28 6AX,United Kingdom,Paula Stevens,Wilma Kinniburgh,72553802,NDM,Gazprom M and T Limited,01/04/2016,30/09/2016,1.485,,,59424,,,677.09398,,,Fixed Contract,Tender Complete,No,Yes,105227
gas,3139,Arriva Rail North Limited,,WORKINGTON STATION GAS,   ,   ,   ,CA14 2XE,United Kingdom,Paula Stevens,Wilma Kinniburgh,72554108,NDM,Gazprom M and T Limited,01/04/2016,30/09/2016,1.485,,,1,,,97.47325,,,Fixed Contract,Tender Complete,No,Yes,105227
gas,3139,Arriva Rail North Limited,,KNUTSFORD STATION GAS,   ,   ,   ,WA16 6DN,United Kingdom,Paula Stevens,Wilma Kinniburgh,75240807,NDM,Gazprom M and T Limited,01/04/2016,30/09/2016,1.485,,,62283,,,721.8605,,,Fixed Contract,Tender Complete,No,Yes,105227
gas,3139,Arriva Rail North Limited,,WIGAN WALLGATE STATION GAS,   ,   ,   ,WN1 1BB,United Kingdom,Paula Stevens,Wilma Kinniburgh,75241102,NDM,Gazprom M and T Limited,01/04/2016,30/09/2016,1.485,,,54344,,,683.00479,,,Fixed Contract,Tender Complete,No,Yes,105227
gas,3139,Arriva Rail North Limited,,BOLTON STATION GAS,   ,   ,   ,BL2 1BE,United Kingdom,Paula Stevens,Wilma Kinniburgh,76291908,NDM,Gazprom M and T Limited,01/04/2016,30/09/2016,1.485,,,710848,,,4136.36104,,,Fixed Contract,Tender Complete,No,Yes,105227
gas,3139,Arriva Rail North Limited,,CHORLEY STATION GAS,   ,   ,   ,PR7 1BS,United Kingdom,Paula Stevens,Wilma Kinniburgh,77516305,NDM,Gazprom M and T Limited,01/04/2016,30/09/2016,1.485,,,40761,,,524.80722,,,Fixed Contract,Tender Complete,No,Yes,105227
gas,3139,Arriva Rail North Limited,,OXFORD RD STATION GAS,   ,   ,   ,M1 6FU,United Kingdom,Paula Stevens,Wilma Kinniburgh,78325202,NDM,Gazprom M and T Limited,01/04/2016,30/09/2016,1.485,,,121120,,,1009.3491,,,Fixed Contract,Tender Complete,No,Yes,105227
gas,3139,Arriva Rail North Limited,,WALKDEN STATION GAS,   ,   ,   ,M28 1OT,United Kingdom,Paula Stevens,Wilma Kinniburgh,1459346801,NDM,Gazprom M and T Limited,01/04/2016,30/09/2016,1.485,,,976,,,105.370755,,,Fixed Contract,Tender Complete,No,Yes,105227
gas,3139,Arriva Rail North Limited,,DAISY HILL STATION GAS,   ,   ,   ,BL5 2JQ,United Kingdom,Paula Stevens,Wilma Kinniburgh,1464357506,NDM,Gazprom M and T Limited,01/04/2016,30/09/2016,1.485,,,1,,,97.471425,,,Fixed Contract,Tender Complete,No,Yes,105227
gas,3139,Arriva Rail North Limited,,THATTO HEATH STATION GAS,   ,   ,   ,WA9 5PE,United Kingdom,Paula Stevens,Wilma Kinniburgh,1494075604,NDM,Gazprom M and T Limited,01/04/2016,30/09/2016,1.485,,,7100,,,166.410435,,,Fixed Contract,Tender Complete,No,Yes,105227
gas,3139,Arriva Rail North Limited,,ST HELENS JCT STATION GAS,   ,   ,   ,WA9 3LA,United Kingdom,Paula Stevens,Wilma Kinniburgh,1495239400,NDM,Gazprom M and T Limited,01/04/2016,30/09/2016,1.485,,,1,,,149.09009,,,Fixed Contract,Tender Complete,No,Yes,105227
gas,3139,Arriva Rail North Limited,,LITTLEBOROUGH RAILWAY STATION GAS,   ,   ,   ,OL15 8AF,United Kingdom,Paula Stevens,Wilma Kinniburgh,1531510809,NDM,Gazprom M and T Limited,01/04/2016,30/09/2016,1.485,,,1,,,123.35394,,,Fixed Contract,Tender Complete,No,Yes,105227
gas,3139,Arriva Rail North Limited,,URMSTON STATION GAS,   ,   ,   ,M41 9SB,United Kingdom,Paula Stevens,Wilma Kinniburgh,1579930908,NDM,Gazprom M and T Limited,01/04/2016,30/09/2016,1.485,,,13135,,,225.419985,,,Fixed Contract,Tender Complete,No,Yes,105227
gas,3139,Arriva Rail North Limited,,ALDERLEY EDGE STATION GAS,   ,   ,   ,SK9 7QB,United Kingdom,Paula Stevens,Wilma Kinniburgh,1588502506,NDM,Gazprom M and T Limited,01/04/2016,30/09/2016,1.485,,,1,,,105.67115,,,Fixed Contract,Tender Complete,No,Yes,105227
gas,3139,Arriva Rail North Limited,,HEATON CHAPEL STATION GAS,   ,   ,   ,SK4 4NX,United Kingdom,Paula Stevens,Wilma Kinniburgh,1590325610,NDM,Gazprom M and T Limited,01/04/2016,30/09/2016,1.485,,,4804,,,143.824235,,,Fixed Contract,Tender Complete,No,Yes,105227
gas,3139,Arriva Rail North Limited,,ROSE HILL STATION GAS,   ,   ,   ,SK6 6DN,United Kingdom,Paula Stevens,Wilma Kinniburgh,1593540001,NDM,Gazprom M and T Limited,01/04/2016,30/09/2016,1.485,,,1,,,124.213515,,,Fixed Contract,Tender Complete,No,Yes,105227
gas,3139,Arriva Rail North Limited,,DAVENPORT STATION GAS,   ,   ,   ,SK3 8SA,United Kingdom,Paula Stevens,Wilma Kinniburgh,1595071608,NDM,Gazprom M and T Limited,01/04/2016,30/09/2016,1.485,,,1,,,97.17614,,,Fixed Contract,Tender Complete,No,Yes,105227
gas,3139,Arriva Rail North Limited,,NEW MILLS CENTRAL STATION GAS,   ,   ,   ,SK22 3JB,United Kingdom,Paula Stevens,Wilma Kinniburgh,1603253500,NDM,Gazprom M and T Limited,01/04/2016,30/09/2016,1.485,,,1,,,97.17614,,,Fixed Contract,Tender Complete,No,Yes,105227
gas,3139,Arriva Rail North Limited,,NEWTON FOR HYDE GAS,   ,   ,   ,SK14 2JP,United Kingdom,Paula Stevens,Wilma Kinniburgh,1606372209,NDM,Gazprom M and T Limited,01/04/2016,30/09/2016,1.485,,,1,,,97.49369,,,Fixed Contract,Tender Complete,No,Yes,105227
gas,3139,Arriva Rail North Limited,,MOSSLEY STATION GAS,   ,   ,   ,OL5 0AB,United Kingdom,Paula Stevens,Wilma Kinniburgh,1612035109,NDM,Gazprom M and T Limited,01/04/2016,30/09/2016,1.485,,,23700,,,355.77426,,,Fixed Contract,Tender Complete,No,Yes,105227
gas,3139,Arriva Rail North Limited,,DEANSGATE STATION GAS,   ,   ,   ,M3 4LG,United Kingdom,Paula Stevens,Wilma Kinniburgh,1643169008,NDM,Gazprom M and T Limited,01/04/2016,30/09/2016,1.485,,,1,,,124.213515,,,Fixed Contract,Tender Complete,No,Yes,105227
gas,3139,Arriva Rail North Limited,,LEVENSHULME STATION GAS,   ,   ,   ,M19 3PJ,United Kingdom,Paula Stevens,Wilma Kinniburgh,1651599602,NDM,Gazprom M and T Limited,01/04/2016,30/09/2016,1.485,,,18773,,,284.964625,,,Fixed Contract,Tender Complete,No,Yes,105227
gas,3139,Arriva Rail North Limited,,MOORSIDE AND WARDLEY STATION GAS,   ,   ,   ,M27 9PN,United Kingdom,Paula Stevens,Wilma Kinniburgh,1656784510,NDM,Gazprom M and T Limited,01/04/2016,30/09/2016,1.485,,,1,,,124.19125,,,Fixed Contract,Tender Complete,No,Yes,105227
gas,3139,Arriva Rail North Limited,,HUYTON STATION GAS,   ,   ,   ,L36 5XE,United Kingdom,Paula Stevens,Wilma Kinniburgh,1675497200,NDM,Gazprom M and T Limited,01/04/2016,30/09/2016,1.485,,,1,,,97.471425,,,Fixed Contract,Tender Complete,No,Yes,105227
gas,3139,Arriva Rail North Limited,,PRESCOT STATION GAS,   ,   ,   ,L34 5SY,United Kingdom,Paula Stevens,Wilma Kinniburgh,1678239305,NDM,Gazprom M and T Limited,01/04/2016,30/09/2016,1.485,,,1,,,97.471425,,,Fixed Contract,Tender Complete,No,Yes,105227
gas,3139,Arriva Rail North Limited,,ILKLEY STATION GAS,   ,   ,   ,LS29 8HF,United Kingdom,Paula Stevens,Wilma Kinniburgh,1814428703,NDM,Gazprom M and T Limited,01/04/2016,30/09/2016,1.485,,,29696,,,367.21336,,,Fixed Contract,Tender Complete,No,Yes,105227
gas,3139,Arriva Rail North Limited,,MENSTON RAILWAY STATION GAS,,STATION ROAD,MENSTON,LS29 6JH,United Kingdom,Paula Stevens,Wilma Kinniburgh,1816348401,NDM,Gazprom M and T Limited,01/04/2016,30/09/2016,1.485,,,21131,,,333.577515,,,Fixed Contract,Tender Complete,No,Yes,105227
gas,3139,Arriva Rail North Limited,,PUDSEY STATION GAS,   ,   ,   ,LS28 6QG,United Kingdom,Paula Stevens,Wilma Kinniburgh,1831363002,NDM,Gazprom M and T Limited,01/04/2016,30/09/2016,1.485,,,29943,,,368.397785,,,Fixed Contract,Tender Complete,No,Yes,105227
gas,3139,Arriva Rail North Limited,,WORKSOP STATION GAS,   ,   ,   ,S81 7AG,United Kingdom,Paula Stevens,Wilma Kinniburgh,2118733507,NDM,Gazprom M and T Limited,01/04/2016,30/09/2016,1.485,,,38357,,,433.00461,,,Fixed Contract,Tender Complete,No,Yes,105227
gas,3139,Arriva Rail North Limited,,ROBY STATION GAS,   ,   ,   ,L36 4HU,United Kingdom,Paula Stevens,Wilma Kinniburgh,8813700105,NDM,Gazprom M and T Limited,01/04/2016,30/09/2016,1.485,,,15326,,,247.405395,,,Fixed Contract,Tender Complete,No,Yes,105227
gas,3139,Arriva Rail North Limited,,HULL GAS,G8126018,HULL BOTANIC GARDENS,KIMBERLEY STREET,HU3 1HH,United Kingdom,Paula Stevens,Wilma Kinniburgh,9149309709,NDM,Gazprom M and T Limited,01/04/2016,30/09/2016,1.485,,,476056,,,3147.615095,,,Fixed Contract,Tender Complete,No,Yes,105227
gas,3139,Arriva Rail North Limited,,BLACKPOOL NORTH TMD-ENFIELD RD GAS 009,,,,FY1 2RB,United Kingdom,Paula Stevens,Wilma Kinniburgh,8831447009,NDM,Gazprom M and T Limited,01/04/2016,30/09/2016,1.485,,,1,,,97.471425,,,Fixed Contract,Tender Complete,No,Yes,105227
gas,3139,Arriva Rail North Limited,,BLACKPOOL NORTH TMD-ENFIELD RD GAS 110,,,,FY1 2RB,United Kingdom,Paula Stevens,Wilma Kinniburgh,8831447110,NDM,Gazprom M and T Limited,01/04/2016,30/09/2016,1.485,,,84154,,,743.435285,,,Fixed Contract,Tender Complete,No,Yes,105227
gas,3139,Arriva Rail North Limited,,STATION MANAGERS OFFICE GAS 606,,,,M3 1PB,United Kingdom,Paula Stevens,Wilma Kinniburgh,6458606,NDM,Gazprom M and T Limited,01/04/2016,30/09/2016,1.485,,,1064659,,,6664.150655,,,Fixed Contract,Tender Complete,No,Yes,105227
gas,3139,Arriva Rail North Limited,,STATION MANAGERS OFFICE GAS 103,,,,M3 1PB,United Kingdom,Paula Stevens,Wilma Kinniburgh,6459103,NDM,Gazprom M and T Limited,01/04/2016,30/09/2016,1.485,,,1,,,181.38675,,,Fixed Contract,Tender Complete,No,Yes,105227
gas,3139,Arriva Rail North Limited,,WEST YORKSHIRE GAS,SHIPLEY RAILWAY STATION,STATION ROAD,SHIPLEY,BD18 2JL,United Kingdom,Paula Stevens,Wilma Kinniburgh,8838249007,NDM,Gazprom M and T Limited,01/04/2016,30/09/2016,1.485,,,20876,,,286.67246,,,Fixed Contract,Tender Complete,No,Yes,105227
gas,3139,Arriva Rail North Limited,,NOTTINGHAMSHIRE GAS,PASS STATION WORKSOP,CARLTON ROAD,WORKSOP,S81 7AG,United Kingdom,Paula Stevens,Wilma Kinniburgh,2118733406,NDM,Gazprom M and T Limited,01/04/2016,30/09/2016,1.485,,,92534,,,632.749035,,,Fixed Contract,Tender Complete,No,Yes,105227
gas,3139,Arriva Rail North Limited,,NORTHUMBERLAND GAS,THE TICKET OFFICE,HALTWHISTLE STATION,HALTWHISTLE,NE49 9HN,United Kingdom,Paula Stevens,Wilma Kinniburgh,8828850403,NDM,Gazprom M and T Limited,01/04/2016,30/09/2016,1.485,,,4674,,,139.04091,,,Fixed Contract,Tender Complete,No,Yes,105227
gas,3139,Arriva Rail North Limited,,DERBYSHIRE GAS,WHALEY BRIDGE RAILWAY STATION,WHALEY BRIDGE,HIGH PEAK,SK23 7AA,United Kingdom,Paula Stevens,Wilma Kinniburgh,9297497910,NDM,Gazprom M and T Limited,01/04/2016,30/09/2016,1.485,,,13007,,,252.555545,,,Fixed Contract,Tender Complete,No,Yes,105227
gas,3139,Arriva Rail North Limited,,KEIGHLEY GAS,,,,BD21 4HP,United Kingdom,Paula Stevens,Wilma Kinniburgh,72293308,NDM,Gazprom M and T Limited,01/04/2016,30/09/2016,1.485,,,24241,,,343.667575,,,Fixed Contract,Tender Complete,No,Yes,105227
gas,3139,Arriva Rail North Limited,,1 VICTORIA STATION GAS,,,MANCHESTER,M3 1PB,United Kingdom,Paula Stevens,Wilma Kinniburgh,6459103,NDM,Gazprom M and T Limited,04/06/2016,30/09/2016,1.485,,,28000,,,404.03967,,,Fixed Contract,Tender Complete,No,Yes,105227
gas,3139,Arriva Rail North Limited,,GUIDE LANE GAS,,AUDENSHAW,MANCHESTER,M34 5HF,United Kingdom,Paula Stevens,Wilma Kinniburgh,6487501,NDM,Gazprom M and T Limited,04/06/2016,30/09/2016,1.485,,,28000,,,404.03967,,,Fixed Contract,Tender Complete,No,Yes,105227
gas,3139,Arriva Rail North Limited,,WOOLTON ROAD GAS,,GARSTON,LIVERPOOL,L19 5ND,United Kingdom,Paula Stevens,Wilma Kinniburgh,7141604,NDM,Gazprom M and T Limited,04/06/2016,30/09/2016,1.485,,,106098,,,1033.38581,,,Fixed Contract,Tender Complete,No,Yes,105227
gas,3139,Arriva Rail North Limited,,STATION ROAD GAS,,,KNARESBOROUGH,HG5 9AA,United Kingdom,Paula Stevens,Wilma Kinniburgh,1919474507,NDM,Gazprom M and T Limited,04/06/2016,30/09/2016,1.485,,,28000,,,404.03967,,,Fixed Contract,Tender Complete,No,Yes,105227
gas,3139,Arriva Rail North Limited,,ABBEY ROAD GAS,,,BARROW-IN-FURNESS,LA14 5QZ,United Kingdom,Paula Stevens,Wilma Kinniburgh,63426805,NDM,Gazprom M and T Limited,04/06/2016,30/09/2016,1.485,,,381780,,,3322.15554,,,Fixed Contract,Tender Complete,No,Yes,105227
gas,3139,Arriva Rail North Limited,,STATION APPROACH GAS,,,ULVERSTON,LA12 0DP,United Kingdom,Paula Stevens,Wilma Kinniburgh,75223706,NDM,Gazprom M and T Limited,04/06/2016,30/09/2016,1.485,,,28000,,,404.03967,,,Fixed Contract,Tender Complete,No,Yes,105227
gas,3139,Arriva Rail North Limited,,WINWICK STREET GAS,,,WARRINGTON,WA2 7TT,United Kingdom,Paula Stevens,Wilma Kinniburgh,49166700,NDM,Gazprom M and T Limited,04/06/2016,30/09/2016,1.485,,,28000,,,404.03967,,,Fixed Contract,Tender Complete,No,Yes,105227
gas,3139,Arriva Rail North Limited,,DEWHURST ROAD GAS,,BIRCHWOOD,WARRINGTON,WA3 7PU,United Kingdom,Paula Stevens,Wilma Kinniburgh,1506145404,NDM,Gazprom M and T Limited,04/06/2016,30/09/2016,1.485,,,28000,,,404.03967,,,Fixed Contract,Tender Complete,No,Yes,105227
