fuel,site_id,supplier_name,start_date,end_date,rate_allunit,rate_day,rate_night,usage_allunit,usage_day,usage_night,standingcharge_month,commission_kwh,commission_year,contract_type,tender_status,termination_optout,registration_confirmed,contract_id
Gas,11929,Total Gas & Power,01/04/2018,30/09/2019,1,,,58596,,,,,,Flexible Contract,Tender Completed,No,Yes,05163827_2018_2019
Gas,11936,Total Gas & Power,01/04/2018,30/09/2019,1,,,105066,,,,,,Flexible Contract,Tender Completed,No,Yes,05163827_2018_2019
Gas,11959,Total Gas & Power,01/04/2018,30/09/2019,1,,,24665,,,,,,Flexible Contract,Tender Completed,No,Yes,05163827_2018_2019
Gas,11963,Total Gas & Power,01/04/2018,30/09/2019,1,,,13896,,,,,,Flexible Contract,Tender Completed,No,Yes,05163827_2018_2019
Gas,12055,Total Gas & Power,01/04/2018,30/09/2019,1,,,150392,,,,,,Flexible Contract,Tender Completed,No,Yes,05163827_2018_2019
Gas,11928,Total Gas & Power,01/04/2018,30/09/2019,1,,,126631,,,,,,Flexible Contract,Tender Completed,No,Yes,05163827_2018_2019
Gas,11962,Total Gas & Power,01/04/2018,30/09/2019,1,,,48258,,,,,,Flexible Contract,Tender Completed,No,Yes,05163827_2018_2019
Gas,50325,Total Gas & Power,01/04/2018,30/09/2019,1,,,153723,,,,,,Flexible Contract,Tender Completed,No,Yes,05163827_2018_2019
Gas,11946,Total Gas & Power,01/04/2018,30/09/2019,1,,,351581,,,,,,Flexible Contract,Tender Completed,No,Yes,05163827_2018_2019
Gas,11923,Total Gas & Power,01/04/2018,30/09/2019,1,,,57711,,,,,,Flexible Contract,Tender Completed,No,Yes,05163827_2018_2019
Gas,11937,Total Gas & Power,01/04/2018,30/09/2019,1,,,47237,,,,,,Flexible Contract,Tender Completed,No,Yes,05163827_2018_2019
Gas,11965,Total Gas & Power,01/04/2018,30/09/2019,1,,,15865,,,,,,Flexible Contract,Tender Completed,No,Yes,05163827_2018_2019
Gas,11938,Total Gas & Power,01/04/2018,30/09/2019,1,,,74506,,,,,,Flexible Contract,Tender Completed,No,Yes,05163827_2018_2019
Gas,11964,Total Gas & Power,01/04/2018,30/09/2019,1,,,44768,,,,,,Flexible Contract,Tender Completed,No,Yes,05163827_2018_2019
Gas,42623,Total Gas & Power,01/04/2018,30/09/2019,1,,,116675,,,,,,Flexible Contract,Tender Completed,No,Yes,05163827_2018_2019
Gas,11944,Total Gas & Power,01/04/2018,30/09/2019,1,,,114460,,,,,,Flexible Contract,Tender Completed,No,Yes,05163827_2018_2019
Gas,41489,Total Gas & Power,01/04/2018,30/09/2019,1,,,103971,,,,,,Flexible Contract,Tender Completed,No,Yes,05163827_2018_2019
Gas,11943,Total Gas & Power,01/04/2018,30/09/2019,1,,,145482,,,,,,Flexible Contract,Tender Completed,No,Yes,05163827_2018_2019
Gas,11955,Total Gas & Power,01/04/2018,30/09/2019,1,,,103142,,,,,,Flexible Contract,Tender Completed,No,Yes,05163827_2018_2019
Gas,11924,Total Gas & Power,01/04/2018,30/09/2019,1,,,115235,,,,,,Flexible Contract,Tender Completed,No,Yes,05163827_2018_2019
Gas,11961,Total Gas & Power,01/04/2018,30/09/2019,1,,,97281,,,,,,Flexible Contract,Tender Completed,No,Yes,05163827_2018_2019
Gas,12056,Total Gas & Power,01/04/2018,30/09/2019,1,,,162663,,,,,,Flexible Contract,Tender Completed,No,Yes,05163827_2018_2019
Gas,31892,Total Gas & Power,01/04/2018,30/09/2019,1,,,63043,,,,,,Flexible Contract,Tender Completed,No,Yes,05163827_2018_2019
Gas,11918,Total Gas & Power,01/04/2018,30/09/2019,1,,,105147,,,,,,Flexible Contract,Tender Completed,No,Yes,05163827_2018_2019
Gas,11958,Total Gas & Power,01/04/2018,30/09/2019,1,,,46071,,,,,,Flexible Contract,Tender Completed,No,Yes,05163827_2018_2019
Gas,11954,Total Gas & Power,01/04/2018,30/09/2019,1,,,155473,,,,,,Flexible Contract,Tender Completed,No,Yes,05163827_2018_2019
Gas,11940,Total Gas & Power,01/04/2018,30/09/2019,1,,,144783,,,,,,Flexible Contract,Tender Completed,No,Yes,05163827_2018_2019
Gas,11916,Total Gas & Power,01/04/2018,30/09/2019,1,,,444552,,,,,,Flexible Contract,Tender Completed,No,Yes,05163827_2018_2019
Gas,28614,Total Gas & Power,01/04/2018,30/09/2019,1,,,282585,,,,,,Flexible Contract,Tender Completed,No,Yes,05163827_2018_2019
Gas,11966,Total Gas & Power,01/04/2018,30/09/2019,1,,,186398,,,,,,Flexible Contract,Tender Completed,No,Yes,05163827_2018_2019
Gas,11952,Total Gas & Power,01/04/2018,30/09/2019,1,,,263074,,,,,,Flexible Contract,Tender Completed,No,Yes,05163827_2018_2019
Gas,11951,Total Gas & Power,01/04/2018,30/09/2019,1,,,65512,,,,,,Flexible Contract,Tender Completed,No,Yes,05163827_2018_2019
Gas,11947,Total Gas & Power,01/04/2018,30/09/2019,1,,,2048,,,,,,Flexible Contract,Tender Completed,No,Yes,05163827_2018_2019
Gas,11917,Total Gas & Power,01/04/2018,30/09/2019,1,,,151575,,,,,,Flexible Contract,Tender Completed,No,Yes,05163827_2018_2019
Gas,11948,Total Gas & Power,01/04/2018,30/09/2019,1,,,80147,,,,,,Flexible Contract,Tender Completed,No,Yes,05163827_2018_2019
Gas,11935,Total Gas & Power,01/04/2018,30/09/2019,1,,,929175,,,,,,Flexible Contract,Tender Completed,No,Yes,05163827_2018_2019
Gas,11960,Total Gas & Power,01/04/2018,30/09/2019,1,,,100952,,,,,,Flexible Contract,Tender Completed,No,Yes,05163827_2018_2019
Gas,11932,Total Gas & Power,01/04/2018,30/09/2019,1,,,7564,,,,,,Flexible Contract,Tender Completed,No,Yes,05163827_2018_2019
Gas,41097,Total Gas & Power,01/04/2018,30/09/2019,1,,,20335,,,,,,Flexible Contract,Tender Completed,No,Yes,05163827_2018_2019
Gas,11930,Total Gas & Power,01/04/2018,30/09/2019,1,,,78006,,,,,,Flexible Contract,Tender Completed,No,Yes,05163827_2018_2019
Gas,11957,Total Gas & Power,01/04/2018,30/09/2019,1,,,1223,,,,,,Flexible Contract,Tender Completed,No,Yes,05163827_2018_2019
Gas,37214,Total Gas & Power,01/04/2018,30/09/2019,1,,,183970,,,,,,Flexible Contract,Tender Completed,No,Yes,05163827_2018_2019
