fuel,site_id,supplier_name,start_date,end_date,rate_weekday,rate_other,usage_weekday,usage_other,standingcharge_month,commission_kwh,commission_year,contract_type,tender_status,termination_optout,registration_confirmed,contract_id
elec,54502,Npower Limited,01/05/2016,30/09/2016,10.937,10.018,2743.75,8231.25,5.903,,,Fixed Contract,Tender Completed,No,No,May - Sept
elec,54503,Npower Limited,01/05/2016,30/09/2016,11.592,10.601,668.5,2005.5,3.456,,,Fixed Contract,Tender Completed,No,No,May - Sept
elec,54504,Npower Limited,01/05/2016,30/09/2016,11.726,10.6,598,1794,6.414,,,Fixed Contract,Tender Completed,No,No,May - Sept
elec,54505,Npower Limited,01/05/2016,30/09/2016,11.636,10.6,2937.5,8812.5,6.414,,,Fixed Contract,Tender Completed,No,No,May - Sept
elec,54506,Npower Limited,01/05/2016,30/09/2016,11.754,10.601,1150.25,3450.75,6.584,,,Fixed Contract,Tender Completed,No,No,May - Sept
elec,54507,Npower Limited,01/05/2016,30/09/2016,11.607,10.601,1859.75,5579.25,6.414,,,Fixed Contract,Tender Completed,No,No,May - Sept
elec,54508,Npower Limited,01/05/2016,30/09/2016,11.64,10.602,2033.75,6101.25,6.894,,,Fixed Contract,Tender Completed,No,No,May - Sept
elec,54509,Npower Limited,01/05/2016,30/09/2016,11.659,10.599,802.75,2408.25,6.414,,,Fixed Contract,Tender Completed,No,No,May - Sept
elec,54510,Npower Limited,01/05/2016,30/09/2016,11.49,10.6,1236.5,3709.5,3.684,,,Fixed Contract,Tender Completed,No,No,May - Sept
elec,54511,Npower Limited,01/05/2016,30/09/2016,11.662,10.602,552.25,1656.75,6.414,,,Fixed Contract,Tender Completed,No,No,May - Sept
elec,54512,Npower Limited,01/05/2016,30/09/2016,11.661,10.601,9373.5,28120.5,6.414,,,Fixed Contract,Tender Completed,No,No,May - Sept
elec,54513,Npower Limited,01/05/2016,30/09/2016,11.722,10.6,939.25,2817.75,6.414,,,Fixed Contract,Tender Completed,No,No,May - Sept
elec,54514,Npower Limited,01/05/2016,30/09/2016,11.597,10.601,1282,3846,6.414,,,Fixed Contract,Tender Completed,No,No,May - Sept
elec,54515,Npower Limited,01/05/2016,30/09/2016,11.722,10.6,939.25,2817.75,6.414,,,Fixed Contract,Tender Completed,No,No,May - Sept
elec,54516,Npower Limited,01/05/2016,30/09/2016,11.764,10.595,2046.25,6138.75,3.456,,,Fixed Contract,Tender Completed,No,No,May - Sept
elec,54517,Npower Limited,01/05/2016,30/09/2016,11.597,10.6,1694.25,5082.75,3.456,,,Fixed Contract,Tender Completed,No,No,May - Sept
elec,54518,Npower Limited,01/05/2016,30/09/2016,11.105,8.662,1439.2,2158.8,6.402,,,Fixed Contract,Tender Completed,No,No,May - Sept
elec,54519,Npower Limited,01/05/2016,30/09/2016,11.035,8.654,4690,7035,6.572,,,Fixed Contract,Tender Completed,No,No,May - Sept
elec,54520,Npower Limited,01/05/2016,30/09/2016,11.035,8.654,6913.2,10369.8,6.402,,,Fixed Contract,Tender Completed,No,No,May - Sept
elec,54521,Npower Limited,01/05/2016,30/09/2016,11.139,8.673,9704,14556,2.896,,,Fixed Contract,Tender Completed,No,No,May - Sept
elec,54522,Npower Limited,01/05/2016,30/09/2016,11.058,8.655,5773.6,8660.4,6.402,,,Fixed Contract,Tender Completed,No,No,May - Sept
elec,54523,Npower Limited,01/05/2016,30/09/2016,11.131,8.67,14395.6,21593.4,6.402,,,Fixed Contract,Tender Completed,No,No,May - Sept
elec,54524,Npower Limited,01/05/2016,30/09/2016,11.052,8.654,7162.4,10743.6,6.402,,,Fixed Contract,Tender Completed,No,No,May - Sept
elec,54525,Npower Limited,01/05/2016,30/09/2016,11.109,8.662,37107.2,55660.8,2.896,,,Fixed Contract,Tender Completed,No,No,May - Sept
elec,54526,Npower Limited,01/05/2016,30/09/2016,11.082,8.658,12784.4,19176.6,6.572,,,Fixed Contract,Tender Completed,No,No,May - Sept
elec,54527,Npower Limited,01/05/2016,30/09/2016,11.1,8.66,17775.2,26662.8,6.572,,,Fixed Contract,Tender Completed,No,No,May - Sept
elec,54528,Npower Limited,01/05/2016,30/09/2016,11.131,8.671,3042.4,4563.6,2.896,,,Fixed Contract,Tender Completed,No,No,May - Sept
elec,54529,Npower Limited,01/05/2016,30/09/2016,10.8,10.016,1703.75,5111.25,3.068,,,Fixed Contract,Tender Completed,No,No,May - Sept
elec,54502,Npower Limited,01/10/2016,31/03/2018,13.161,10.709,4321.75,12965.25,5.885,,,Fixed Contract,Tender Completed,No,No,71796602
elec,54503,Npower Limited,01/10/2016,31/03/2018,13.775,11.223,3974,11922,3.535,,,Fixed Contract,Tender Completed,No,No,71796602
elec,54504,Npower Limited,01/10/2016,31/03/2018,14.023,11.286,382,1146,6.493,,,Fixed Contract,Tender Completed,No,No,71796602
elec,54505,Npower Limited,01/10/2016,31/03/2018,13.928,11.25,568.75,1706.25,6.493,,,Fixed Contract,Tender Completed,No,No,71796602
elec,54506,Npower Limited,01/10/2016,31/03/2018,14.136,11.348,2081.25,6243.75,6.663,,,Fixed Contract,Tender Completed,No,No,71796602
elec,54507,Npower Limited,01/10/2016,31/03/2018,13.895,11.242,2490,7470,6.493,,,Fixed Contract,Tender Completed,No,No,71796602
elec,54508,Npower Limited,01/10/2016,31/03/2018,13.922,11.249,1313.5,3940.5,6.973,,,Fixed Contract,Tender Completed,No,No,71796602
elec,54509,Npower Limited,01/10/2016,31/03/2018,13.96,11.261,1157.5,3472.5,6.493,,,Fixed Contract,Tender Completed,No,No,71796602
elec,54510,Npower Limited,01/10/2016,31/03/2018,13.632,11.211,4208.5,12625.5,3.763,,,Fixed Contract,Tender Completed,No,No,71796602
elec,54511,Npower Limited,01/10/2016,31/03/2018,13.886,11.24,598.5,1795.5,6.493,,,Fixed Contract,Tender Completed,No,No,71796602
elec,54512,Npower Limited,01/10/2016,31/03/2018,13.888,11.241,29196.25,87588.75,6.493,,,Fixed Contract,Tender Completed,No,No,71796602
elec,54513,Npower Limited,01/10/2016,31/03/2018,14.016,11.283,1277.75,3833.25,6.493,,,Fixed Contract,Tender Completed,No,No,71796602
elec,54514,Npower Limited,01/10/2016,31/03/2018,13.877,11.238,4029.5,12088.5,6.493,,,Fixed Contract,Tender Completed,No,No,71796602
elec,54515,Npower Limited,01/10/2016,31/03/2018,14.016,11.283,1277.75,3833.25,6.493,,,Fixed Contract,Tender Completed,No,No,71796602
elec,54516,Npower Limited,01/10/2016,31/03/2018,14.127,11.344,1176.5,3529.5,3.535,,,Fixed Contract,Tender Completed,No,No,71796602
elec,54517,Npower Limited,01/10/2016,31/03/2018,13.784,11.224,6026,18078,3.535,,,Fixed Contract,Tender Completed,No,No,71796602
elec,54518,Npower Limited,01/10/2016,31/03/2018,13.417,10.291,1517.6,2276.4,6.521,,,Fixed Contract,Tender Completed,No,No,71796602
elec,54519,Npower Limited,01/10/2016,31/03/2018,13.28,10.231,5505.2,8257.8,6.691,,,Fixed Contract,Tender Completed,No,No,71796602
elec,54520,Npower Limited,01/10/2016,31/03/2018,13.282,10.232,8707.2,13060.8,6.521,,,Fixed Contract,Tender Completed,No,No,71796602
elec,54521,Npower Limited,01/10/2016,31/03/2018,13.542,10.387,9078,13617,3.016,,,Fixed Contract,Tender Completed,No,No,71796602
elec,54522,Npower Limited,01/10/2016,31/03/2018,13.32,10.243,7781.2,11671.8,6.521,,,Fixed Contract,Tender Completed,No,No,71796602
elec,54523,Npower Limited,01/10/2016,31/03/2018,13.5,10.352,3413.2,5119.8,6.521,,,Fixed Contract,Tender Completed,No,No,71796602
elec,54524,Npower Limited,01/10/2016,31/03/2018,13.311,10.24,5186,7779,6.521,,,Fixed Contract,Tender Completed,No,No,71796602
elec,54525,Npower Limited,01/10/2016,31/03/2018,13.434,10.302,5952.4,8928.6,3.016,,,Fixed Contract,Tender Completed,No,No,71796602
elec,54526,Npower Limited,01/10/2016,31/03/2018,13.362,10.26,14604,21906,6.691,,,Fixed Contract,Tender Completed,No,No,71796602
elec,54527,Npower Limited,01/10/2016,31/03/2018,13.406,10.284,15980.4,23970.6,6.691,,,Fixed Contract,Tender Completed,No,No,71796602
elec,54528,Npower Limited,01/10/2016,31/03/2018,13.504,10.356,5465.6,8198.4,3.016,,,Fixed Contract,Tender Completed,No,No,71796602
elec,54529,Npower Limited,01/10/2016,31/03/2018,12.817,10.66,10793.5,32380.5,3.05,,,Fixed Contract,Tender Completed,No,No,71796602
