fuel,site_id,supplier_name,start_date,end_date,rate_allunit,rate_day,rate_night,usage_allunit,usage_day,usage_night,standingcharge_month,commission_kwh,commission_year,contract_type,tender_status,termination_optout,registration_confirmed,contract_id
Gas,54530,Gazprom M and T Limited,01/10/2016,31/03/2018,1.576,,,16375,,,284.17002,,,Fixed Contract,Tender Complete,No,Yes,106857
Gas,54531,Gazprom M and T Limited,01/10/2016,31/03/2018,1.576,,,69547,,,781.820145,,,Fixed Contract,Tender Complete,No,Yes,106857
Gas,54532,Gazprom M and T Limited,01/10/2016,31/03/2018,1.576,,,8958815,,,35454.84586,,,Fixed Contract,Tender Complete,No,Yes,106857
Gas,54533,Gazprom M and T Limited,01/10/2016,31/03/2018,1.576,,,145804,,,1258.70615,,,Fixed Contract,Tender Complete,No,Yes,106857
Gas,54534,Gazprom M and T Limited,01/10/2016,31/03/2018,1.576,,,137538,,,1146.55625,,,Fixed Contract,Tender Complete,No,Yes,106857
Gas,54535,Gazprom M and T Limited,01/10/2016,31/03/2018,1.576,,,178983,,,1468.27163,,,Fixed Contract,Tender Complete,No,Yes,106857
Gas,54536,Gazprom M and T Limited,01/10/2016,31/03/2018,1.576,,,1,,,607.10523,,,Fixed Contract,Tender Complete,No,Yes,106857
Gas,54537,Gazprom M and T Limited,01/10/2016,31/03/2018,1.576,,,501982,,,3637.28486,,,Fixed Contract,Tender Complete,No,Yes,106857
Gas,54538,Gazprom M and T Limited,01/10/2016,31/03/2018,1.576,,,1,,,149.071475,,,Fixed Contract,Tender Complete,No,Yes,106857
Gas,54539,Gazprom M and T Limited,01/10/2016,31/03/2018,1.576,,,1,,,99.44425,,,Fixed Contract,Tender Complete,No,Yes,106857
Gas,54540,Gazprom M and T Limited,01/10/2016,31/03/2018,1.576,,,374127,,,2953.343115,,,Fixed Contract,Tender Complete,No,Yes,106857
Gas,54541,Gazprom M and T Limited,01/10/2016,31/03/2018,1.576,,,194745,,,1514.020365,,,Fixed Contract,Tender Complete,No,Yes,106857
Gas,54542,Gazprom M and T Limited,01/10/2016,31/03/2018,1.576,,,127124,,,1041.1041,,,Fixed Contract,Tender Complete,No,Yes,106857
Gas,54543,Gazprom M and T Limited,01/10/2016,31/03/2018,1.576,,,2243945,,,15411.2136,,,Fixed Contract,Tender Complete,No,Yes,106857
Gas,54544,Gazprom M and T Limited,01/10/2016,31/03/2018,1.576,,,2270,,,168.86287,,,Fixed Contract,Tender Complete,No,Yes,106857
Gas,54545,Gazprom M and T Limited,01/10/2016,31/03/2018,1.576,,,81739,,,729.419285,,,Fixed Contract,Tender Complete,No,Yes,106857
Gas,54546,Gazprom M and T Limited,01/10/2016,31/03/2018,1.576,,,1,,,124.213515,,,Fixed Contract,Tender Complete,No,Yes,106857
Gas,54547,Gazprom M and T Limited,01/10/2016,31/03/2018,1.576,,,59424,,,677.09398,,,Fixed Contract,Tender Complete,No,Yes,106857
Gas,54548,Gazprom M and T Limited,01/10/2016,31/03/2018,1.576,,,1,,,97.47325,,,Fixed Contract,Tender Complete,No,Yes,106857
Gas,54549,Gazprom M and T Limited,01/10/2016,31/03/2018,1.576,,,62283,,,721.8605,,,Fixed Contract,Tender Complete,No,Yes,106857
Gas,54550,Gazprom M and T Limited,01/10/2016,31/03/2018,1.576,,,710848,,,4153.82629,,,Fixed Contract,Tender Complete,No,Yes,106857
Gas,54551,Gazprom M and T Limited,01/10/2016,31/03/2018,1.576,,,40761,,,524.80722,,,Fixed Contract,Tender Complete,No,Yes,106857
Gas,54552,Gazprom M and T Limited,01/10/2016,31/03/2018,1.576,,,121120,,,1013.2181,,,Fixed Contract,Tender Complete,No,Yes,106857
Gas,54553,Gazprom M and T Limited,01/10/2016,31/03/2018,1.576,,,976,,,105.370755,,,Fixed Contract,Tender Complete,No,Yes,106857
Gas,54554,Gazprom M and T Limited,01/10/2016,31/03/2018,1.576,,,1,,,97.471425,,,Fixed Contract,Tender Complete,No,Yes,106857
Gas,54555,Gazprom M and T Limited,01/10/2016,31/03/2018,1.576,,,7100,,,166.410435,,,Fixed Contract,Tender Complete,No,Yes,106857
Gas,54556,Gazprom M and T Limited,01/10/2016,31/03/2018,1.576,,,1,,,149.09009,,,Fixed Contract,Tender Complete,No,Yes,106857
Gas,54557,Gazprom M and T Limited,01/10/2016,31/03/2018,1.576,,,1,,,123.35394,,,Fixed Contract,Tender Complete,No,Yes,106857
Gas,54558,Gazprom M and T Limited,01/10/2016,31/03/2018,1.576,,,13135,,,225.419985,,,Fixed Contract,Tender Complete,No,Yes,106857
Gas,54559,Gazprom M and T Limited,01/10/2016,31/03/2018,1.576,,,1,,,105.67115,,,Fixed Contract,Tender Complete,No,Yes,106857
Gas,54560,Gazprom M and T Limited,01/10/2016,31/03/2018,1.576,,,4804,,,143.824235,,,Fixed Contract,Tender Complete,No,Yes,106857
Gas,54561,Gazprom M and T Limited,01/10/2016,31/03/2018,1.576,,,1,,,124.213515,,,Fixed Contract,Tender Complete,No,Yes,106857
Gas,54562,Gazprom M and T Limited,01/10/2016,31/03/2018,1.576,,,1,,,97.17614,,,Fixed Contract,Tender Complete,No,Yes,106857
Gas,54563,Gazprom M and T Limited,01/10/2016,31/03/2018,1.576,,,1,,,97.17614,,,Fixed Contract,Tender Complete,No,Yes,106857
Gas,54564,Gazprom M and T Limited,01/10/2016,31/03/2018,1.576,,,1,,,97.49369,,,Fixed Contract,Tender Complete,No,Yes,106857
Gas,54565,Gazprom M and T Limited,01/10/2016,31/03/2018,1.576,,,23700,,,355.77426,,,Fixed Contract,Tender Complete,No,Yes,106857
Gas,54566,Gazprom M and T Limited,01/10/2016,31/03/2018,1.576,,,1,,,124.213515,,,Fixed Contract,Tender Complete,No,Yes,106857
Gas,54567,Gazprom M and T Limited,01/10/2016,31/03/2018,1.576,,,18773,,,284.964625,,,Fixed Contract,Tender Complete,No,Yes,106857
Gas,54568,Gazprom M and T Limited,01/10/2016,31/03/2018,1.576,,,1,,,124.19125,,,Fixed Contract,Tender Complete,No,Yes,106857
Gas,54569,Gazprom M and T Limited,01/10/2016,31/03/2018,1.576,,,1,,,97.471425,,,Fixed Contract,Tender Complete,No,Yes,106857
Gas,54570,Gazprom M and T Limited,01/10/2016,31/03/2018,1.576,,,1,,,97.471425,,,Fixed Contract,Tender Complete,No,Yes,106857
Gas,54571,Gazprom M and T Limited,01/10/2016,31/03/2018,1.576,,,29696,,,367.21336,,,Fixed Contract,Tender Complete,No,Yes,106857
Gas,54572,Gazprom M and T Limited,01/10/2016,31/03/2018,1.576,,,21131,,,333.577515,,,Fixed Contract,Tender Complete,No,Yes,106857
Gas,54573,Gazprom M and T Limited,01/10/2016,31/03/2018,1.576,,,29943,,,368.397785,,,Fixed Contract,Tender Complete,No,Yes,106857
Gas,54574,Gazprom M and T Limited,01/10/2016,31/03/2018,1.576,,,38357,,,434.17261,,,Fixed Contract,Tender Complete,No,Yes,106857
Gas,54575,Gazprom M and T Limited,01/10/2016,31/03/2018,1.576,,,15326,,,247.405395,,,Fixed Contract,Tender Complete,No,Yes,106857
Gas,54576,Gazprom M and T Limited,01/10/2016,31/03/2018,1.576,,,476056,,,3147.615095,,,Fixed Contract,Tender Complete,No,Yes,106857
Gas,54577,Gazprom M and T Limited,01/10/2016,31/03/2018,1.576,,,1,,,97.471425,,,Fixed Contract,Tender Complete,No,Yes,106857
Gas,54578,Gazprom M and T Limited,01/10/2016,31/03/2018,1.576,,,84154,,,746.125335,,,Fixed Contract,Tender Complete,No,Yes,106857
Gas,54579,Gazprom M and T Limited,01/10/2016,31/03/2018,1.576,,,1064659,,,6664.150655,,,Fixed Contract,Tender Complete,No,Yes,106857
Gas,54581,Gazprom M and T Limited,01/10/2016,31/03/2018,1.576,,,20876,,,286.67246,,,Fixed Contract,Tender Complete,No,Yes,106857
Gas,54582,Gazprom M and T Limited,01/10/2016,31/03/2018,1.576,,,92534,,,632.749035,,,Fixed Contract,Tender Complete,No,Yes,106857
Gas,54583,Gazprom M and T Limited,01/10/2016,31/03/2018,1.576,,,4674,,,139.04091,,,Fixed Contract,Tender Complete,No,Yes,106857
Gas,54584,Gazprom M and T Limited,01/10/2016,31/03/2018,1.576,,,13007,,,252.555545,,,Fixed Contract,Tender Complete,No,Yes,106857
Gas,54585,Gazprom M and T Limited,01/10/2016,31/03/2018,1.576,,,24241,,,343.667575,,,Fixed Contract,Tender Complete,No,Yes,106857
Gas,54580,Gazprom M and T Limited,01/10/2016,31/03/2018,1.576,,,1,,,227.15483,,,Fixed Contract,Tender Complete,No,Yes,106857
Gas,54587,Gazprom M and T Limited,01/10/2016,31/03/2018,1.576,,,51367,,,700.35835,,,Fixed Contract,Tender Complete,No,Yes,106857
Gas,54588,Gazprom M and T Limited,01/10/2016,31/03/2018,1.576,,,106098,,,934.57666,,,Fixed Contract,Tender Complete,No,Yes,106857
Gas,54589,Gazprom M and T Limited,01/10/2016,31/03/2018,1.576,,,13500,,,210.15459,,,Fixed Contract,Tender Complete,No,Yes,106857
Gas,54590,Gazprom M and T Limited,01/10/2016,31/03/2018,1.576,,,381780,,,3233.35104,,,Fixed Contract,Tender Complete,No,Yes,106857
Gas,54591,Gazprom M and T Limited,01/10/2016,31/03/2018,1.576,,,52519,,,580.15363,,,Fixed Contract,Tender Complete,No,Yes,106857
Gas,54592,Gazprom M and T Limited,01/10/2016,31/03/2018,1.576,,,16092,,,244.19011,,,Fixed Contract,Tender Complete,No,Yes,106857
Gas,54593,Gazprom M and T Limited,01/10/2016,31/03/2018,1.576,,,44563,,,507.69091,,,Fixed Contract,Tender Complete,No,Yes,106857
