fuel,customer_id,customer_name,site_id,site_name,address_1,address_2,address_3,postcode,country,analyst_name,accountmanager_name,voltage,asc,profile,mtc,llf,meter,read_frequency,supplier_name,start_date,end_date,rate_day,rate_night,usage_day,usage_night,standingcharge_month,commission_kwh,commission_year,contract_type,tender_status,termination_optout,registration_confirmed,contract_id
Elec,3138,Three Ireland,,3 ROXBORO MEWS,3 ROXBORO MEWS,MAIN STREET,MIDLETON,SY5 7EM,Ireland,Matthew Walsh,Sheila O'Riordan,LV, 15 ,0,0,0,8010006907123,HH,Energia,01/08/2016,31/07/2017,12.12,5.34,6233,3070,13.51,,,Fixed Contract,Tender Complete,Yes,No,25/05/2016
Elec,3138,Three Ireland,,1 WILLIAMSGATE STREET,1 WILLIAMSGATE STREET,GALWAY,GALWAY,SY5 7EM,Ireland,Matthew Walsh,Sheila O'Riordan,LV, 22 ,0,0,0,8010010575538,HH,Energia,01/08/2016,31/07/2017,12.12,5.34,19475,9592,13.51,,,Fixed Contract,Tender Complete,Yes,No,25/05/2016
Elec,3138,Three Ireland,,39 PATRICK STREET,39 PATRICK STREET,FERMOY,FERMOY,SY5 7EM,Ireland,Matthew Walsh,Sheila O'Riordan,LV, 15 ,0,0,0,8010006859011,HH,Energia,01/08/2016,31/07/2017,12.12,5.34,10794,5317,13.51,,,Fixed Contract,Tender Complete,Yes,No,25/05/2016
Elec,3138,Three Ireland,,1 SHOP STREET,SHOP STREET,GALWAY,GALWAY,SY5 7EM,Ireland,Matthew Walsh,Sheila O'Riordan,LV, 24 ,0,0,0,8010010567024,HH,Energia,01/08/2016,31/07/2017,12.12,5.34,8949,4408,13.51,,,Fixed Contract,Tender Complete,Yes,No,25/05/2016
Elec,3138,Three Ireland,,INNISFALLEN MALL,INNISFALLEN MALL,KILLARNEY,KILLARNEY,SY5 7EM,Ireland,Matthew Walsh,Sheila O'Riordan,LV, 15 ,0,0,0,8010008141888,HH,Energia,01/08/2016,31/07/2017,12.12,5.34,6231,2799,13.51,,,Fixed Contract,Tender Complete,Yes,No,25/05/2016
Elec,3138,Three Ireland,,SHOP 59,SHOP 59,,,SY5 7EM,Ireland,Matthew Walsh,Sheila O'Riordan,LV, 12 ,0,0,0,8010009111590,HH,Energia,01/08/2016,31/07/2017,12.12,5.34,6231,2799,13.51,,,Fixed Contract,Tender Complete,Yes,No,25/05/2016
,,,,,,,,,,,,,,,,,,,,,,,,,,,,,Fixed Contract,,Yes,No,
,,,,,,,,,,,,,,,,,,,,,,,,,,,,,Fixed Contract,,Yes,No,
