fuel,site_id,supplier_name,start_date,end_date,rate_allunit,rate_day,rate_night,usage_allunit,usage_day,usage_night,standingcharge_month,commission_kwh,commission_year,contract_type,tender_status,termination_optout,registration_confirmed,contract_id
Gas,54847,GO POWER,01/07/2017,31/03/2020,3.698,,,"77,069",,,,,,Fixed Contract,Tender Complete,No,Yes,LOT 1 
Gas,54848,GO POWER,01/07/2017,31/03/2020,3.698,,,"31,459",,,,,,Fixed Contract,Tender Complete,No,Yes,LOT 1 
Gas,54849,GO POWER,01/07/2017,31/03/2020,3.698,,,"16,915",,,,,,Fixed Contract,Tender Complete,No,Yes,LOT 1 
Gas,54850,GO POWER,01/07/2017,31/03/2020,3.698,,,"31,115",,,,,,Fixed Contract,Tender Complete,No,Yes,LOT 1
Gas,54851,GO POWER,01/07/2017,31/03/2020,3.698,,,"57,230",,,,,,Fixed Contract,Tender Complete,No,Yes,LOT 1
Gas,54852,GO POWER,01/07/2017,31/03/2020,3.698,,,"24,271",,,,,,Fixed Contract,Tender Complete,No,Yes,LOT 1
Gas,54853,GO POWER,01/07/2017,31/03/2020,3.698,,,"24,605",,,,,,Fixed Contract,Tender Complete,No,Yes,LOT 1
Gas,54854,GO POWER,01/07/2017,31/03/2020,3.698,,,1,,,,,,Fixed Contract,Tender Complete,No,Yes,LOT 1
Gas,54855,GO POWER,01/07/2017,31/03/2020,3.698,,,"21,474",,,,,,Fixed Contract,Tender Complete,No,Yes,LOT 1
Gas,54856,GO POWER,01/07/2017,31/03/2020,3.698,,,"36,996",,,,,,Fixed Contract,Tender Complete,No,Yes,LOT 1
Gas,54857,GO POWER,01/07/2017,31/03/2020,3.698,,,"18,737",,,,,,Fixed Contract,Tender Complete,No,Yes,LOT 1
Gas,54858,GO POWER,01/07/2017,31/03/2020,3.698,,,"45,672",,,,,,Fixed Contract,Tender Complete,No,Yes,LOT 1
Gas,54859,GO POWER,01/07/2017,31/03/2020,3.698,,,"51,574",,,,,,Fixed Contract,Tender Complete,No,Yes,LOT 1
Gas,54860,GO POWER,01/07/2017,31/03/2020,3.698,,,"75,446",,,,,,Fixed Contract,Tender Complete,No,Yes,LOT 1
Gas,54861,GO POWER,01/07/2017,31/03/2020,3.698,,,"46,659",,,,,,Fixed Contract,Tender Complete,No,Yes,LOT 1
Gas,54861,GO POWER,01/07/2017,31/03/2020,3.698,,,"44,407",,,,,,Fixed Contract,Tender Complete,No,Yes,LOT 1
Gas,54861,GO POWER,01/07/2017,31/03/2020,3.698,,,"21,158",,,,,,Fixed Contract,Tender Complete,No,Yes,LOT 1
Gas,54864,GO POWER,01/07/2017,31/03/2020,3.698,,,"10,849",,,,,,Fixed Contract,Tender Complete,No,Yes,LOT 1
Gas,54865,GO POWER,01/07/2017,31/03/2020,3.698,,,"15,962",,,,,,Fixed Contract,Tender Complete,No,Yes,LOT 1
Gas,54866,GO POWER,01/07/2017,31/03/2020,3.698,,,"17,883",,,,,,Fixed Contract,Tender Complete,No,Yes,LOT 1
Gas,54867,GO POWER,01/07/2017,31/03/2020,3.698,,,"13,533",,,,,,Fixed Contract,Tender Complete,No,Yes,LOT 1
Gas,54868,GO POWER,01/07/2017,31/03/2020,3.698,,,"48,485",,,,,,Fixed Contract,Tender Complete,No,Yes,LOT 1
Gas,54869,GO POWER,01/07/2017,31/03/2020,3.698,,,"23,597",,,,,,Fixed Contract,Tender Complete,No,Yes,LOT 1
Gas,54670,GO POWER,01/07/2017,31/03/2020,3.698,,,1,,,,,,Fixed Contract,Tender Complete,No,Yes,LOT 1
Gas,54871,GO POWER,01/07/2017,31/03/2020,3.698,,,"14,421",,,,,,Fixed Contract,Tender Complete,No,Yes,LOT 1
Gas,54872,GO POWER,01/07/2017,31/03/2020,3.698,,,"70,449",,,,,,Fixed Contract,Tender Complete,No,Yes,LOT 1
Gas,54873,GO POWER,01/07/2017,31/03/2020,3.698,,,"54,115",,,,,,Fixed Contract,Tender Complete,No,Yes,LOT 1
Gas,54875,GO POWER,01/07/2017,31/03/2020,3.698,,,"41,275",,,,,,Fixed Contract,Tender Complete,No,Yes,LOT 1
Gas,54876,GO POWER,01/07/2017,31/03/2020,3.698,,,"70,253",,,,,,Fixed Contract,Tender Complete,No,Yes,LOT 1
Gas,54877,GO POWER,01/07/2017,31/03/2020,3.698,,,"30,348",,,,,,Fixed Contract,Tender Complete,No,Yes,LOT 1
Gas,54878,GO POWER,01/07/2017,31/03/2020,3.698,,,"102,210",,,,,,Fixed Contract,Tender Complete,No,Yes,LOT 1
Gas,54879,GO POWER,01/07/2017,31/03/2020,3.698,,,"69,362",,,,,,Fixed Contract,Tender Complete,No,Yes,LOT 1
Gas,54880,GO POWER,01/07/2017,31/03/2020,3.698,,,"13,399",,,,,,Fixed Contract,Tender Complete,No,Yes,LOT 1
Gas,54881,GO POWER,01/07/2017,31/03/2020,3.698,,,"16,023",,,,,,Fixed Contract,Tender Complete,No,Yes,LOT 1
Gas,54882,GO POWER,01/07/2017,31/03/2020,3.698,,,"34,491",,,,,,Fixed Contract,Tender Complete,No,Yes,LOT 1
Gas,54883,GO POWER,01/07/2017,31/03/2020,3.698,,,"1,996",,,,,,Fixed Contract,Tender Complete,No,Yes,LOT 1
Gas,54884,GO POWER,01/07/2017,31/03/2020,3.698,,,"12,549",,,,,,Fixed Contract,Tender Complete,No,Yes,LOT 1
Gas,54885,GO POWER,01/07/2017,31/03/2020,3.698,,,"79,027",,,,,,Fixed Contract,Tender Complete,No,Yes,LOT 1
Gas,54886,GO POWER,01/07/2017,31/03/2020,3.698,,,"35,914",,,,,,Fixed Contract,Tender Complete,No,Yes,LOT 1
Gas,54887,GO POWER,01/07/2017,31/03/2020,3.58,,,"67,273",,,,,,Fixed Contract,Tender Complete,No,Yes,LOT 2
Gas,54888,GO POWER,01/07/2017,31/03/2020,3.58,,,"124,717",,,,,,Fixed Contract,Tender Complete,No,Yes,LOT 2
Gas,54889,GO POWER,01/07/2017,31/03/2020,3.58,,,"105,930",,,,,,Fixed Contract,Tender Complete,No,Yes,LOT 2
Gas,54890,GO POWER,01/07/2017,31/03/2020,3.58,,,"268,993",,,,,,Fixed Contract,Tender Complete,No,Yes,LOT 2
Gas,54891,GO POWER,01/07/2017,31/03/2020,3.58,,,"231,119",,,,,,Fixed Contract,Tender Complete,No,Yes,LOT 2
Gas,54892,GO POWER,01/07/2017,31/03/2020,3.58,,,"413,245",,,,,,Fixed Contract,Tender Complete,No,Yes,LOT 2
Gas,54893,GO POWER,01/07/2017,31/03/2020,3.58,,,"81,491",,,,,,Fixed Contract,Tender Complete,No,Yes,LOT 2
Gas,54894,GO POWER,01/07/2017,31/03/2020,3.58,,,"112,957",,,,,,Fixed Contract,Tender Complete,No,Yes,LOT 2
Gas,54895,GO POWER,01/07/2017,31/03/2020,3.58,,,"90,932",,,,,,Fixed Contract,Tender Complete,No,Yes,LOT 2
Gas,54896,GO POWER,01/07/2017,31/03/2020,3.58,,,"213,530",,,,,,Fixed Contract,Tender Complete,No,Yes,LOT 2
Gas,54897,GO POWER,01/07/2017,31/03/2020,3.58,,,"108,938",,,,,,Fixed Contract,Tender Complete,No,Yes,LOT 2
Gas,54898,GO POWER,01/07/2017,31/03/2020,3.58,,,"71,992",,,,,,Fixed Contract,Tender Complete,No,Yes,LOT 2
Gas,54899,GO POWER,01/07/2017,31/03/2020,3.58,,,"184,185",,,,,,Fixed Contract,Tender Complete,No,Yes,LOT 2
Gas,54900,GO POWER,01/07/2017,31/03/2020,3.58,,,"135,354",,,,,,Fixed Contract,Tender Complete,No,Yes,LOT 2
Gas,54901,GO POWER,01/07/2017,31/03/2020,3.58,,,"592,706",,,,,,Fixed Contract,Tender Complete,No,Yes,LOT 2
Gas,54902,GO POWER,01/07/2017,31/03/2020,3.58,,,"140,459",,,,,,Fixed Contract,Tender Complete,No,Yes,LOT 2
Gas,54903,GO POWER,01/07/2017,31/03/2020,3.58,,,"166,297",,,,,,Fixed Contract,Tender Complete,No,Yes,LOT 2
Gas,54904,GO POWER,01/07/2017,31/03/2020,3.58,,,"126,123",,,,,,Fixed Contract,Tender Complete,No,Yes,LOT 2
Gas,54905,GO POWER,01/07/2017,31/03/2020,3.58,,,"125,491",,,,,,Fixed Contract,Tender Complete,No,Yes,LOT 2
Gas,54906,GO POWER,01/07/2017,31/03/2020,3.58,,,"97,014",,,,,,Fixed Contract,Tender Complete,No,Yes,LOT 2
Gas,54907,GO POWER,01/07/2017,31/03/2020,3.58,,,"96,502",,,,,,Fixed Contract,Tender Complete,No,Yes,LOT 2
Gas,54908,GO POWER,01/07/2017,31/03/2020,3.58,,,"73,549",,,,,,Fixed Contract,Tender Complete,No,Yes,LOT 2
Gas,54909,GO POWER,01/07/2017,31/03/2020,3.58,,,"107,841",,,,,,Fixed Contract,Tender Complete,No,Yes,LOT 2
Gas,54910,GO POWER,01/07/2017,31/03/2020,3.58,,,"123,557",,,,,,Fixed Contract,Tender Complete,No,Yes,LOT 2
Gas,54911,GO POWER,01/07/2017,31/03/2020,3.58,,,"134,460",,,,,,Fixed Contract,Tender Complete,No,Yes,LOT 2
Gas,54912,GO POWER,01/07/2017,31/03/2020,3.58,,,"58,211",,,,,,Fixed Contract,Tender Complete,No,Yes,LOT 2
Gas,54913,GO POWER,01/07/2017,31/03/2020,3.58,,,"140,041",,,,,,Fixed Contract,Tender Complete,No,Yes,LOT 2
Gas,54914,GO POWER,01/07/2017,31/03/2020,3.58,,,"78,967",,,,,,Fixed Contract,Tender Complete,No,Yes,LOT 2
Gas,54915,GO POWER,01/07/2017,31/03/2020,3.58,,,"289,668",,,,,,Fixed Contract,Tender Complete,No,Yes,LOT 2
Gas,54916,GO POWER,01/07/2017,31/03/2020,3.58,,,"105,191",,,,,,Fixed Contract,Tender Complete,No,Yes,LOT 2
Gas,54917,GO POWER,01/07/2017,31/03/2020,3.58,,,"404,924",,,,,,Fixed Contract,Tender Complete,No,Yes,LOT 2
Gas,54918,GO POWER,01/07/2017,31/03/2020,3.58,,,"147,132",,,,,,Fixed Contract,Tender Complete,No,Yes,LOT 2
Gas,54919,GO POWER,01/07/2017,31/03/2020,3.58,,,"199,909",,,,,,Fixed Contract,Tender Complete,No,Yes,LOT 2
Gas,54920,GO POWER,01/07/2017,31/03/2020,3.58,,,"96,721",,,,,,Fixed Contract,Tender Complete,No,Yes,LOT 2
Gas,54921,GO POWER,01/07/2017,31/03/2020,3.58,,,"222,097",,,,,,Fixed Contract,Tender Complete,No,Yes,LOT 2
Gas,54922,GO POWER,01/07/2017,31/03/2020,3.58,,,"121,262",,,,,,Fixed Contract,Tender Complete,No,Yes,LOT 2
Gas,54923,GO POWER,01/07/2017,31/03/2020,3.58,,,"278,673",,,,,,Fixed Contract,Tender Complete,No,Yes,LOT 2
Gas,54924,GO POWER,01/07/2017,31/03/2020,3.58,,,"89,324",,,,,,Fixed Contract,Tender Complete,No,Yes,LOT 2
Gas,54925,GO POWER,01/07/2017,31/03/2020,3.58,,,"69,783",,,,,,Fixed Contract,Tender Complete,No,Yes,LOT 2
Gas,54926,GO POWER,01/07/2017,31/03/2020,3.58,,,"90,952",,,,,,Fixed Contract,Tender Complete,No,Yes,LOT 2
Gas,54927,GO POWER,01/07/2017,31/03/2020,3.58,,,"115,742",,,,,,Fixed Contract,Tender Complete,No,Yes,LOT 2
Gas,54928,GO POWER,01/07/2017,31/03/2020,3.58,,,"1,705",,,,,,Fixed Contract,Tender Complete,No,Yes,LOT 2
Gas,54929,GO POWER,01/07/2017,31/03/2020,3.58,,,"74,953",,,,,,Fixed Contract,Tender Complete,No,Yes,LOT 2
Gas,54930,GO POWER,01/07/2017,31/03/2020,3.58,,,"152,852",,,,,,Fixed Contract,Tender Complete,No,Yes,LOT 2
Gas,54931,GO POWER,01/07/2017,31/03/2020,3.58,,,"52,870",,,,,,Fixed Contract,Tender Complete,No,Yes,LOT 2
Gas,54932,GO POWER,01/07/2017,31/03/2020,3.58,,,"49,949",,,,,,Fixed Contract,Tender Complete,No,Yes,LOT 2
Gas,54933,GO POWER,01/07/2017,31/03/2020,3.58,,,"95,814",,,,,,Fixed Contract,Tender Complete,No,Yes,LOT 2
Gas,54934,GO POWER,01/07/2017,31/03/2020,3.58,,,"233,564",,,,,,Fixed Contract,Tender Complete,No,Yes,LOT 2
Gas,54935,GO POWER,01/07/2017,31/03/2020,3.58,,,"217,255",,,,,,Fixed Contract,Tender Complete,No,Yes,LOT 2
Gas,54936,GO POWER,01/07/2017,31/03/2020,3.58,,,"128,426",,,,,,Fixed Contract,Tender Complete,No,Yes,LOT 2
Gas,54937,GO POWER,01/07/2017,31/03/2020,3.58,,,98,,,,,,Fixed Contract,Tender Complete,No,Yes,LOT 2
Gas,54938,GO POWER,01/07/2017,31/03/2020,3.58,,,"66,205",,,,,,Fixed Contract,Tender Complete,No,Yes,LOT 2
Gas,54940,GO POWER,01/07/2017,31/03/2020,3.58,,,"37,648",,,,,,Fixed Contract,Tender Complete,No,Yes,LOT 2
Gas,54941,GO POWER,01/07/2017,31/03/2020,3.58,,,"325,673",,,,,,Fixed Contract,Tender Complete,No,Yes,LOT 2
