fuel,site_id,supplier_name,start_date,end_date,rate_allunit,rate_day,rate_night,fit_unit rate,usage_allunit,usage_day,usage_night,standingcharge_month,commission_kwh,commission_year,contract_type,tender_status,termination_optout,registration_confirmed,contract_id
Elec,41150,SCOTTISH AND SOUTHERN ENERGY PLC,01/09/2017,31/08/2018,10.885,,,0.517,34739,,,5.57,,,FIXED CONTRACT,Tender Completed,No,No,1363316
Elec,41152,SCOTTISH AND SOUTHERN ENERGY PLC,01/09/2017,31/08/2018,,11.652,7.044,0.517,,26405,11316,5.53,,,FIXED CONTRACT,Tender Completed,No,No,1363316
Elec,41153,SCOTTISH AND SOUTHERN ENERGY PLC,01/09/2017,31/08/2018,10.885,,,0.517,88278,,,5.57,,,FIXED CONTRACT,Tender Completed,No,No,1363316
Elec,62500,SCOTTISH AND SOUTHERN ENERGY PLC,01/09/2017,31/08/2018,10.885,,,0.517,36947,,,5.57,,,FIXED CONTRACT,Tender Completed,No,No,1363316
Elec,14265,SCOTTISH AND SOUTHERN ENERGY PLC,01/09/2017,31/08/2018,,11.652,7.044,0.517,,18475,7918,11.77,,,FIXED CONTRACT,Tender Completed,No,No,1363316
Elec,16061,SCOTTISH AND SOUTHERN ENERGY PLC,01/09/2017,31/08/2018,,11.669,7.33,0.517,,29705,12731,11.84,,,FIXED CONTRACT,Tender Completed,No,No,1363316
Elec,14266,SCOTTISH AND SOUTHERN ENERGY PLC,01/09/2017,31/08/2018,,11.669,7.33,0.517,,36774,15760,5.64,,,FIXED CONTRACT,Tender Completed,No,No,1363316
Elec,62498,SCOTTISH AND SOUTHERN ENERGY PLC,01/09/2017,31/08/2018,,12.37,8.462,0.517,,26948,11549,24.82,,,FIXED CONTRACT,Tender Completed,No,No,1363316
Elec,14267,SCOTTISH AND SOUTHERN ENERGY PLC,01/09/2017,31/08/2018,11.099,,,0.517,35040,,,5.64,,,FIXED CONTRACT,Tender Completed,No,No,1363316
Elec,14263,SCOTTISH AND SOUTHERN ENERGY PLC,01/09/2017,31/08/2018,11.009,,,0.517,62412,,,5.42,,,FIXED CONTRACT,Tender Completed,No,No,1363316
Elec,14257,SCOTTISH AND SOUTHERN ENERGY PLC,01/09/2017,31/08/2018,11.402,,,0.517,64344,,,5.64,,,FIXED CONTRACT,Tender Completed,No,No,1363316
Elec,13895,SCOTTISH AND SOUTHERN ENERGY PLC,01/09/2017,31/08/2018,11.478,,,0.517,30066,,,37.28,,,FIXED CONTRACT,Tender Completed,No,No,1363316
Elec,14237,SCOTTISH AND SOUTHERN ENERGY PLC,01/09/2017,31/08/2018,11.402,,,0.517,35345,,,11.84,,,FIXED CONTRACT,Tender Completed,No,No,1363316
Elec,14245,SCOTTISH AND SOUTHERN ENERGY PLC,01/09/2017,31/08/2018,11.27,,,0.517,50300,,,4.98,,,FIXED CONTRACT,Tender Completed,No,No,1363316
Elec,14239,SCOTTISH AND SOUTHERN ENERGY PLC,01/09/2017,31/08/2018,11.27,,,0.517,80332,,,4.98,,,FIXED CONTRACT,Tender Completed,No,No,1363316
Elec,16066,SCOTTISH AND SOUTHERN ENERGY PLC,01/09/2017,31/08/2018,11.27,,,0.517,58549,,,4.98,,,FIXED CONTRACT,Tender Completed,No,No,1363316
Elec,14246,SCOTTISH AND SOUTHERN ENERGY PLC,01/09/2017,31/08/2018,11.27,,,0.517,43614,,,4.98,,,FIXED CONTRACT,Tender Completed,No,No,1363316
Elec,41148,SCOTTISH AND SOUTHERN ENERGY PLC,01/09/2017,31/08/2018,12.725,,,0.517,21755,,,7.85,,,FIXED CONTRACT,Tender Completed,No,No,1363316
Elec,62499,SCOTTISH AND SOUTHERN ENERGY PLC,01/09/2017,31/08/2018,11.238,,,0.517,37942,,,12.25,,,FIXED CONTRACT,Tender Completed,No,No,1363316
Elec,14236,SCOTTISH AND SOUTHERN ENERGY PLC,01/09/2017,31/08/2018,11.238,,,0.517,31972,,,6.04,,,FIXED CONTRACT,Tender Completed,No,No,1363316
Elec,14235,SCOTTISH AND SOUTHERN ENERGY PLC,01/09/2017,31/08/2018,11.238,,,0.517,38311,,,6.04,,,FIXED CONTRACT,Tender Completed,No,No,1363316
Elec,14232,SCOTTISH AND SOUTHERN ENERGY PLC,01/09/2017,31/08/2018,11.968,,,0.517,58581,,,27.33,,,FIXED CONTRACT,Tender Completed,No,No,1363316
Elec,14230,SCOTTISH AND SOUTHERN ENERGY PLC,01/09/2017,31/08/2018,11.238,,,0.517,38405,,,12.25,,,FIXED CONTRACT,Tender Completed,No,No,1363316
Elec,14244,SCOTTISH AND SOUTHERN ENERGY PLC,01/09/2017,31/08/2018,11.968,,,0.517,29196,,,27.33,,,FIXED CONTRACT,Tender Completed,No,No,1363316
Elec,14233,SCOTTISH AND SOUTHERN ENERGY PLC,01/09/2017,31/08/2018,11.968,,,0.517,28968,,,27.33,,,FIXED CONTRACT,Tender Completed,No,No,1363316
Elec,14258,SCOTTISH AND SOUTHERN ENERGY PLC,01/09/2017,31/08/2018,11.968,,,0.517,41038,,,27.33,,,FIXED CONTRACT,Tender Completed,No,No,1363316
Elec,14254,SCOTTISH AND SOUTHERN ENERGY PLC,01/09/2017,31/08/2018,11.968,,,0.517,36263,,,27.33,,,FIXED CONTRACT,Tender Completed,No,No,1363316
Elec,14242,SCOTTISH AND SOUTHERN ENERGY PLC,01/09/2017,31/08/2018,11.238,,,0.517,45256,,,6.04,,,FIXED CONTRACT,Tender Completed,No,No,1363316
Elec,14240,SCOTTISH AND SOUTHERN ENERGY PLC,01/09/2017,31/08/2018,11.238,,,0.517,47350,,,6.04,,,FIXED CONTRACT,Tender Completed,No,No,1363316
Elec,14241,SCOTTISH AND SOUTHERN ENERGY PLC,01/09/2017,31/08/2018,11.238,,,0.517,76518,,,6.04,,,FIXED CONTRACT,Tender Completed,No,No,1363316
Elec,14252,SCOTTISH AND SOUTHERN ENERGY PLC,01/09/2017,31/08/2018,12.096,,,0.517,71048,,,27.33,,,FIXED CONTRACT,Tender Completed,No,No,1363316
Elec,14261,SCOTTISH AND SOUTHERN ENERGY PLC,01/09/2017,31/08/2018,11.238,,,0.517,57475,,,6.04,,,FIXED CONTRACT,Tender Completed,No,No,1363316
Elec,16065,SCOTTISH AND SOUTHERN ENERGY PLC,01/09/2017,31/08/2018,10.995,,,0.517,50669,,,11.72,,,FIXED CONTRACT,Tender Completed,No,No,1363316
Elec,14247,SCOTTISH AND SOUTHERN ENERGY PLC,01/09/2017,31/08/2018,10.995,,,0.517,59059,,,5.52,,,FIXED CONTRACT,Tender Completed,No,No,1363316
Elec,14255,SCOTTISH AND SOUTHERN ENERGY PLC,01/09/2017,31/08/2018,11.361,,,0.517,58573,,,5.69,,,FIXED CONTRACT,Tender Completed,No,No,1363316
Elec,14269,SCOTTISH AND SOUTHERN ENERGY PLC,01/09/2017,31/08/2018,,13.285,9.004,0.517,,30635,13129,25.53,,,FIXED CONTRACT,Tender Completed,No,No,1363316
Elec,41020,SCOTTISH AND SOUTHERN ENERGY PLC,01/09/2017,31/08/2018,11.585,,,0.517,47996,,,12.57,,,FIXED CONTRACT,Tender Completed,No,No,1363316
Elec,14268,SCOTTISH AND SOUTHERN ENERGY PLC,01/09/2017,31/08/2018,11.72,,,0.517,46721,,,12.54,,,FIXED CONTRACT,Tender Completed,No,No,1363316
Elec,16064,SCOTTISH AND SOUTHERN ENERGY PLC,01/09/2017,31/08/2018,,12.047,7.53,0.517,,24148,23817,5.69,,,FIXED CONTRACT,Tender Completed,No,No,1363316
Elec,41151,SCOTTISH AND SOUTHERN ENERGY PLC,01/09/2017,31/08/2018,11.361,,,0.517,65985,,,5.69,,,FIXED CONTRACT,Tender Completed,No,No,1363316
Elec,14270,SCOTTISH AND SOUTHERN ENERGY PLC,01/09/2017,31/08/2018,11.361,,,0.517,55767,,,5.69,,,FIXED CONTRACT,Tender Completed,No,No,1363316
Elec,41154,SCOTTISH AND SOUTHERN ENERGY PLC,01/09/2017,31/08/2018,11.361,,,0.517,39695,,,11.89,,,FIXED CONTRACT,Tender Completed,No,No,1363316
