fuel,customer_id,customer_name,site_id,site_name,address_1,address_2,address_3,postcode,analyst_name,accountmanager_name,voltage,asc,profile,mtc,llf,meter,read_frequency,supplier_name,start_date,end_date,rate_allunit,rate_day,rate_night,usage_allunit,usage_day,usage_night,standingcharge_month,commission_kwh,commission_year,contract_type,tender_status,termination_optout,registration_confirmed,contract_id
Elec,,COFFEE #1 LTD,,WOOD STREET,Coffee 1,9 Wood Street,,CF10 1EN,Peter Nagy,Eduardo Cortez,,,03,801,200,2199994169924,NHH,Npower Limited,01/10/2014,30/09/2017,1,,,84092,,,,,,Flexible Contract,Tender Completed,No,No,04027169_2014_2017
Elec,,COFFEE #1 LTD,,CLIFTON ,33 Princess Victoria Street,Clifton,,BS38 4BU,Peter Nagy,Eduardo Cortez,,,03,801,110,2200015846207,NHH,Npower Limited,01/10/2014,30/09/2017,1,,,36345,,,,,,Flexible Contract,Tender Completed,No,No,04027169_2014_2017
Elec,,COFFEE #1 LTD,,ALBANY ROAD,85 Albany Road,ROATH,,CF24 3LP,Peter Nagy,Eduardo Cortez,,,04,809,201,2199993735658,NHH,Npower Limited,01/10/2014,30/09/2017,1,,,74393,,,,,,Flexible Contract,Tender Completed,No,No,04027169_2014_2017
Elec,,COFFEE #1 LTD,,BISHOPSTON -BRISTOL,157 Gloucester Road,BISHOPSTON,,BS7 8BA,Peter Nagy,Eduardo Cortez,,,03,801,110,2200040274996,NHH,Npower Limited,01/10/2014,30/09/2017,1,,,4078,,,,,,Flexible Contract,Tender Completed,No,No,04027169_2014_2017
Elec,,COFFEE #1 LTD,,NEWPORT,Coffee 1 Newport,47 Commercial Street,,NP20 1LP,Peter Nagy,Eduardo Cortez,,,03,221,200,2199991339520,NHH,Npower Limited,01/10/2014,30/09/2017,1,,,82612,,,,,,Flexible Contract,Tender Completed,No,No,04027169_2014_2017
Elec,,COFFEE #1 LTD,,ABERGAVENNY,Coffee 1 Abergavenny,14 High Street,,NP7 5RY,Peter Nagy,Eduardo Cortez,,,03,801,200,2199991933322,NHH,Npower Limited,01/10/2014,30/09/2017,1,,,55537,,,,,,Flexible Contract,Tender Completed,No,No,04027169_2014_2017
Elec,,COFFEE #1 LTD,,MONMOUTH,Unit 8,The Oldway Centre,,NP25 3PS,Peter Nagy,Eduardo Cortez,,,04,102,201,2199991619392,NHH,Npower Limited,01/10/2014,30/09/2017,1,,,61898,,,,,,Flexible Contract,Tender Completed,No,No,04027169_2014_2017
Elec,,COFFEE #1 LTD,,WESTBURY-ON-TRYM,4 Canford Lane,WESTBURY-ON-TRYM,,BS9 3DH,Peter Nagy,Eduardo Cortez,,,03,801,110,2200016553483,NHH,Npower Limited,01/10/2014,30/09/2017,1,,,107801,,,,,,Flexible Contract,Tender Completed,No,No,04027169_2014_2017
Elec,,COFFEE #1 LTD,,CHEPSTOW,1-2 Conrad House,Beaufort Square,,NP16 5EP,Peter Nagy,Eduardo Cortez,,,03,801,200,2199991787399,NHH,Npower Limited,01/10/2014,30/09/2017,1,,,89168,,,,,,Flexible Contract,Tender Completed,No,No,04027169_2014_2017
Elec,,COFFEE #1 LTD,,WELLFIELD ROAD,43 Wellfeild Road,ROATH,,CF24 3PA,Peter Nagy,Eduardo Cortez,,,03,801,200,2199993737646,NHH,Npower Limited,01/10/2014,30/09/2017,1,,,69938,,,,,,Flexible Contract,Tender Completed,No,No,04027169_2014_2017
Elec,,COFFEE #1 LTD,,CLEVEDON,7-8 Station Road,Clevedon,,BS21 6NH,Peter Nagy,Eduardo Cortez,LV,,03,801,110,2200013635229,NHH,Npower Limited,01/10/2014,30/09/2017,1,,,56419,,,,,,Flexible Contract,Tender Completed,No,No,04027169_2014_2017
Elec,,COFFEE #1 LTD,,WELLS,Coffee 1 Wells,11 High Street,,BA5 2AE,Peter Nagy,Eduardo Cortez,,,03,801,110,2200012244218,NHH,Npower Limited,01/10/2014,30/09/2017,1,,,89019,,,,,,Flexible Contract,Tender Completed,No,No,04027169_2014_2017
Elec,,COFFEE #1 LTD,,THORNBURY BRISTOL,11 High Street,Thornbury,,BS35 2AE,Peter Nagy,Eduardo Cortez,,,03,801,007,1416267951001,NHH,Npower Limited,01/10/2014,30/09/2017,1,,,79277,,,,,,Flexible Contract,Tender Completed,No,No,04027169_2014_2017
Elec,,COFFEE #1 LTD,,KEYNESHAM BRISTOL,47-49 High Street,Keynsham,,BS31 1DS,Peter Nagy,Eduardo Cortez,,,03,801,110,2200015139038,NHH,Npower Limited,01/10/2014,30/09/2017,1,,,70193,,,,,,Flexible Contract,Tender Completed,No,No,04027169_2014_2017
Elec,,COFFEE #1 LTD,,WINDSOR ROAD PENARTH,Coffee 1 Penarth,13 Windsor Road,,CF64 1JB,Peter Nagy,Eduardo Cortez,,,03,801,200,2100040990400,NHH,Npower Limited,01/10/2014,30/09/2017,1,,,0,,,,,,Flexible Contract,Tender Completed,No,No,04027169_2014_2017
Elec,,COFFEE #1 LTD,,PRINCESSHAY  EXETER,Princesshay Shopping Centre,PRINCESSHAY,,EX1 1GN,Peter Nagy,Eduardo Cortez,,,03,801,110,2200041272935,NHH,Npower Limited,01/10/2014,30/09/2017,1,,,48850,,,,,,Flexible Contract,Tender Completed,No,No,04027169_2014_2017
Elec,,COFFEE #1 LTD,,PONTCANNA CARDIFF,211-217 Cathedral Road,Pontcanna,,CF10 2GP,Peter Nagy,Eduardo Cortez,,,03,801,200,2100040143384,NHH,Npower Limited,01/10/2014,30/09/2017,1,,,68807,,,,,,Flexible Contract,Tender Completed,No,No,04027169_2014_2017
Elec,,COFFEE #1 LTD,,THE ASPECT CARDIFF,Unit 1 The Aspect,140 Queen Street,,CF10 2GP,Peter Nagy,Eduardo Cortez,LV,,03,801,200,2100040181352,NHH,Npower Limited,01/10/2014,30/09/2017,1,,,39511,,,,,,Flexible Contract,Tender Completed,No,No,04027169_2014_2017
Elec,,COFFEE #1 LTD,,WELLINGTON,Coffee 1 Wellington,17 Fore Street,,TA21 2AA,Peter Nagy,Eduardo Cortez,,,08,801,570,2200030042122,NHH,Npower Limited,01/10/2014,30/09/2017,1,,,69687,,,,,,Flexible Contract,Tender Completed,No,No,04027169_2014_2017
Elec,,COFFEE #1 LTD,,NORTH STREET TAUNTON,Coffee 1 Taunton,32 North Street,,TA1 1LW,Peter Nagy,Eduardo Cortez,,,03,500,110,2200040348158,NHH,Npower Limited,01/10/2014,30/09/2017,1,,,49118,,,,,,Flexible Contract,Tender Completed,No,No,04027169_2014_2017
Elec,,COFFEE #1 LTD,,PERSHORE,Coffee 1 Pershore,12 High Street,,WR10 1BG,Peter Nagy,Eduardo Cortez,LV,,03,873,007,1470000225314,NHH,Npower Limited,01/10/2014,30/09/2017,1,,,39551,,,,,,Flexible Contract,Tender Completed,No,No,04027169_2014_2017
Elec,,COFFEE #1 LTD,,WARMINSTER,Coffee 1 Warminster,30 Market Place,,BA12 9AN,Peter Nagy,Eduardo Cortez,,,05,801,400,2000027481970,NHH,Npower Limited,01/10/2014,30/09/2017,1,,,46178,,,,,,Flexible Contract,Tender Completed,No,No,04027169_2014_2017
Elec,,COFFEE #1 LTD,,TEWKESBURY-HIGH STREET,Coffee 1 Tewkesbury,26-29 High Street,,GL20 5AT,Peter Nagy,Eduardo Cortez,,,03,801,008,1413924181006,NHH,Npower Limited,01/10/2014,30/09/2017,1,,,59815,,,,,,Flexible Contract,Tender Completed,No,No,04027169_2014_2017
Elec,,COFFEE #1 LTD,,GLOUCESTER-NORTHGATE ST,Coffee 1 Gloucester,25 Northgate St,,GL20 5BL,Peter Nagy,Eduardo Cortez,,,06,034,021,1426673200004,NHH,Npower Limited,01/10/2014,30/09/2017,1,,,65114,,,,,,Flexible Contract,Tender Completed,No,No,04027169_2014_2017
Elec,,COFFEE #1 LTD,,WHITCHURCH,"22, Merthyr Road",Whitchurch,,CF14 1DH,Peter Nagy,Eduardo Cortez,LV,,03,220,200,2199993377226,NHH,Npower Limited,01/10/2014,30/09/2017,1,,,59205.5,,,,,,Flexible Contract,Tender Completed,No,No,04027169_2014_2017
Elec,,COFFEE #1 LTD,,TROWBRIDGE,Coffee 1 Trowbridge,37-38 Fore Street,,BA14 8EH,Peter Nagy,Eduardo Cortez,LV,,03,801,127,2000006366819,NHH,Npower Limited,01/10/2014,30/09/2017,1,,,49642.0,,,,,,Flexible Contract,Tender Completed,No,No,04027169_2014_2017
Elec,,COFFEE #1 LTD,,CASTLE ST- CIRENCESTER,Units 1-2,Castle Street,,GL7 1QA,Peter Nagy,Eduardo Cortez,,,03,801,126,2000054359027,NHH,Npower Limited,01/10/2014,30/09/2017,1,,,49123,,,,,,Flexible Contract,Tender Completed,No,No,04027169_2014_2017
Elec,,COFFEE #1 LTD,,YEOVIL,Coffee 1 Yeovil,17 Middle Street,,BA 20 1LF,Peter Nagy,Eduardo Cortez,LV,,03,800,127,2000026022783,NHH,Npower Limited,01/10/2014,30/09/2017,1,,,91033,,,,,,Flexible Contract,Tender Completed,No,No,04027169_2014_2017
Elec,,COFFEE #1 LTD,, CHIPPING SODBURY,Coffee 1 Chipping Sodbury,31 High Streeet,,BS37 6BD,Peter Nagy,Eduardo Cortez,,,03,801,007,1415329851001,NHH,Npower Limited,01/10/2014,30/09/2017,1,,,49021,,,,,,Flexible Contract,Tender Completed,No,No,04027169_2014_2017
Elec,,COFFEE #1 LTD,,FISHPONDS,784A Fishponds Road,Fishponds,,BS16 3TT,Peter Nagy,Eduardo Cortez,,,06,026,570,2200017439961,NHH,Npower Limited,01/10/2014,30/09/2017,1,,,60038,,,,,,Flexible Contract,Tender Completed,No,No,04027169_2014_2017
Elec,,COFFEE #1 LTD,,WINTON,401 Wimbourne Road,Winton,,BH9 2AJ,Peter Nagy,Eduardo Cortez,,,03,801,127,2000020871448,NHH,Npower Limited,01/10/2014,30/09/2017,1,,,49126,,,,,,Flexible Contract,Tender Completed,No,No,04027169_2014_2017
Elec,,COFFEE #1 LTD,,WEYMOUTH,Coffee 1 Weymouth,35 St Mary Street,,DT4 8PN,Peter Nagy,Eduardo Cortez,,,05,801,400,2000025341720,NHH,Npower Limited,01/10/2014,30/09/2017,1,,,59925,,,,,,Flexible Contract,Tender Completed,No,No,04027169_2014_2017
Elec,,COFFEE #1 LTD,, LEOMINSTER,Coffee 1 Leominster,Corn Square,,HR6 8LR,Peter Nagy,Eduardo Cortez,,,03,801,007,1410087602008,NHH,Npower Limited,01/10/2014,30/09/2017,1,,,4002,,,,,,Flexible Contract,Tender Completed,No,No,04027169_2014_2017
Elec,,COFFEE #1 LTD,,TORQUAY,Coffee 1 Torquay,25-27 Fleet Street,,TQ1 1DB,Peter Nagy,Eduardo Cortez,,,04,041,210,2200040588171,NHH,Npower Limited,01/10/2014,30/09/2017,1,,,59658,,,,,,Flexible Contract,Tender Completed,No,No,04027169_2014_2017
Elec,,COFFEE #1 LTD,,SHIRLEY,4a-5a Shirley High Street,Shirley,,SO15 3NH,Peter Nagy,Eduardo Cortez,LV,,03,801,127,2000022803937,NHH,Npower Limited,01/10/2014,30/09/2017,1,,,42500,,,,,,Flexible Contract,Tender Completed,No,No,04027169_2014_2017
Elec,,COFFEE #1 LTD,,CARMARTHEN,Unit 19,St Catherines Walk,,SA31 1GA,Peter Nagy,Eduardo Cortez,LV,,03,801,200,2100040946785,NHH,Npower Limited,01/10/2014,30/09/2017,1,,,50500,,,,,,Flexible Contract,Tender Completed,No,No,04027169_2014_2017
Elec,,COFFEE #1 LTD,,WESTON SUPER MARE,Weston-super-Mare,18-20 High Street,,BS23 1JF,Peter Nagy,Eduardo Cortez,LV,,03,801,110,2200012991505,NHH,Npower Limited,01/10/2014,30/09/2017,1,,,34860,,,,,,Flexible Contract,Tender Completed,No,No,04027169_2014_2017
Elec,,COFFEE #1 LTD,,SWANSEA,Unit 4a,28 Princess Way,,SA1 5HE,Peter Nagy,Eduardo Cortez,LV,,03,801,200,2100040837640,NHH,Npower Limited,01/10/2014,30/09/2017,1,,,47023,,,,,,Flexible Contract,Tender Completed,No,No,04027169_2014_2017
Elec,,COFFEE #1 LTD,, SOUTHSEA,Southsea,39 Palmerston Road,,PO5 3QQ,Peter Nagy,Eduardo Cortez,LV,,03,801,126,2000013637811,NHH,Npower Limited,01/10/2014,30/09/2017,1,,,16114,,,,,,Flexible Contract,Tender Completed,No,No,04027169_2014_2017
Elec,,COFFEE #1 LTD,,NEWBURY,Unit G34,Parkway Shopping Centre,,RG14 1AY,Peter Nagy,Eduardo Cortez,LV,,06,873,161,2700000487281,NHH,Npower Limited,01/10/2014,30/09/2017,1,,,84857,,,,,,Flexible Contract,Tender Completed,No,No,04027169_2014_2017
Elec,,COFFEE #1 LTD,,EASTLEIGH,9 Leigh Rd,,,SO50 5RA,Peter Nagy,Eduardo Cortez,LV,,03,801,127,2000023058262,NHH,Npower Limited,01/10/2014,30/09/2017,1,,,757,,,,,,Flexible Contract,Tender Completed,No,No,04027169_2014_2017
Elec,,COFFEE #1 LTD,,PAIGNTON,46 Victoria St,Paignton,,TQ4 5DS,Peter Nagy,Eduardo Cortez,LV,,03,801,110,2200020754826,NHH,Npower Limited,01/10/2014,30/09/2017,1,,,101160,,,,,,Flexible Contract,Tender Completed,No,No,04027169_2014_2017
Elec,,COFFEE #1 LTD,,Gosport,"74 High Street, Gosport",Hampshire,,PO12 1DR,Peter Nagy,Eduardo Cortez,LV,,02,132,136,2000014862004,NHH,Npower Limited,01/10/2014,30/09/2017,1,,,57000,,,,,,Flexible Contract,Tender Completed,No,No,04027169_2014_2017
Elec,,COFFEE #1 LTD,,NEWTON ABBOT,46 Courtnay St,Newton Abbot,,TQ12 2ED,Peter Nagy,Eduardo Cortez,LV,,03,801,110,2200019886870,NHH,Npower Limited,01/10/2014,30/09/2017,1,,,1000,,,,,,Flexible Contract,Tender Completed,No,No,04027169_2014_2017
