fuel,site_id,supplier_name,start_date,end_date,rate_allunit,rate_day,rate_night,usage_allunit,usage_day,usage_night,standingcharge_month,commission_kwh,commission_year,contract_type,tender_status,termination_optout,registration_confirmed,contract_id
Gas,63331,ORSTED (FORMER DONG ENERGY SALES UK LTD),01/10/2018,30/09/2019,2.981,,,371317,,,2170.55,,,Fully Fixed,Tender Complete,No,Yes,1010026236 - 2020322848
Gas,63327,ORSTED (FORMER DONG ENERGY SALES UK LTD),01/10/2018,30/09/2019,2.996,,,529245,,,4096.92,,,Fully Fixed,Tender Complete,No,Yes,1010026236 - 2020322848
Gas,63297,ORSTED (FORMER DONG ENERGY SALES UK LTD),01/10/2018,30/09/2019,2.977,,,212168,,,1640.55,,,Fully Fixed,Tender Complete,No,Yes,1010026236 - 2020322848
Gas,63322,ORSTED (FORMER DONG ENERGY SALES UK LTD),01/10/2018,30/09/2019,2.961,,,115356,,,924.95,,,Fully Fixed,Tender Complete,No,Yes,1010026236 - 2020322848
Gas,63345,ORSTED (FORMER DONG ENERGY SALES UK LTD),01/10/2018,30/09/2019,2.978,,,168760,,,1893.72,,,Fully Fixed,Tender Complete,No,Yes,1010026236 - 2020322848
Gas,63319,ORSTED (FORMER DONG ENERGY SALES UK LTD),01/10/2018,30/09/2019,2.963,,,117803,,,933.66,,,Fully Fixed,Tender Complete,No,Yes,1010026236 - 2020322848
Gas,63333,ORSTED (FORMER DONG ENERGY SALES UK LTD),01/10/2018,30/09/2019,2.978,,,222242,,,1351.86,,,Fully Fixed,Tender Complete,No,Yes,1010026236 - 2020322848
Gas,63300,ORSTED (FORMER DONG ENERGY SALES UK LTD),01/10/2018,30/09/2019,2.958,,,45144,,,534.41,,,Fully Fixed,Tender Complete,No,Yes,1010026236 - 2020322848
Gas,63303,ORSTED (FORMER DONG ENERGY SALES UK LTD),01/10/2018,30/09/2019,2.963,,,215319,,,1528.52,,,Fully Fixed,Tender Complete,No,Yes,1010026236 - 2020322848
Gas,63349,ORSTED (FORMER DONG ENERGY SALES UK LTD),01/10/2018,30/09/2019,2.939,,,82663,,,1396.69,,,Fully Fixed,Tender Complete,No,Yes,1010026236 - 2020322848
Gas,63337,ORSTED (FORMER DONG ENERGY SALES UK LTD),01/10/2018,30/09/2019,2.969,,,322982,,,3434.21,,,Fully Fixed,Tender Complete,No,Yes,1010026236 - 2020322848
Gas,63309,ORSTED (FORMER DONG ENERGY SALES UK LTD),01/10/2018,30/09/2019,2.939,,,122868,,,913.61,,,Fully Fixed,Tender Complete,No,Yes,1010026236 - 2020322848
Gas,63340,ORSTED (FORMER DONG ENERGY SALES UK LTD),01/10/2018,30/09/2019,2.967,,,138285,,,948.49,,,Fully Fixed,Tender Complete,No,Yes,1010026236 - 2020322848
Gas,63315,ORSTED (FORMER DONG ENERGY SALES UK LTD),01/10/2018,30/09/2019,2.984,,,166496,,,1237.78,,,Fully Fixed,Tender Complete,No,Yes,1010026236 - 2020322848
Gas,63304,ORSTED (FORMER DONG ENERGY SALES UK LTD),01/10/2018,30/09/2019,2.962,,,196818,,,2234.73,,,Fully Fixed,Tender Complete,No,Yes,1010026236 - 2020322848
Gas,63332,ORSTED (FORMER DONG ENERGY SALES UK LTD),01/10/2018,30/09/2019,2.961,,,162911,,,1181.10,,,Fully Fixed,Tender Complete,No,Yes,1010026236 - 2020322848
Gas,63299,ORSTED (FORMER DONG ENERGY SALES UK LTD),01/10/2018,30/09/2019,2.976,,,12427,,,321.97,,,Fully Fixed,Tender Complete,No,Yes,1010026236 - 2020322848
Gas,63321,ORSTED (FORMER DONG ENERGY SALES UK LTD),01/10/2018,30/09/2019,2.961,,,197407,,,1425.15,,,Fully Fixed,Tender Complete,No,Yes,1010026236 - 2020322848
Gas,63295,ORSTED (FORMER DONG ENERGY SALES UK LTD),01/10/2018,30/09/2019,2.994,,,220495,,,1518.44,,,Fully Fixed,Tender Complete,No,Yes,1010026236 - 2020322848
Gas,63285,ORSTED (FORMER DONG ENERGY SALES UK LTD),01/10/2018,30/09/2019,2.982,,,190846,,,1476.85,,,Fully Fixed,Tender Complete,No,Yes,1010026236 - 2020322848
Gas,63313,ORSTED (FORMER DONG ENERGY SALES UK LTD),01/10/2018,30/09/2019,2.857,,,959229,,,8662.14,,,Fully Fixed,Tender Complete,No,Yes,1010026236 - 2020322848
Gas,63348,ORSTED (FORMER DONG ENERGY SALES UK LTD),01/10/2018,30/09/2019,2.982,,,102410,,,894.65,,,Fully Fixed,Tender Complete,No,Yes,1010026236 - 2020322848
Gas,63314,ORSTED (FORMER DONG ENERGY SALES UK LTD),01/10/2018,30/09/2019,2.973,,,313349,,,1949.59,,,Fully Fixed,Tender Complete,No,Yes,1010026236 - 2020322848
Gas,63296,ORSTED (FORMER DONG ENERGY SALES UK LTD),01/10/2018,30/09/2019,2.977,,,102985,,,932.83,,,Fully Fixed,Tender Complete,No,Yes,1010026236 - 2020322848
Gas,63324,ORSTED (FORMER DONG ENERGY SALES UK LTD),01/10/2018,30/09/2019,3.039,,,14,,,108.80,,,Fully Fixed,Tender Complete,No,Yes,1010026236 - 2020322848
Gas,63328,ORSTED (FORMER DONG ENERGY SALES UK LTD),01/10/2018,30/09/2019,2.978,,,179440,,,1181.00,,,Fully Fixed,Tender Complete,No,Yes,1010026236 - 2020322848
Gas,63288,ORSTED (FORMER DONG ENERGY SALES UK LTD),01/10/2018,30/09/2019,2.954,,,79417,,,698.81,,,Fully Fixed,Tender Complete,No,Yes,1010026236 - 2020322848
Gas,63311,ORSTED (FORMER DONG ENERGY SALES UK LTD),01/10/2018,30/09/2019,2.939,,,119628,,,897.02,,,Fully Fixed,Tender Complete,No,Yes,1010026236 - 2020322848
Gas,63344,ORSTED (FORMER DONG ENERGY SALES UK LTD),01/10/2018,30/09/2019,2.961,,,105335,,,898.53,,,Fully Fixed,Tender Complete,No,Yes,1010026236 - 2020322848
Gas,63323,ORSTED (FORMER DONG ENERGY SALES UK LTD),01/10/2018,30/09/2019,2.978,,,46023,,,1059.56,,,Fully Fixed,Tender Complete,No,Yes,1010026236 - 2020322848
Gas,63308,ORSTED (FORMER DONG ENERGY SALES UK LTD),01/10/2018,30/09/2019,2.962,,,106003,,,791.24,,,Fully Fixed,Tender Complete,No,Yes,1010026236 - 2020322848
Gas,63335,ORSTED (FORMER DONG ENERGY SALES UK LTD),01/10/2018,30/09/2019,2.959,,,214793,,,1874.96,,,Fully Fixed,Tender Complete,No,Yes,1010026236 - 2020322848
Gas,63290,ORSTED (FORMER DONG ENERGY SALES UK LTD),01/10/2018,30/09/2019,2.954,,,230613,,,1563.73,,,Fully Fixed,Tender Complete,No,Yes,1010026236 - 2020322848
Gas,63302,ORSTED (FORMER DONG ENERGY SALES UK LTD),01/10/2018,30/09/2019,2.963,,,211251,,,2154.63,,,Fully Fixed,Tender Complete,No,Yes,1010026236 - 2020322848
Gas,63292,ORSTED (FORMER DONG ENERGY SALES UK LTD),01/10/2018,30/09/2019,3.851,,,1,,,108.74,,,Fully Fixed,Tender Complete,No,Yes,1010026236 - 2020322848
Gas,63305,ORSTED (FORMER DONG ENERGY SALES UK LTD),01/10/2018,30/09/2019,3.834,,,1,,,129.44,,,Fully Fixed,Tender Complete,No,Yes,1010026236 - 2020322848
Gas,63294,ORSTED (FORMER DONG ENERGY SALES UK LTD),01/10/2018,30/09/2019,2.98,,,27650,,,422.33,,,Fully Fixed,Tender Complete,No,Yes,1010026236 - 2020322848
Gas,63330,ORSTED (FORMER DONG ENERGY SALES UK LTD),01/10/2018,30/09/2019,2.939,,,192200,,,1254.01,,,Fully Fixed,Tender Complete,No,Yes,1010026236 - 2020322848
Gas,63307,ORSTED (FORMER DONG ENERGY SALES UK LTD),01/10/2018,30/09/2019,2.964,,,80758,,,649.45,,,Fully Fixed,Tender Complete,No,Yes,1010026236 - 2020322848
Gas,63306,ORSTED (FORMER DONG ENERGY SALES UK LTD),01/10/2018,30/09/2019,2.964,,,77026,,,672.94,,,Fully Fixed,Tender Complete,No,Yes,1010026236 - 2020322848
Gas,63310,ORSTED (FORMER DONG ENERGY SALES UK LTD),01/10/2018,30/09/2019,2.944,,,62471,,,877.63,,,Fully Fixed,Tender Complete,No,Yes,1010026236 - 2020322848
Gas,63334,ORSTED (FORMER DONG ENERGY SALES UK LTD),01/10/2018,30/09/2019,2.954,,,210766,,,1637.32,,,Fully Fixed,Tender Complete,No,Yes,1010026236 - 2020322848
Gas,63346,ORSTED (FORMER DONG ENERGY SALES UK LTD),01/10/2018,30/09/2019,2.978,,,235646,,,1493.50,,,Fully Fixed,Tender Complete,No,Yes,1010026236 - 2020322848
Gas,63341,ORSTED (FORMER DONG ENERGY SALES UK LTD),01/10/2018,30/09/2019,2.967,,,88114,,,674.05,,,Fully Fixed,Tender Complete,No,Yes,1010026236 - 2020322848
Gas,63336,ORSTED (FORMER DONG ENERGY SALES UK LTD),01/10/2018,30/09/2019,2.978,,,35181,,,554.72,,,Fully Fixed,Tender Complete,No,Yes,1010026236 - 2020322848
Gas,63320,ORSTED (FORMER DONG ENERGY SALES UK LTD),01/10/2018,30/09/2019,2.976,,,26537,,,411.94,,,Fully Fixed,Tender Complete,No,Yes,1010026236 - 2020322848
Gas,63289,ORSTED (FORMER DONG ENERGY SALES UK LTD),01/10/2018,30/09/2019,2.966,,,23571,,,378.72,,,Fully Fixed,Tender Complete,No,Yes,1010026236 - 2020322848
Gas,63347,ORSTED (FORMER DONG ENERGY SALES UK LTD),01/10/2018,30/09/2019,2.978,,,169652,,,1142.31,,,Fully Fixed,Tender Complete,No,Yes,1010026236 - 2020322848
Gas,63293,ORSTED (FORMER DONG ENERGY SALES UK LTD),01/10/2018,30/09/2019,2.975,,,21631,,,311.17,,,Fully Fixed,Tender Complete,No,Yes,1010026236 - 2020322848
Gas,63325,ORSTED (FORMER DONG ENERGY SALES UK LTD),01/10/2018,30/09/2019,2.978,,,38757,,,519.33,,,Fully Fixed,Tender Complete,No,Yes,1010026236 - 2020322848
Gas,63326,ORSTED (FORMER DONG ENERGY SALES UK LTD),01/10/2018,30/09/2019,3.853,,,1,,,153.26,,,Fully Fixed,Tender Complete,No,Yes,1010026236 - 2020322848
Gas,63312,ORSTED (FORMER DONG ENERGY SALES UK LTD),01/10/2018,30/09/2019,2.961,,,234600,,,1619.23,,,Fully Fixed,Tender Complete,No,Yes,1010026236 - 2020322848
Gas,63316,ORSTED (FORMER DONG ENERGY SALES UK LTD),01/10/2018,30/09/2019,2.976,,,44854,,,681.83,,,Fully Fixed,Tender Complete,No,Yes,1010026236 - 2020322848
Gas,63317,ORSTED (FORMER DONG ENERGY SALES UK LTD),01/10/2018,30/09/2019,2.967,,,166202,,,1113.12,,,Fully Fixed,Tender Complete,No,Yes,1010026236 - 2020322848
Gas,63318,ORSTED (FORMER DONG ENERGY SALES UK LTD),01/10/2018,30/09/2019,2.967,,,161786,,,1114.75,,,Fully Fixed,Tender Complete,No,Yes,1010026236 - 2020322848
Gas,63339,ORSTED (FORMER DONG ENERGY SALES UK LTD),01/10/2018,30/09/2019,2.977,,,80869,,,780.84,,,Fully Fixed,Tender Complete,No,Yes,1010026236 - 2020322848
Gas,63298,ORSTED (FORMER DONG ENERGY SALES UK LTD),01/10/2018,30/09/2019,2.975,,,1502,,,142.42,,,Fully Fixed,Tender Complete,No,Yes,1010026236 - 2020322848
Gas,63739,ORSTED (FORMER DONG ENERGY SALES UK LTD),01/10/2018,30/09/2019,2.963,,,118161,,,944.31,,,Fully Fixed,Tender Complete,No,Yes,1010026236 - 2020322848
