Analyst,Customer_Name,AM_Name,Fuel_Type,Start Date,End Date,Profile,MTS,LLF,Meter_Number,Site_Name,UML_Site_Reference,Footprint_Client_Reference,Meter_Type_Elec,Footprint_Site_Reference,Supplier_Name,Customer Class,Address,Address 2,Address 3,Postcode,Voltage,ASC,All Unit Rate,Day Rate,Night Rate,standing charge month,All Unit Usage,Day Usage,Night Usage,Commission p kwh,Fixed Commission Per year,Contract Type,Tender Status,Termination Opt Out,Registration Confirmed,,MPAN,Annual Consumpt,Sub-Building,Bldg Name,Bldg No,Thoroughfare,Dep Locality,Post Town,Post Code,,
Neil Marshall,EAT Ltd,Neil Marshall,Elec,01/10/2013,30/09/2015,03,380,239,1012838346310,UPPER GROUND (SAIMOL HOUSE),,,NHH,,Scottish Power Ltd,Corporate, MAIN METER 1st FLOOR ,Fourth Way,Wembley,HA9 0HQ,LV,0,10.502,,,9.05,116571 ,,,,,Fixed Contract,Tender Complete,No,Yes,,1200025046600,194579.152,8  BASE & GROUND FLOORS BERKELEY SQUARE,BASE & GROUND FLOORS,8,BERKELEY SQUARE,,LONDON,W1J 6EE,8 8  BASE & GROUND FLOORS BERKELEY SQUARE BASE & GROUND FLOORS BERKELEY SQUARE,8  BASE & GROUND FLOORS BERKELEY SQUARE BASE & GROUND FLOORS BERKELEY SQUARE
Neil Marshall,EAT Ltd,Neil Marshall,Elec,01/10/2013,30/09/2015,03,380,239,1012838332976,UNIT 3 MSP BUSINES CENTRE,,,NHH,,Scottish Power Ltd,Corporate, UNIT 3 MSP BUSINESS CENTRE,Fourth Way,Wembley,HA9 0HQ,LV,0,10.502,,,9.05,121650 ,,,,,Fixed Contract,Tender Complete,No,Yes,,1200029882300,123077.1828, GROUND AND BASEMENT 41-42 Bedford Street,41-42,,Bedford Street,,LONDON,WC2E 9HA,  GROUND AND BASEMENT 41-42 Bedford Street 41-42 Bedford Street, GROUND AND BASEMENT 41-42 Bedford Street 41-42 Bedford Street
Neil Marshall,EAT Ltd,Neil Marshall,Elec,01/10/2013,30/09/2015,04,807,205,1012838345850,MSP 580,,,NHH,,Scottish Power Ltd,Corporate, FIRST FLOOR OFFICE AREA WEMBLEY BUSINESS CENTRE,Fourth Way,Wembley,HA9 0HQ,LV,0,,11.131,7.888,10.29,,1,1,,,Fixed Contract,Tender Complete,No,Yes,,1012838332976,121650.2622, UNIT 3 MSP BUSINESS CENTRE FOURTH WAY,MSP BUSINESS CENTRE,,FOURTH WAY,,Wembley,HA9 0HQ,  UNIT 3 MSP BUSINESS CENTRE FOURTH WAY MSP BUSINESS CENTRE FOURTH WAY, UNIT 3 MSP BUSINESS CENTRE FOURTH WAY MSP BUSINESS CENTRE FOURTH WAY
Neil Marshall,EAT Ltd,Neil Marshall,Elec,01/10/2013,30/09/2015,04,807,205,1012838346542,MSP 542,,,NHH,,Scottish Power Ltd,Corporate,  FIRST FLOOR ,Fourth Way,Wembley,HA9 0HQ,LV,0,,11.131,7.888,10.29,,1,1,,,Fixed Contract,Tender Complete,No,Yes,,1012838345850,0, FIRST FLOOR OFFICE AREA WEMBLEY BUSINESS CENTRE FOURTH WAY,WEMBLEY BUSINESS CENTRE,,FOURTH WAY,,Wembley,HA9 0HQ,  FIRST FLOOR OFFICE AREA WEMBLEY BUSINESS CENTRE FOURTH WAY WEMBLEY BUSINESS CENTRE FOURTH WAY, FIRST FLOOR OFFICE AREA WEMBLEY BUSINESS CENTRE FOURTH WAY WEMBLEY BUSINESS CENTRE FOURTH WAY
Neil Marshall,EAT Ltd,Neil Marshall,Elec,01/10/2013,30/09/2015,04,480,205,1012838346774,UNIT 2 SAIMAL BUSINESS CENTRE,,,NHH,,Scottish Power Ltd,Corporate, UNIT 2 BASEMENT SUPPLY,Fourth Way,Wembley,HA9 0HQ,LV,0,,11.131,7.888,10.29,,"13,524","5,260",,,Fixed Contract,Tender Complete,No,Yes,,1012838346310,116571.194, MAIN METER 1st FLOOR FOURTH WAY,1st FLOOR,,FOURTH WAY,,Wembley,HA9 0HQ,  MAIN METER 1st FLOOR FOURTH WAY 1st FLOOR FOURTH WAY, MAIN METER 1st FLOOR FOURTH WAY 1st FLOOR FOURTH WAY
Neil Marshall,EAT Ltd,Neil Marshall,Elec,01/10/2013,30/09/2015,03,801,201,1300054517847,South John Street,,,NHH,,Scottish Power Ltd,Corporate,65  Unit 53B ,South John Street,LIVERPOOL,L1 8BU,LV,0,11.962,,,9.00,136070 ,,,,,Fixed Contract,Tender Complete,No,Yes,,1012838346542,0,  FIRST FLOOR FOURTH WAY,FIRST FLOOR,,FOURTH WAY,,Wembley,HA9 0HQ,   FIRST FLOOR FOURTH WAY FIRST FLOOR FOURTH WAY,  FIRST FLOOR FOURTH WAY FIRST FLOOR FOURTH WAY
Neil Marshall,EAT Ltd,Neil Marshall,Elec,01/10/2013,30/09/2015,04,481,010,1460001059741,BRINDLEY PLACE,,,NHH,,Scottish Power Ltd,Corporate,6 SHOP 1 Brindley Place,,BIRMINGHAM,B1 2JB,LV,0,,10.934,7.614,9.84,,"55,490","21,579",,,Fixed Contract,Tender Complete,No,Yes,,1012838346774,18784.51311, UNIT 2 BASEMENT SUPPLY FOURTH WAY,BASEMENT SUPPLY,,FOURTH WAY,,Wembley,HA9 0HQ,  UNIT 2 BASEMENT SUPPLY FOURTH WAY BASEMENT SUPPLY FOURTH WAY, UNIT 2 BASEMENT SUPPLY FOURTH WAY BASEMENT SUPPLY FOURTH WAY
Neil Marshall,EAT Ltd,Neil Marshall,Elec,01/10/2013,30/09/2015,04,481,161,1610000044644,CROSS STREET,,,NHH,,Scottish Power Ltd,Corporate,62   CROSS STREET,,MANCHESTER,M2 4JQ,LV,0,,11.474,7.917,9.85,,"82,470","32,072",,,Fixed Contract,Tender Complete,No,Yes,,1014570417430,178838.1912,21   Petty Cury,,21,Petty Cury,,CAMBRIDGE,CB2 3NE,21 21   Petty Cury  Petty Cury,21   Petty Cury  Petty Cury
Neil Marshall,EAT Ltd,Neil Marshall,Elec,01/10/2013,30/09/2015,03,380,131,1610000052609,ST ANN`S,,,NHH,,Scottish Power Ltd,Corporate,  NADIN HOUSE ST ANN STREET,,MANCHESTER,M2 7LG,LV,0,11.179,,,8.47,81447 ,,,,,Fixed Contract,Tender Complete,No,Yes,,1023539095162,1906655.09,  UNIT 32-34 FOURTH WAY,UNIT 32-34,,FOURTH WAY,,Wembley,HA9 0LH,   UNIT 32-34 FOURTH WAY UNIT 32-34 FOURTH WAY,  UNIT 32-34 FOURTH WAY UNIT 32-34 FOURTH WAY
Neil Marshall,EAT Ltd,Neil Marshall,Elec,01/10/2013,30/09/2015,03,380,131,1620000154194,THE TRAFORD CENTRE,,,NHH,,Scottish Power Ltd,Corporate,  Unit 31 ,,MANCHESTER,M17 8FS,LV,0,11.179,,,8.47,155106 ,,,,,Fixed Contract,Tender Complete,No,Yes,,1100039200696,115945.8136,1  LOWER GROUND FLOOR High Street,LOWER GROUND FLOOR,1,High Street,,LEICESTER,LE1 4FQ,1 1  LOWER GROUND FLOOR High Street LOWER GROUND FLOOR High Street,1  LOWER GROUND FLOOR High Street LOWER GROUND FLOOR High Street
Neil Marshall,EAT Ltd,Neil Marshall,Elec,01/10/2013,30/09/2015,03,380,631,1630000001420,ARNDALE,,,NHH,,Scottish Power Ltd,Corporate,  UNIT R1 Market Street,,MANCHESTER,M2 1NP,LV,0,11.179,,,8.47,35287 ,,,,,Fixed Contract,Tender Complete,No,Yes,,1200010010382,176337.1154,  106/110 BROMPTON ROAD,106/110,,BROMPTON ROAD,,LONDON,SW3 1JJ,   106/110 BROMPTON ROAD 106/110 BROMPTON ROAD,  106/110 BROMPTON ROAD 106/110 BROMPTON ROAD
Neil Marshall,EAT Ltd,Neil Marshall,Elec,01/10/2013,30/09/2015,04,480,661,1630000762232,ARNDALE CENTRE,,,NHH,,Scottish Power Ltd,Corporate,  Unit 54B ARNDALE CENTRE,,MANCHESTER,M4 2HU,LV,0,,11.474,7.917,9.85,,"93,082","36,199",,,Fixed Contract,Tender Complete,No,Yes,,1200020107230,73719.22509,3   STRUTTON GROUND,,3,STRUTTON GROUND,,LONDON,SW1P 2HX,3 3   STRUTTON GROUND  STRUTTON GROUND,3   STRUTTON GROUND  STRUTTON GROUND
Neil Marshall,EAT Ltd,Neil Marshall,Elec,01/10/2013,30/09/2015,03,801,201,1800032682982,31-33 Gordon Street,,,NHH,,Scottish Power Ltd,Corporate,  31-33  Gordon Street,,GLASGOW,G1 3PF,LV,0,10.676,,,9.21,139462 ,,,,,Fixed Contract,Tender Complete,No,Yes,,1200020260063,72975.30075,63   NOTTING HILL GATE,,63,NOTTING HILL GATE,,LONDON,W11 3JS,63 63   NOTTING HILL GATE  NOTTING HILL GATE,63   NOTTING HILL GATE  NOTTING HILL GATE
Neil Marshall,EAT Ltd,Neil Marshall,Elec,01/10/2013,30/09/2015,03,801,201,1800050902029,Unit 2 Buchanan Gallaries,,,NHH,,Scottish Power Ltd,Corporate, Unit 2 Buchanan Gallaries ,Buchanon Street,GLASGOW,G2 3GF,LV,0,10.676,,,9.21,139655 ,,,,,Fixed Contract,Tender Complete,No,Yes,,1200020669717,149403.0483,15  GROUND & BASEMENT Dover Street,GROUND & BASEMENT,15,Dover Street,,LONDON,W1S 4LP,15 15  GROUND & BASEMENT Dover Street GROUND & BASEMENT Dover Street,15  GROUND & BASEMENT Dover Street GROUND & BASEMENT Dover Street
Neil Marshall,EAT Ltd,Neil Marshall,Elec,01/10/2013,30/09/2015,03,801,320,1900021376044,75-76 North Street,,,NHH,,Scottish Power Ltd,Corporate,  75-76  North Street,,BRIGHTON,BN1 1ZA,LV,0,10.5,,,8.76,155087 ,,,,,Fixed Contract,Tender Complete,No,Yes,,1200021467639,34619.25072,  105-107 Kingsway,105-107,,Kingsway,,LONDON,WC2B 6QY,   105-107 Kingsway 105-107 Kingsway,  105-107 Kingsway 105-107 Kingsway
Neil Marshall,EAT Ltd,Neil Marshall,Elec,01/10/2013,30/09/2015,03,801,320,1900060638589,BRIGHTON,,,NHH,,Scottish Power Ltd,Corporate,   CHURCHILL SQUARE,,BRIGHTON,BN1 2EP,LV,0,10.5,,,8.76,102859 ,,,,,Fixed Contract,Tender Complete,No,Yes,,1200021977684,270320,159  HAMMOND HOUSE MINORIES,HAMMOND HOUSE,159,MINORIES,,LONDON,EC3N 1LE,159 159  HAMMOND HOUSE MINORIES HAMMOND HOUSE MINORIES,159  HAMMOND HOUSE MINORIES HAMMOND HOUSE MINORIES
Neil Marshall,EAT Ltd,Neil Marshall,Elec,01/10/2013,30/09/2015,03,801,320,1900090361410,BLUEWATER,,,NHH,,Scottish Power Ltd,Corporate,  BLUEWATER SHOPPING CENTRE ,Lower Rose Gallery,GREENHITHE,DA9 9SH,LV,0,10.5,,,8.76,119826 ,,,,,Fixed Contract,Tender Complete,No,Yes,,1200021977693,38533,159  HAMMOND HOUSE MINORIES,HAMMOND HOUSE,159,MINORIES,,LONDON,EC3N 1LE,159 159  HAMMOND HOUSE MINORIES HAMMOND HOUSE MINORIES,159  HAMMOND HOUSE MINORIES HAMMOND HOUSE MINORIES
Neil Marshall,EAT Ltd,Neil Marshall,Elec,01/10/2013,30/09/2015,03,801,127,2000027561340,WINDSOR STATION,,,NHH,,Scottish Power Ltd,Corporate,69 5 WINDSOR ROYAL STN,Thames Street,WINDSOR,SL4 1PL,LV,0,10.555,,,8.38,144006 ,,,,,Fixed Contract,Tender Complete,No,Yes,,1200021977709,226536,159  HAMMOND HOUSE MINORIES,HAMMOND HOUSE,159,MINORIES,,LONDON,EC3N 1LE,159 159  HAMMOND HOUSE MINORIES HAMMOND HOUSE MINORIES,159  HAMMOND HOUSE MINORIES HAMMOND HOUSE MINORIES
Neil Marshall,EAT Ltd,Neil Marshall,Elec,01/10/2013,30/09/2015,03,801,952,1200025046600,BERKLEY SQUARE,,,NHH,,Scottish Power Ltd,Corporate,8  BASE & GROUND FLOORS,Berkeley Square,LONDON,W1J 6EE,LV,0,10.211,,,8.38,194579 ,,,,,Fixed Contract,Tender Complete,No,Yes,,1200022028166,85582.47253,  39-41 Villiers Street,39-41,,Villiers Street,,LONDON,WC2N 6NE,   39-41 Villiers Street 39-41 Villiers Street,  39-41 Villiers Street 39-41 Villiers Street
Neil Marshall,EAT Ltd,Neil Marshall,Elec,01/10/2013,30/09/2015,03,801,952,1200029882300,BEDFORD STREET,,,NHH,,Scottish Power Ltd,Corporate, GROUND AND BASEMENT ,41-42 Bedford Street,LONDON,WC2E 9HA,LV,0,10.211,,,8.38,123077 ,,,,,Fixed Contract,Tender Complete,No,Yes,,1200022276580,184620.3435,94   Tottenham Court Road,,94,Tottenham Court Road,,LONDON,W1T 4TN,94 94   Tottenham Court Road  Tottenham Court Road,94   Tottenham Court Road  Tottenham Court Road
Neil Marshall,EAT Ltd,Neil Marshall,Elec,01/10/2013,30/09/2015,03,801,953,1200020107230,STRUTTON GROUND,,,NHH,,Scottish Power Ltd,Corporate,3   STRUTTON GROUND,,LONDON,SW1P 2HX,LV,0,10.211,,,8.38,73719 ,,,,,Fixed Contract,Tender Complete,No,Yes,,1200022523008,126927.3462,114  BASE Baker Street,BASE,114,Baker Street,,LONDON,W1U 6TR,114 114  BASE Baker Street BASE Baker Street,114  BASE Baker Street BASE Baker Street
Neil Marshall,EAT Ltd,Neil Marshall,Elec,01/10/2013,30/09/2015,03,801,952,1200020260063,NOTTING HILL,,,NHH,,Scottish Power Ltd,Corporate,63   NOTTING HILL GATE,,LONDON,W11 3JS,LV,0,10.211,,,8.38,72975 ,,,,,Fixed Contract,Tender Complete,No,Yes,,1200023190409,99957.85714, THE BLUE POST P H 86-89 Cowcross Street,86-89,,Cowcross Street,,LONDON,EC1M 6BP,  THE BLUE POST P H 86-89 Cowcross Street 86-89 Cowcross Street, THE BLUE POST P H 86-89 Cowcross Street 86-89 Cowcross Street
Neil Marshall,EAT Ltd,Neil Marshall,Elec,01/10/2013,30/09/2015,03,801,953,1200020669717,DOVER STREET,,,NHH,,Scottish Power Ltd,Corporate,15  GROUND & BASEMENT,Dover Street,LONDON,W1S 4LP,LV,0,10.211,,,8.38,149403 ,,,,,Fixed Contract,Tender Complete,No,Yes,,1200023360790,32336.59341,123   Cannon Street,,123,Cannon Street,,LONDON,EC4N 5AX,123 123   Cannon Street  Cannon Street,123   Cannon Street  Cannon Street
Neil Marshall,EAT Ltd,Neil Marshall,Elec,01/10/2013,30/09/2015,03,801,952,1200021467639,KINGSWAY,,,NHH,,Scottish Power Ltd,Corporate,  105-107 Kingsway,,LONDON,WC2B 6QY,LV,0,10.211,,,8.38,34619 ,,,,,Fixed Contract,Tender Complete,No,Yes,,1200023398127,106644.1758,2   BOW LANE,,2,BOW LANE,,LONDON,EC4M 9EE,2 2   BOW LANE  BOW LANE,2   BOW LANE  BOW LANE
Neil Marshall,EAT Ltd,Neil Marshall,Elec,01/10/2013,30/09/2015,03,801,952,1200021977684,ALDGATE 684,,,NHH,,Scottish Power Ltd,Corporate,159  HAMMOND HOUSE ,MINORIES,LONDON,EC3N 1LE,LV,0,10.211,,,8.38,270320 ,,,,,Fixed Contract,Tender Complete,No,Yes,,1200024458006,28665.99222,174   BISHOPSGATE,,174,BISHOPSGATE,,LONDON,EC2M 4NQ,174 174   BISHOPSGATE  BISHOPSGATE,174   BISHOPSGATE  BISHOPSGATE
Neil Marshall,EAT Ltd,Neil Marshall,Elec,01/10/2013,30/09/2015,03,801,953,1200021977693,ALDGATE 693,,,NHH,,Scottish Power Ltd,Corporate,159  HAMMOND HOUSE ,MINORIES,LONDON,EC3N 1LE,LV,0,10.211,,,8.38,38533 ,,,,,Fixed Contract,Tender Complete,No,Yes,,1200024458015,32365.70039,   174 BISHOPSGATE,,,174 BISHOPSGATE,,LONDON,EC2M 4NQ,    174 BISHOPSGATE  174 BISHOPSGATE,   174 BISHOPSGATE  174 BISHOPSGATE
Neil Marshall,EAT Ltd,Neil Marshall,Elec,01/10/2013,30/09/2015,03,801,953,1200021977709,ALDGATE 709,,,NHH,,Scottish Power Ltd,Corporate,159  HAMMOND HOUSE ,MINORIES,LONDON,EC3N 1LE,LV,0,10.211,,,8.38,226536 ,,,,,Fixed Contract,Tender Complete,No,Yes,,1200024458024,28756.88716,174   BISHOPSGATE,,174,BISHOPSGATE,,LONDON,EC2M 4NQ,174 174   BISHOPSGATE  BISHOPSGATE,174   BISHOPSGATE  BISHOPSGATE
Neil Marshall,EAT Ltd,Neil Marshall,Elec,01/10/2013,30/09/2015,03,801,952,1200022028166,VILLIERS STREET,,,NHH,,Scottish Power Ltd,Corporate,  39-41 Villiers Street,,LONDON,WC2N 6NE,LV,0,10.211,,,8.38,85582 ,,,,,Fixed Contract,Tender Complete,No,Yes,,1200024820090,225943.1111,15 GROUND FLOOR EAST BASINGHALL STREET,EAST,15,BASINGHALL STREET,,LONDON,EC2V 5BR,15 15 GROUND FLOOR EAST BASINGHALL STREET EAST BASINGHALL STREET,15 GROUND FLOOR EAST BASINGHALL STREET EAST BASINGHALL STREET
Neil Marshall,EAT Ltd,Neil Marshall,Elec,01/10/2013,30/09/2015,03,801,952,1200022276580,TCR,,,NHH,,Scottish Power Ltd,Corporate,94   Tottenham Court Road,,LONDON,W1T 4TN,LV,0,10.211,,,8.38,184620 ,,,,,Fixed Contract,Tender Complete,No,Yes,,1200028123373,143913.2566,2   Grays Inn Road,,2,Grays Inn Road,HOLBORN ,LONDON,EC1N 2NS,2 2   Grays Inn Road  Grays Inn Road,2   Grays Inn Road  Grays Inn Road
Neil Marshall,EAT Ltd,Neil Marshall,Elec,01/10/2013,30/09/2015,03,801,952,1200022523008,BAKER STREET,,,NHH,,Scottish Power Ltd,Corporate,114  BASE Baker Street,,LONDON,W1U 6TR,LV,0,10.211,,,8.38,126927 ,,,,,Fixed Contract,Tender Complete,No,Yes,,1200028165870,123690.5535, GROUND FLOOR 77-78 CHANCERY LANE,77-78,,CHANCERY LANE,,LONDON,WC2A 1AE,  GROUND FLOOR 77-78 CHANCERY LANE 77-78 CHANCERY LANE, GROUND FLOOR 77-78 CHANCERY LANE 77-78 CHANCERY LANE
Neil Marshall,EAT Ltd,Neil Marshall,Elec,01/10/2013,30/09/2015,03,801,952,1200023190409,COWCROSS STREET,,,NHH,,Scottish Power Ltd,Corporate, THE BLUE POST P H 86-89 Cowcross Street,,LONDON,EC1M 6BP,LV,0,10.211,,,8.38,99958 ,,,,,Fixed Contract,Tender Complete,No,Yes,,1200028292709,13571.60584, GROUND FLOOR 2A KING WILLIAM HOUSE Eastcheap,2A KING WILLIAM HOUSE,,Eastcheap,,LONDON,EC3M 1AA,  GROUND FLOOR 2A KING WILLIAM HOUSE Eastcheap 2A KING WILLIAM HOUSE Eastcheap, GROUND FLOOR 2A KING WILLIAM HOUSE Eastcheap 2A KING WILLIAM HOUSE Eastcheap
Neil Marshall,EAT Ltd,Neil Marshall,Elec,01/10/2013,30/09/2015,03,801,952,1200023360790,CANNON STREET,,,NHH,,Scottish Power Ltd,Corporate,123   Cannon Street,,LONDON,EC4N 5AX,LV,0,10.211,,,8.38,32337 ,,,,,Fixed Contract,Tender Complete,No,Yes,,1200028986843,18650.27881,44  GROUND AND BASEMENT Goodge Street,GROUND AND BASEMENT,44,Goodge Street,,LONDON,W1T 2AD,44 44  GROUND AND BASEMENT Goodge Street GROUND AND BASEMENT Goodge Street,44  GROUND AND BASEMENT Goodge Street GROUND AND BASEMENT Goodge Street
Neil Marshall,EAT Ltd,Neil Marshall,Elec,01/10/2013,30/09/2015,03,801,952,1200023398127,BOW LANE,,,NHH,,Scottish Power Ltd,Corporate,2   BOW LANE,,LONDON,EC4M 9EE,LV,0,10.211,,,8.38,106644 ,,,,,Fixed Contract,Tender Complete,No,Yes,,1200028986852,39751.07807,44  GROUND AND BASEMENT Goodge Street,GROUND AND BASEMENT,44,Goodge Street,,LONDON,W1T 2AD,44 44  GROUND AND BASEMENT Goodge Street GROUND AND BASEMENT Goodge Street,44  GROUND AND BASEMENT Goodge Street GROUND AND BASEMENT Goodge Street
Neil Marshall,EAT Ltd,Neil Marshall,Elec,01/10/2013,30/09/2015,03,801,952,1200024458006,BISHOPSGATE,,,NHH,,Scottish Power Ltd,Corporate,174   BISHOPSGATE,,LONDON,EC2M 4NQ,LV,0,10.211,,,8.38,28666 ,,,,,Fixed Contract,Tender Complete,No,Yes,,1200029104247,142563.1387, UNIT G1/G12 OXO TOWER WHARF SOUTH BANK,OXO TOWER WHARF,,SOUTH BANK,,LONDON,SE1 9PH,  UNIT G1/G12 OXO TOWER WHARF SOUTH BANK OXO TOWER WHARF SOUTH BANK, UNIT G1/G12 OXO TOWER WHARF SOUTH BANK OXO TOWER WHARF SOUTH BANK
Neil Marshall,EAT Ltd,Neil Marshall,Elec,01/10/2013,30/09/2015,03,801,953,1200024458015,174 Bishopsgate 015,,,NHH,,Scottish Power Ltd,Corporate,   174 BISHOPSGATE,,LONDON,EC2M 4NQ,LV,0,10.211,,,8.38,32366 ,,,,,Fixed Contract,Tender Complete,No,Yes,,1200029648760,70797.19298,55   Stratton Street,,55,Stratton Street,,LONDON,W1J 8LR,55 55   Stratton Street  Stratton Street,55   Stratton Street  Stratton Street
Neil Marshall,EAT Ltd,Neil Marshall,Elec,01/10/2013,30/09/2015,03,801,953,1200024458024,174 Bishopsgate 024,,,NHH,,Scottish Power Ltd,Corporate,174   BISHOPSGATE,,LONDON,EC2M 4NQ,LV,0,10.211,,,8.38,28757 ,,,,,Fixed Contract,Tender Complete,No,Yes,,1200029923524,343102.2813,7   Kingsway,,7,Kingsway,,LONDON,WC2B 6XG,7 7   Kingsway  Kingsway,7   Kingsway  Kingsway
Neil Marshall,EAT Ltd,Neil Marshall,Elec,01/10/2013,30/09/2015,03,801,952,1200028165870,CHANCERY LANE,,,NHH,,Scottish Power Ltd,Corporate, GROUND FLOOR ,77-78 CHANCERY LANE,LONDON,WC2A 1AE,LV,0,10.211,,,8.38,123691 ,,,,,Fixed Contract,Tender Complete,No,Yes,,1200032046863,38143.1685,170  GROUND & BASE TEMPORARY BUILDE Fleet Street,GROUND & BASE TEMPORARY BUILDE,170,Fleet Street,,LONDON,EC4A 2EA,170 170  GROUND & BASE TEMPORARY BUILDE Fleet Street GROUND & BASE TEMPORARY BUILDE Fleet Street,170  GROUND & BASE TEMPORARY BUILDE Fleet Street GROUND & BASE TEMPORARY BUILDE Fleet Street
Neil Marshall,EAT Ltd,Neil Marshall,Elec,01/10/2013,30/09/2015,03,801,952,1200028292709,EASTCHEAP,,,NHH,,Scottish Power Ltd,Corporate, GROUND FLOOR 2A KING WILLIAM HOUSE ,Eastcheap,LONDON,EC3M 1AA,LV,0,10.211,,,8.38,13572 ,,,,,Fixed Contract,Tender Complete,No,Yes,,1200032409013,173972.2727,185   Camden High Street,,185,Camden High Street,,LONDON,NW1 7JY,185 185   Camden High Street  Camden High Street,185   Camden High Street  Camden High Street
Neil Marshall,EAT Ltd,Neil Marshall,Elec,01/10/2013,30/09/2015,03,801,952,1200028986843,GOODGE STREET 843,,,NHH,,Scottish Power Ltd,Corporate,44  GROUND AND BASEMENT ,Goodge Street,LONDON,W1T 2AD,LV,0,10.211,,,8.38,18650 ,,,,,Fixed Contract,Tender Complete,No,Yes,,1200032419527,55812,13   King Street,,13,King Street,,LONDON,EC2V 8EA,13 13   King Street  King Street,13   King Street  King Street
Neil Marshall,EAT Ltd,Neil Marshall,Elec,01/10/2013,30/09/2015,03,801,953,1200028986852,GOODGE STREET 852,,,NHH,,Scottish Power Ltd,Corporate,44  GROUND AND BASEMENT ,Goodge Street,LONDON,W1T 2AD,LV,0,10.211,,,8.38,39751 ,,,,,Fixed Contract,Tender Complete,No,Yes,,1200032419536,59362,13   King Street,,13,King Street,,LONDON,EC2V 8EA,13 13   King Street  King Street,13   King Street  King Street
Neil Marshall,EAT Ltd,Neil Marshall,Elec,01/10/2013,30/09/2015,03,801,952,1200029104247,OXO TOWER,,,NHH,,Scottish Power Ltd,Corporate, UNIT G1/G12 OXO TOWER WHARF ,SOUTH BANK,LONDON,SE1 9PH,LV,0,10.211,,,8.38,142563 ,,,,,Fixed Contract,Tender Complete,No,Yes,,1200032419545,34859,13   King Street,,13,King Street,,LONDON,EC2V 8EA,13 13   King Street  King Street,13   King Street  King Street
Neil Marshall,EAT Ltd,Neil Marshall,Elec,01/10/2013,30/09/2015,03,801,952,1200029648760,STRATTON STREET,,,NHH,,Scottish Power Ltd,Corporate,55   Stratton Street,,LONDON,W1J 8LR,LV,0,10.211,,,8.38,70797 ,,,,,Fixed Contract,Tender Complete,No,Yes,,1200033029966,39372,155   FENCHURCH STREET,,155,FENCHURCH STREET,,LONDON,EC3M 6AL,155 155   FENCHURCH STREET  FENCHURCH STREET,155   FENCHURCH STREET  FENCHURCH STREET
Neil Marshall,EAT Ltd,Neil Marshall,Elec,01/10/2013,30/09/2015,03,801,952,1200029923524,7 KINGSWAY  KINGSWAY2,,,NHH,,Scottish Power Ltd,Corporate,7   Kingsway,,LONDON,WC2B 6XG,LV,0,10.211,,,8.38,343102 ,,,,,Fixed Contract,Tender Complete,No,Yes,,1200033029975,71992,155   FENCHURCH STREET,,155,FENCHURCH STREET,,LONDON,EC3M 6AL,155 155   FENCHURCH STREET  FENCHURCH STREET,155   FENCHURCH STREET  FENCHURCH STREET
Neil Marshall,EAT Ltd,Neil Marshall,Elec,01/10/2013,30/09/2015,03,801,952,1200032046863,FLEET STREET,,,NHH,,Scottish Power Ltd,Corporate,170  GROUND & BASE TEMPORARY BUILDE ,Fleet Street,LONDON,EC4A 2EA,LV,0,10.211,,,8.38,38143 ,,,,,Fixed Contract,Tender Complete,No,Yes,,1200033029984,39756,155   FENCHURCH STREET,,155,FENCHURCH STREET,,LONDON,EC3M 6AL,155 155   FENCHURCH STREET  FENCHURCH STREET,155   FENCHURCH STREET  FENCHURCH STREET
Neil Marshall,EAT Ltd,Neil Marshall,Elec,01/10/2013,30/09/2015,03,801,952,1200032409013,CAMDEN HIGH STREET,,,NHH,,Scottish Power Ltd,Corporate,185   Camden High Street,,LONDON,NW1 7JY,LV,0,10.211,,,8.38,173972 ,,,,,Fixed Contract,Tender Complete,No,Yes,,1200036897774,125232.029,82  SHOP Kings Road,SHOP,82,Kings Road,,LONDON,SW3 4TZ,82 82  SHOP Kings Road SHOP Kings Road,82  SHOP Kings Road SHOP Kings Road
Neil Marshall,EAT Ltd,Neil Marshall,Elec,01/10/2013,30/09/2015,03,801,953,1200032419527,King Street 527,,,NHH,,Scottish Power Ltd,Corporate,13   King Street,,LONDON,EC2V 8EA,LV,0,10.211,,,8.38,55812 ,,,,,Fixed Contract,Tender Complete,No,Yes,,1200037884001,2008.183521, 34 BROADGATE CIRCLE Broadgate,BROADGATE CIRCLE,,Broadgate,,LONDON,EC2M 2QS,  34 BROADGATE CIRCLE Broadgate BROADGATE CIRCLE Broadgate, 34 BROADGATE CIRCLE Broadgate BROADGATE CIRCLE Broadgate
Neil Marshall,EAT Ltd,Neil Marshall,Elec,01/10/2013,30/09/2015,03,801,953,1200032419536,King Street 536,,,NHH,,Scottish Power Ltd,Corporate,13   King Street,,LONDON,EC2V 8EA,LV,0,10.211,,,8.38,59362 ,,,,,Fixed Contract,Tender Complete,No,Yes,,1200041139558,172830.3077,92  SHOP Wimpole Street,SHOP,92,Wimpole Street,,LONDON,W1G 0EG,92 92  SHOP Wimpole Street SHOP Wimpole Street,92  SHOP Wimpole Street SHOP Wimpole Street
Neil Marshall,EAT Ltd,Neil Marshall,Elec,01/10/2013,30/09/2015,03,801,953,1200032419545,KingStreet,,,NHH,,Scottish Power Ltd,Corporate,13   King Street,,LONDON,EC2V 8EA,LV,0,10.211,,,8.38,34859 ,,,,,Fixed Contract,Tender Complete,No,Yes,,1200041140377,169984.305,319  GROUND AND BASEMENT Regent Street,GROUND AND BASEMENT,319,Regent Street,,LONDON,W1B 2HU,319 319  GROUND AND BASEMENT Regent Street GROUND AND BASEMENT Regent Street,319  GROUND AND BASEMENT Regent Street GROUND AND BASEMENT Regent Street
Neil Marshall,EAT Ltd,Neil Marshall,Elec,01/10/2013,30/09/2015,03,801,952,1200033029966,FENCHURCH STREET 966,,,NHH,,Scottish Power Ltd,Corporate,155   FENCHURCH STREET,,LONDON,EC3M 6AL,LV,0,10.211,,,8.38,39372 ,,,,,Fixed Contract,Tender Complete,No,Yes,,1200042310394,64703.64865, UNIT 2 52-60 Cannon Street,52-60,,Cannon Street,,LONDON,EC4N 6LY,  UNIT 2 52-60 Cannon Street 52-60 Cannon Street, UNIT 2 52-60 Cannon Street 52-60 Cannon Street
Neil Marshall,EAT Ltd,Neil Marshall,Elec,01/10/2013,30/09/2015,03,801,953,1200033029975,FENCHURCH STREET 975,,,NHH,,Scottish Power Ltd,Corporate,155   FENCHURCH STREET,,LONDON,EC3M 6AL,LV,0,10.211,,,8.38,71992 ,,,,,Fixed Contract,Tender Complete,No,Yes,,1200050090457,147885.6038,  16A Soho Square,16A,,Soho Square,,LONDON,W1D 3QH,   16A Soho Square 16A Soho Square,  16A Soho Square 16A Soho Square
Neil Marshall,EAT Ltd,Neil Marshall,Elec,01/10/2013,30/09/2015,03,801,953,1200033029984,FENCHURCH STREET 984,,,NHH,,Scottish Power Ltd,Corporate,155   FENCHURCH STREET,,LONDON,EC3M 6AL,LV,0,10.211,,,8.38,39756 ,,,,,Fixed Contract,Tender Complete,No,Yes,,1200050094248,170576.6667,62   LONDON WALL,,62,LONDON WALL,,LONDON,EC2M 5TP,62 62   LONDON WALL  LONDON WALL,62   LONDON WALL  LONDON WALL
Neil Marshall,EAT Ltd,Neil Marshall,Elec,01/10/2013,30/09/2015,03,801,952,1200036897774,KINGS ROAD,,,NHH,,Scottish Power Ltd,Corporate,82  SHOP Kings Road,,LONDON,SW3 4TZ,LV,0,10.211,,,8.38,125232 ,,,,,Fixed Contract,Tender Complete,No,Yes,,1200050338508,28453.71747,44   Goodge Street,,44,Goodge Street,,LONDON,W1T 2AD,44 44   Goodge Street  Goodge Street,44   Goodge Street  Goodge Street
Neil Marshall,EAT Ltd,Neil Marshall,Elec,01/10/2013,30/09/2015,03,801,952,1200041139558,WIMPOLE STREET,,,NHH,,Scottish Power Ltd,Corporate,92  SHOP Wimpole Street,,LONDON,W1G 0EG,LV,0,10.211,,,8.38,172830 ,,,,,Fixed Contract,Tender Complete,No,Yes,,1200050356942,208445.3069,  9A Vigo Street,9A,,Vigo Street,,LONDON,W1S 3HJ,   9A Vigo Street 9A Vigo Street,  9A Vigo Street 9A Vigo Street
Neil Marshall,EAT Ltd,Neil Marshall,Elec,01/10/2013,30/09/2015,03,801,952,1200041140377,REGENT STREET,,,NHH,,Scottish Power Ltd,Corporate,319  GROUND AND BASEMENT ,Regent Street,LONDON,W1B 2HU,LV,0,10.211,,,8.38,169984 ,,,,,Fixed Contract,Tender Complete,No,Yes,,1200050413643,97603.11594,3  EAT SANDWICH BAR Duke of York Street,EAT SANDWICH BAR,3,Duke of York Street,,LONDON,SW1Y 6JP,3 3  EAT SANDWICH BAR Duke of York Street EAT SANDWICH BAR Duke of York Street,3  EAT SANDWICH BAR Duke of York Street EAT SANDWICH BAR Duke of York Street
Neil Marshall,EAT Ltd,Neil Marshall,Elec,01/10/2013,30/09/2015,03,801,952,1200042310394,60 CANNON STREET,,,NHH,,Scottish Power Ltd,Corporate, UNIT 2 52-60 Cannon Street,,LONDON,EC4N 6LY,LV,0,10.211,,,8.38,64704 ,,,,,Fixed Contract,Tender Complete,No,Yes,,1200050442867,109380.1698,  28-32 BRUSHFIELD STREET,28-32,,BRUSHFIELD STREET,,LONDON,E1 6AG,   28-32 BRUSHFIELD STREET 28-32 BRUSHFIELD STREET,  28-32 BRUSHFIELD STREET 28-32 BRUSHFIELD STREET
Neil Marshall,EAT Ltd,Neil Marshall,Elec,01/10/2013,30/09/2015,03,801,952,1200050090457,SOHO SQUARE,,,NHH,,Scottish Power Ltd,Corporate,  16A Soho Square,,LONDON,W1D 3QH,LV,0,10.211,,,8.38,147886 ,,,,,Fixed Contract,Tender Complete,No,Yes,,1200050498327,81362.46124,  54-55 Cornhill,54-55,,Cornhill,,LONDON,EC3V 3PD,   54-55 Cornhill 54-55 Cornhill,  54-55 Cornhill 54-55 Cornhill
Neil Marshall,EAT Ltd,Neil Marshall,Elec,01/10/2013,30/09/2015,03,801,952,1200050094248,LONDON WALL,,,NHH,,Scottish Power Ltd,Corporate,62   LONDON WALL,,LONDON,EC2M 5TP,LV,0,10.211,,,8.38,170577 ,,,,,Fixed Contract,Tender Complete,No,Yes,,1200050524720,35522.51894, EATS UNIT 1 CANADA SQUARE,UNIT 1,,CANADA SQUARE,,LONDON,E14 5AX,  EATS UNIT 1 CANADA SQUARE UNIT 1 CANADA SQUARE, EATS UNIT 1 CANADA SQUARE UNIT 1 CANADA SQUARE
Neil Marshall,EAT Ltd,Neil Marshall,Elec,01/10/2013,30/09/2015,03,801,952,1200050338508,GOODGE STREET 508,,,NHH,,Scottish Power Ltd,Corporate,44   Goodge Street,,LONDON,W1T 2AD,LV,0,10.211,,,8.38,28454 ,,,,,Fixed Contract,Tender Complete,No,Yes,,1200050546690,89493.35206,239  RESTAURANT HIGH HOLBORN,RESTAURANT,239,HIGH HOLBORN,,LONDON,WC1V 7EW,239 239  RESTAURANT HIGH HOLBORN RESTAURANT HIGH HOLBORN,239  RESTAURANT HIGH HOLBORN RESTAURANT HIGH HOLBORN
Neil Marshall,EAT Ltd,Neil Marshall,Elec,01/10/2013,30/09/2015,03,801,952,1200050356942,VIGO STREET,,,NHH,,Scottish Power Ltd,Corporate,  9A Vigo Street,,LONDON,W1S 3HJ,LV,0,10.211,,,8.38,208445 ,,,,,Fixed Contract,Tender Complete,No,Yes,,1200050584613,104405.9688,48   MARK LANE,,48,MARK LANE,,LONDON,EC3R 7QH,48 48   MARK LANE  MARK LANE,48   MARK LANE  MARK LANE
Neil Marshall,EAT Ltd,Neil Marshall,Elec,01/10/2013,30/09/2015,03,801,952,1200050413643,DUKE OF YORK,,,NHH,,Scottish Power Ltd,Corporate,3  EAT SANDWICH BAR Duke of York Street,,LONDON,SW1Y 6JP,LV,0,10.211,,,8.38,97603 ,,,,,Fixed Contract,Tender Complete,No,Yes,,1200050692930,164989.8269,65   FENCHURCH STREET,,65,FENCHURCH STREET,,LONDON,EC3M 4BE,65 65   FENCHURCH STREET  FENCHURCH STREET,65   FENCHURCH STREET  FENCHURCH STREET
Neil Marshall,EAT Ltd,Neil Marshall,Elec,01/10/2013,30/09/2015,03,801,952,1200050442867,BRUSHFIELDS,,,NHH,,Scottish Power Ltd,Corporate,  28-32 BRUSHFIELD STREET,,LONDON,E1 6AG,LV,0,10.211,,,8.38,109380 ,,,,,Fixed Contract,Tender Complete,No,Yes,,1200050779699,77206.57459,  9-10 AVERY ROW,9-10,,AVERY ROW,,LONDON,W1K 4AL,   9-10 AVERY ROW 9-10 AVERY ROW,  9-10 AVERY ROW 9-10 AVERY ROW
Neil Marshall,EAT Ltd,Neil Marshall,Elec,01/10/2013,30/09/2015,03,801,952,1200050498327,CORNHILL,,,NHH,,Scottish Power Ltd,Corporate,  54-55 Cornhill,,LONDON,EC3V 3PD,LV,0,10.211,,,8.38,81362 ,,,,,Fixed Contract,Tender Complete,No,Yes,,1200051026601,125191.0326,78  FIRST FLOOR Old Broad Street,FIRST FLOOR,78,Old Broad Street,,LONDON,EC2M 1QP,78 78  FIRST FLOOR Old Broad Street FIRST FLOOR Old Broad Street,78  FIRST FLOOR Old Broad Street FIRST FLOOR Old Broad Street
Neil Marshall,EAT Ltd,Neil Marshall,Elec,01/10/2013,30/09/2015,03,801,952,1200050524720,CANARY WHARF,,,NHH,,Scottish Power Ltd,Corporate, EATS UNIT 1 CANADA SQUARE,1 CANADA SQUARE,LONDON,E14 5AX,LV,0,10.211,,,8.38,35523 ,,,,,Fixed Contract,Tender Complete,No,Yes,,1200051049789,87.43732591,"12 KIOSK 4, EXCHANGE HOUSE Primrose Street","4, EXCHANGE HOUSE",12,Primrose Street,,LONDON,EC2A 2BQ,"12 12 KIOSK 4, EXCHANGE HOUSE Primrose Street 4, EXCHANGE HOUSE Primrose Street","12 KIOSK 4, EXCHANGE HOUSE Primrose Street 4, EXCHANGE HOUSE Primrose Street"
Neil Marshall,EAT Ltd,Neil Marshall,Elec,01/10/2013,30/09/2015,03,801,952,1200050546690,239 HIGH HOLBORN,,,NHH,,Scottish Power Ltd,Corporate,239  RESTAURANT HIGH HOLBORN,HIGH HOLBORN,LONDON,WC1V 7EW,LV,0,10.211,,,8.38,89493 ,,,,,Fixed Contract,Tender Complete,No,Yes,,1200051226092,153509.8204, RETAIL UNIT 107-111 Fleet Street,107-111,,Fleet Street,,LONDON,EC4A 2AB,  RETAIL UNIT 107-111 Fleet Street 107-111 Fleet Street, RETAIL UNIT 107-111 Fleet Street 107-111 Fleet Street
Neil Marshall,EAT Ltd,Neil Marshall,Elec,01/10/2013,30/09/2015,03,801,952,1200050584613,MARK LANE,,,NHH,,Scottish Power Ltd,Corporate,48   MARK LANE,,LONDON,EC3R 7QH,LV,0,10.211,,,8.38,104406 ,,,,,Fixed Contract,Tender Complete,No,Yes,,1200051454419,215009.6067,  RETAIL B TOWER HILL TERRACE,RETAIL B,,TOWER HILL TERRACE,,LONDON,EC3N 4EE,   RETAIL B TOWER HILL TERRACE RETAIL B TOWER HILL TERRACE,  RETAIL B TOWER HILL TERRACE RETAIL B TOWER HILL TERRACE
Neil Marshall,EAT Ltd,Neil Marshall,Elec,01/10/2013,30/09/2015,03,801,952,1200050692930,65 FENCHCHURCH STREET,,,NHH,,Scottish Power Ltd,Corporate,65   FENCHURCH STREET,,LONDON,EC3M 4BE,LV,0,10.211,,,8.38,164990 ,,,,,Fixed Contract,Tender Complete,No,Yes,,1200051569165,38489.25,6 Unit D  More London Place,,6,More London Place,,LONDON,SE1 2DA,6 6 Unit D  More London Place  More London Place,6 Unit D  More London Place  More London Place
Neil Marshall,EAT Ltd,Neil Marshall,Elec,01/10/2013,30/09/2015,03,801,952,1200050779699,AVERY ROW,,,NHH,,Scottish Power Ltd,Corporate,  9-10 AVERY ROW,,LONDON,W1K 4AL,LV,0,10.211,,,8.38,77207 ,,,,,Fixed Contract,Tender Complete,No,Yes,,1200051673130,282226.2591, UNIT 3 2A RIVERSIDE HOUSE SOUTHWARK BRIDGE ROAD,2A RIVERSIDE HOUSE,,SOUTHWARK BRIDGE ROAD,,LONDON,SE1 9HA,  UNIT 3 2A RIVERSIDE HOUSE SOUTHWARK BRIDGE ROAD 2A RIVERSIDE HOUSE SOUTHWARK BRIDGE ROAD, UNIT 3 2A RIVERSIDE HOUSE SOUTHWARK BRIDGE ROAD 2A RIVERSIDE HOUSE SOUTHWARK BRIDGE ROAD
Neil Marshall,EAT Ltd,Neil Marshall,Elec,01/10/2013,30/09/2015,03,801,952,1200051026601,OLD BROAD STREET,,,NHH,,Scottish Power Ltd,Corporate,78  FIRST FLOOR Old Broad Street,,LONDON,EC2M 1QP,LV,0,10.211,,,8.38,125191 ,,,,,Fixed Contract,Tender Complete,No,Yes,,1200051843096,98679.15385,25  SHOP hanover square,SHOP,25,hanover square,,LONDON,W1S 1JF,25 25  SHOP hanover square SHOP hanover square,25  SHOP hanover square SHOP hanover square
Neil Marshall,EAT Ltd,Neil Marshall,Elec,01/10/2013,30/09/2015,03,801,952,1200051454419,TOWER BRIDGE,,,NHH,,Scottish Power Ltd,Corporate,  RETAIL B TOWER HILL TERRACE,,LONDON,EC3N 4EE,LV,0,10.211,,,8.38,215010 ,,,,,Fixed Contract,Tender Complete,No,Yes,,1200052033887,143100.0549, RETAIL UNIT 94-97 FETTER LANE,94-97,,FETTER LANE,,LONDON,EC4A 1EP,  RETAIL UNIT 94-97 FETTER LANE 94-97 FETTER LANE, RETAIL UNIT 94-97 FETTER LANE 94-97 FETTER LANE
Neil Marshall,EAT Ltd,Neil Marshall,Elec,01/10/2013,30/09/2015,03,801,952,1200051569165,Unit D 6 More London Place,,,NHH,,Scottish Power Ltd,Corporate,6 Unit D  More London Place,,LONDON,SE1 2DA,LV,0,10.211,,,8.38,38489 ,,,,,Fixed Contract,Tender Complete,No,Yes,,1200052056350,136595.8824,7 UNIT 14  CATHEDRAL WALK,,7,CATHEDRAL WALK,,LONDON,SW1E 5JH,7 7 UNIT 14  CATHEDRAL WALK  CATHEDRAL WALK,7 UNIT 14  CATHEDRAL WALK  CATHEDRAL WALK
Neil Marshall,EAT Ltd,Neil Marshall,Elec,01/10/2013,30/09/2015,03,801,952,1200051673130,RIVERSIDE,,,NHH,,Scottish Power Ltd,Corporate, UNIT 3 2A RIVERSIDE HOUSE ,SOUTHWARK BRIDGE ROAD,LONDON,SE1 9HA,LV,0,10.211,,,8.38,282226 ,,,,,Fixed Contract,Tender Complete,No,Yes,,1200052216875,86946.20879,19   Golden Square,,19,Golden Square,,LONDON,W1F 9HD,19 19   Golden Square  Golden Square,19   Golden Square  Golden Square
Neil Marshall,EAT Ltd,Neil Marshall,Elec,01/10/2013,30/09/2015,03,801,952,1200051843096,HANOVERS SQUARE,,,NHH,,Scottish Power Ltd,Corporate,25  SHOP hanover square,,LONDON,W1S 1JF,LV,0,10.211,,,8.38,98679 ,,,,,Fixed Contract,Tender Complete,No,Yes,,1200052299817,181304.9421,68 SHOP UNIT GROUND & BASEMENT DUNBARTIN HOUSE Oxford Street,DUNBARTIN HOUSE,68,Oxford Street,,LONDON,W1D 1BN,68 68 SHOP UNIT GROUND & BASEMENT DUNBARTIN HOUSE Oxford Street DUNBARTIN HOUSE Oxford Street,68 SHOP UNIT GROUND & BASEMENT DUNBARTIN HOUSE Oxford Street DUNBARTIN HOUSE Oxford Street
Neil Marshall,EAT Ltd,Neil Marshall,Elec,01/10/2013,30/09/2015,03,801,952,1200052033887,FETTER LANE,,,NHH,,Scottish Power Ltd,Corporate, RETAIL UNIT 94-97 FETTER LANE,,LONDON,EC4A 1EP,LV,0,10.211,,,8.38,143100 ,,,,,Fixed Contract,Tender Complete,No,Yes,,1200052478908,576.6728625," RETAIL UNIT 71-78, JOHNSON BUILDING Hatton Garden","71-78, JOHNSON BUILDING",,Hatton Garden,,LONDON,EC1N 8JS,"  RETAIL UNIT 71-78, JOHNSON BUILDING Hatton Garden 71-78, JOHNSON BUILDING Hatton Garden"," RETAIL UNIT 71-78, JOHNSON BUILDING Hatton Garden 71-78, JOHNSON BUILDING Hatton Garden"
Neil Marshall,EAT Ltd,Neil Marshall,Elec,01/10/2013,30/09/2015,03,801,952,1200052299817,OXFORD STREET,,,NHH,,Scottish Power Ltd,Corporate,68 SHOP UNIT GROUND & BASEMENT DUNBARTIN HOUSE ,Oxford Street,LONDON,W1D 1BN,LV,0,10.211,,,8.38,181305 ,,,,,Fixed Contract,Tender Complete,No,Yes,,1200060140877,91787.47253,59  RETAIL UNIT Great Eastern Street,RETAIL UNIT,59,Great Eastern Street,,LONDON,EC2A 3HS,59 59  RETAIL UNIT Great Eastern Street RETAIL UNIT Great Eastern Street,59  RETAIL UNIT Great Eastern Street RETAIL UNIT Great Eastern Street
Neil Marshall,EAT Ltd,Neil Marshall,Elec,01/10/2013,30/09/2015,03,801,952,1200052478908,HATTON GARDENS,,,NHH,,Scottish Power Ltd,Corporate," RETAIL UNIT 71-78, JOHNSON BUILDING ",Hatton Garden,LONDON,EC1N 8JS,LV,0,10.211,,,8.38,577 ,,,,,Fixed Contract,Tender Complete,No,Yes,,1200060266357,131401.3129,1   City Road,,1,City Road,,LONDON,EC1Y 1AE,1 1   City Road  City Road,1   City Road  City Road
Neil Marshall,EAT Ltd,Neil Marshall,Elec,01/10/2013,30/09/2015,03,801,952,1200060140877,GREAT EASTERN STREET,,,NHH,,Scottish Power Ltd,Corporate,59  RETAIL UNIT Great Eastern Street,,LONDON,EC2A 3HS,LV,0,10.211,,,8.38,91787 ,,,,,Fixed Contract,Tender Complete,No,Yes,,1200060715717,156829.2086,93  Retail Unit 1 City Road,Retail Unit 1,93,City Road,,LONDON,EC1Y 1BD,93 93  Retail Unit 1 City Road Retail Unit 1 City Road,93  Retail Unit 1 City Road Retail Unit 1 City Road
Neil Marshall,EAT Ltd,Neil Marshall,Elec,01/10/2013,30/09/2015,03,801,952,1200060266357,CITY ROAD,,,NHH,,Scottish Power Ltd,Corporate,1   City Road,,LONDON,EC1Y 1AE,LV,0,10.211,,,8.38,131401 ,,,,,Fixed Contract,Tender Complete,No,Yes,,1200060726870,235736.5086,1  First Floor NEW CHANGE,First Floor,1,NEW CHANGE,,LONDON,EC2V 6AA,1 1  First Floor NEW CHANGE First Floor NEW CHANGE,1  First Floor NEW CHANGE First Floor NEW CHANGE
Neil Marshall,EAT Ltd,Neil Marshall,Elec,01/10/2013,30/09/2015,03,801,952,1200060715717,93 CITY ROAD,,,NHH,,Scottish Power Ltd,Corporate,93  Retail Unit 1 City Road,,LONDON,EC1Y 1BD,LV,0,10.211,,,8.38,156829 ,,,,,Fixed Contract,Tender Complete,No,Yes,,1200060933630,162444.9696,58   King William Street,,58,King William Street,,LONDON,EC4N 7BL,58 58   King William Street  King William Street,58   King William Street  King William Street
Neil Marshall,EAT Ltd,Neil Marshall,Elec,01/10/2013,30/09/2015,04,480,956,1200024820090,BASSINGHALL,,,NHH,,Scottish Power Ltd,Corporate,15 GROUND FLOOR EAST BASINGHALL STREET,,LONDON,EC2V 5BR,LV,0,,10.383,7.607,9.57,,"162,679","63,264",,,Fixed Contract,Tender Complete,No,Yes,,1200060951364,109257.4085,16   Broadway,,16,Broadway,,LONDON,SW1H 0BH,16 16   Broadway  Broadway,16   Broadway  Broadway
Neil Marshall,EAT Ltd,Neil Marshall,Elec,01/10/2013,30/09/2015,04,808,956,1200028123373,Grays Inn Road,,,NHH,,Scottish Power Ltd,Corporate,2   Grays Inn Road,,LONDON,EC1N 2NS,LV,0,,10.383,7.607,9.57,,"103,617","40,296",,,Fixed Contract,Tender Complete,No,Yes,,1300054517847,136069.5756,65  Unit 53B SOUTH JOHN STREET,Unit 53B,65,SOUTH JOHN STREET,,LIVERPOOL,L1 8BU,65 65  Unit 53B SOUTH JOHN STREET Unit 53B SOUTH JOHN STREET,65  Unit 53B SOUTH JOHN STREET Unit 53B SOUTH JOHN STREET
Neil Marshall,EAT Ltd,Neil Marshall,Elec,01/10/2013,30/09/2015,04,480,956,1200052216875,GOLDEN SQUARE,,,NHH,,Scottish Power Ltd,Corporate,19   Golden Square,,LONDON,W1F 9HD,LV,0,,10.383,7.607,9.57,,"62,601","24,345",,,Fixed Contract,Tender Complete,No,Yes,,1414515213006,78212.41791,30   Martineau Place,,30,Martineau Place,,BIRMINGHAM,B2 4UH,30 30   Martineau Place  Martineau Place,30   Martineau Place  Martineau Place
Neil Marshall,EAT Ltd,Neil Marshall,Elec,01/10/2013,30/09/2015,05,580,270,1023539095162,WEMBLEY HO,,,NHH,,Scottish Power Ltd,Corporate,  UNIT 32-34 FOURTH WAY,,Wembley,HA9 0LH,LV,0,,10.36,7.469,29.50,,"1,639,723","266,932",,,Fixed Contract,Tender Complete,No,Yes,,1427413100005,101124.2669,  82-83 NEW STREET,82-83,,NEW STREET,,BIRMINGHAM,B2 4BA,   82-83 NEW STREET 82-83 NEW STREET,  82-83 NEW STREET 82-83 NEW STREET
Neil Marshall,EAT Ltd,Neil Marshall,Elec,01/10/2013,30/09/2015,08,880,253,1014570417430,PETTY CURY,,,NHH,,Scottish Power Ltd,Corporate,21   Petty Cury,,CAMBRIDGE,CB2 3NE,LV,0,9.961,,,29.50,178838 ,,,,,Fixed Contract,Tender Complete,No,Yes,,1460001059741,77069.3617,6 SHOP 1 Brindley Place,1,6,Brindley Place,,BIRMINGHAM,B1 2JB,6 6 SHOP 1 Brindley Place 1 Brindley Place,6 SHOP 1 Brindley Place 1 Brindley Place
Neil Marshall,EAT Ltd,Neil Marshall,Elec,01/10/2013,30/09/2015,07,781,081,1100039200696,THE SHIRES,,,NHH,,Scottish Power Ltd,Corporate,1  LOWER GROUND FLOOR High Street,,LEICESTER,LE1 4FQ,LV,0,,11.17,7.819,29.73,,"98,553","17,392",,,Fixed Contract,Tender Complete,No,Yes,,1610000044644,114542.062,62   CROSS STREET,,62,CROSS STREET,,MANCHESTER,M2 4JQ,62 62   CROSS STREET  CROSS STREET,62   CROSS STREET  CROSS STREET
Neil Marshall,EAT Ltd,Neil Marshall,Elec,01/10/2013,30/09/2015,05,580,201,1620001713160,SPINNINGFIELD,,,NHH,,Scottish Power Ltd,Corporate,1  GROUND FLOOR UNIT A2 SPINNINGFIELDS SQUARE,,MANCHESTER,M3 3AP,LV,0,,11.788,7.956,27.36,,"115,954","19,191",,,Fixed Contract,Tender Complete,No,Yes,,1610000052609,81446.94757,  NADIN HOUSE ST ANN STREET,NADIN HOUSE,,ST ANN STREET,,MANCHESTER,M2 7LG,   NADIN HOUSE ST ANN STREET NADIN HOUSE ST ANN STREET,  NADIN HOUSE ST ANN STREET NADIN HOUSE ST ANN STREET
Neil Marshall,EAT Ltd,Neil Marshall,Elec,01/10/2013,30/09/2015,08,806,487,1900070149958,WHITEFRIARS,,,NHH,,Scottish Power Ltd,Corporate,16   Whitefriars Street,,CANTERBURY,CT1 2TD,LV,0,,10.961,7.669,29.05,,"156,712","36,759",,,Fixed Contract,Tender Complete,No,Yes,,1620000154194,155105.9328,  Unit 31 ,Unit 31,,,,MANCHESTER,M17 8FS,   Unit 31  Unit 31 ,  Unit 31  Unit 31 
Neil Marshall,EAT Ltd,Neil Marshall,Elec,01/10/2013,30/09/2015,06,681,345,2000052447806,THE BULLRING,,,NHH,,Scottish Power Ltd,Corporate,  UNIT SU524 Bullring,,BIRMINGHAM,#N/A,LV,0,,11.166,7.707,25.65,,"141,774","23,464",,,Fixed Contract,Tender Complete,No,Yes,,1620001713160,135145.114,1  GROUND FLOOR UNIT A2 SPINNINGFIELDS SQUARE,GROUND FLOOR UNIT A2,1,SPINNINGFIELDS SQUARE,,MANCHESTER,M3 3AP,1 1  GROUND FLOOR UNIT A2 SPINNINGFIELDS SQUARE GROUND FLOOR UNIT A2 SPINNINGFIELDS SQUARE,1  GROUND FLOOR UNIT A2 SPINNINGFIELDS SQUARE GROUND FLOOR UNIT A2 SPINNINGFIELDS SQUARE
Neil Marshall,EAT Ltd,Neil Marshall,Elec,01/10/2013,30/09/2015,07,780,400,2000027360088,QUEEN STREET,,,NHH,,Scottish Power Ltd,Corporate,5   Queen Street,,OXFORD,OX1 1EJ,LV,0,10.831,,,25.65,120959 ,,,,,Fixed Contract,Tender Complete,No,Yes,,1630000001420,35287.43446,  UNIT R1 Market Street,UNIT R1,,Market Street,,MANCHESTER,M2 1NP,   UNIT R1 Market Street UNIT R1 Market Street,  UNIT R1 Market Street UNIT R1 Market Street
Neil Marshall,EAT Ltd,Neil Marshall,Elec,01/10/2013,30/09/2015,06,680,405,1200060933630,CAPITAL HOUSE,,,NHH,,Scottish Power Ltd,Corporate,58   King William Street,,LONDON,EC4N 7BL,LV,0,,10.995,7.654,28.22,,"139,337","23,067",,,Fixed Contract,Tender Complete,No,Yes,,1630000762232,129281.0861,  Unit 54B ARNDALE CENTRE,Unit 54B,,ARNDALE CENTRE,,MANCHESTER,M4 2HU,   Unit 54B ARNDALE CENTRE Unit 54B ARNDALE CENTRE,  Unit 54B ARNDALE CENTRE Unit 54B ARNDALE CENTRE
Neil Marshall,EAT Ltd,Neil Marshall,Elec,01/10/2013,30/09/2015,12,200,609,1200060951364,BROADWAY,,,NHH,,Scottish Power Ltd,Corporate,16   Broadway,,LONDON,SW1H 0BH,LV,0,,10.995,7.654,28.22,,"93,743","15,514",,,Fixed Contract,Tender Complete,No,Yes,,1800032682982,139462.3247,  31-33  Gordon Street,31-33 ,,Gordon Street,,GLASGOW,G1 3PF,   31-33  Gordon Street 31-33  Gordon Street,  31-33  Gordon Street 31-33  Gordon Street
Neil Marshall,EAT Ltd,Neil Marshall,Elec,01/10/2013,30/09/2015,06,680,405,1200052056350,CARDINAL PLACE,,,NHH,,Scottish Power Ltd,Corporate,7 UNIT 14  CATHEDRAL WALK,,LONDON,SW1E 5JH,LV,0,,10.995,7.654,28.22,,"117,109","19,369",,,Fixed Contract,Tender Complete,No,Yes,,1800050902029,139655.0376, Unit 2 Buchanan Gallaries Buchanan Street,Buchanan Gallaries,,Buchanan Street,,GLASGOW,G2 3GF,  Unit 2 Buchanan Gallaries Buchanan Street Buchanan Gallaries Buchanan Street, Unit 2 Buchanan Gallaries Buchanan Street Buchanan Gallaries Buchanan Street
Neil Marshall,EAT Ltd,Neil Marshall,Elec,01/10/2013,30/09/2015,06,680,401,1200010010382,BROMPTON ROAD,,,NHH,,Scottish Power Ltd,Corporate,  106/110 BROMPTON ROAD,,LONDON,SW3 1JJ,LV,0,10.645,,,28.22,,"176,337",,,,Fixed Contract,Tender Complete,No,Yes,,1900021376044,155087.1964,  75-76  North Street,75-76 ,,North Street,,BRIGHTON,BN1 1ZA,   75-76  North Street 75-76  North Street,  75-76  North Street 75-76  North Street
Neil Marshall,EAT Ltd,Neil Marshall,Elec,01/10/2013,30/09/2015,07,703,022,1414515213006,MARTINEAU PLACE,,,NHH,,Scottish Power Ltd,Corporate,30   Martineau Place,,BIRMINGHAM,B2 4UH,LV,0,,12.532,7.603,31.75,,,"4,114",,,Fixed Contract,Tender Complete,No,Yes,,1900060638589,102858.6162,   CHURCHILL SQUARE,,,CHURCHILL SQUARE,,BRIGHTON,BN1 2EP,    CHURCHILL SQUARE  CHURCHILL SQUARE,   CHURCHILL SQUARE  CHURCHILL SQUARE
Neil Marshall,EAT Ltd,Neil Marshall,Elec,01/10/2013,30/09/2015,07,703,021,1427413100005,NEW STREET,,,NHH,,Scottish Power Ltd,Corporate,  82-83 NEW STREET,,BIRMINGHAM,B2 4BA,LV,0,,12.532,7.603,31.75,,,"5,319",,,Fixed Contract,Tender Complete,No,Yes,,1900070149958,193471.8272,16   Whitefriars Street,,16,Whitefriars Street,,CANTERBURY,CT1 2TD,16 16   Whitefriars Street  Whitefriars Street,16   Whitefriars Street  Whitefriars Street
Neil Marshall,EAT Ltd,Neil Marshall,Elec,01/10/2013,30/09/2015,06,008,405,1200051226092,109 FLEET STREET,,,NHH,,Scottish Power Ltd,Corporate, RETAIL UNIT 107-111 Fleet Street,,LONDON,EC4A 2AB,LV,0,,12.037,7.476,27.52,,,"9,978",,,Fixed Contract,Tender Complete,No,Yes,,1900090361410,119826.003,  BLUEWATER SHOPPING CENTRE LOWER ROSE GALLERY,BLUEWATER SHOPPING CENTRE,,LOWER ROSE GALLERY,BLUEWATER,GREENHITHE,DA9 9SH,   BLUEWATER SHOPPING CENTRE LOWER ROSE GALLERY BLUEWATER SHOPPING CENTRE LOWER ROSE GALLERY,  BLUEWATER SHOPPING CENTRE LOWER ROSE GALLERY BLUEWATER SHOPPING CENTRE LOWER ROSE GALLERY
Neil Marshall,EAT Ltd,Neil Marshall,Elec,01/10/2013,30/09/2015,06,600,405,1200060726870,1 NEW CHANGE,,,NHH,,Scottish Power Ltd,Corporate,1  First Floor NEW CHANGE,,LONDON,EC2V 6AA,LV,0,,12.037,7.476,27.52,,,"15,323",,,Fixed Contract,Tender Complete,No,Yes,,2000027360088,120959.1066,5   Queen Street,,5,Queen Street,,OXFORD,OX1 1EJ,5 5   Queen Street  Queen Street,5   Queen Street  Queen Street
Neil Marshall,EAT Ltd,Neil Marshall,Elec,01/10/2013,30/09/2015,03,802,952,1200022275460,62 Tottenham Court Road,,,NHH,,Scottish Power Ltd,Corporate,62 Tottenham Court Road,,London,W1T 2ER,LV,0,10.211,,,27.54,64642 ,,,,,Fixed Contract,Tender Complete,No,No,,2000027561340,144006.2366,69 5 WINDSOR ROYAL STN Thames Street,WINDSOR ROYAL STN,69,Thames Street,,WINDSOR,SL4 1PL,69 69 5 WINDSOR ROYAL STN Thames Street WINDSOR ROYAL STN Thames Street,69 5 WINDSOR ROYAL STN Thames Street WINDSOR ROYAL STN Thames Street