Analyst,Customer_Name,AM_Name,Fuel_Type,Start Date,End Date,Profile,MTC,LLF,Meter_Number,Site_Name,UML_Site_Reference,Footprint_Client_Reference,Meter_Type_Elec,Footprint_Site_Reference,Supplier_Name,Customer Class,Address,Address 2,Address 3,Postcode,Voltage,ASC,All Unit Rate,Day Rate,Night Rate,standing charge month,availability charge month,All Unit Usage,Day Usage,Night Usage,Commission p kwh,Fixed Commission Per year,Contract Type,Tender Status,Termination Opt Out,Registration Confirmed
Ferenc Gall,Sanctuary Housing Association,Balint Fabok,Elec,01/04/2013,30/06/2013,0,845,124,1460000429529,Heathlands Elderly Persons Home,,,HH,,British Gas,Corporate,Heathlands Oph,Station Road,Pershore,WR10 1NG,LV,140,,8.525,5.764,6.669,0.979,,"166,482","55,494",,,Std Contract - Fixed Term,Tender Complete,No,Yes
Ferenc Gall,Sanctuary Housing Association,Balint Fabok,Elec,01/04/2013,30/06/2013,0,845,570,2200042167911,Truro Student Accomodation,,,HH,,British Gas,Corporate,"Stdent Acc, Penventinnie Lane",Treliske,Truro,TR1 3UP,LV,357,,10.929,5.979,6.253,0.791,,"508,664","169,555",,,Std Contract - Fixed Term,Tender Complete,No,Yes
Ferenc Gall,Sanctuary Housing Association,Balint Fabok,Elec,01/04/2013,30/06/2013,0,845,110,2700000700883,Mackworth Extra Care LL Supply,,,HH,,British Gas,Corporate,Mackworth Extra Care LL Supply,34 Greenwich Drive North,Derby,DE22 4BH,LV,140,,9.236,5.836,6.596,0.706,,"190,755","63,585",,,Std Contract - Fixed Term,Tender Complete,No,Yes
Ferenc Gall,Sanctuary Housing Association,Balint Fabok,Elec,01/04/2013,30/09/2013,0,845,200,2700000728044,Iffley Care Home,,,HH,,EDF Energy,Corporate,Iffley Care Home,Anne Greenwood Road,Oxford,OX4 4DN,LV,200,,9.7556,7.0422,2.65,0.72,,"208,875","64,162",,,Std Contract - Fixed Term,Tender Complete,No,Yes
Ferenc Gall,Sanctuary Housing Association,Balint Fabok,Elec,01/04/2013,31/03/2016,0,845,86,1014570445952,Montague Sheltered Housing Complex,,,HH,,British Gas,Corporate,Montague Sheltered Housing Complex,14 Montague Road,Felixstowe,IP11 7HF,LV,200,,1,1,1,1,"291,062","218,296","72,765",,131.65,Std Contract - Fixed Term,Tender Complete,No,Yes
Ferenc Gall,Sanctuary Housing Association,Balint Fabok,Elec,01/04/2013,31/03/2016,0,846,86,1030029002545,Exning Court,,,HH,,British Gas,Corporate,"Exning Court, Cotton End Road",Exning,Newmarket,CB8 7NW,LV,310,,1,1,1,1,"214,560","160,920","53,640",,131.65,Flex Contract - Fixed Term,Tender Complete,No,Yes
Ferenc Gall,Sanctuary Housing Association,Balint Fabok,Elec,01/04/2013,31/03/2016,0,845,86,1030077895020,Tamarisk Court LL Supply,,,HH,,British Gas,Corporate,111 Marion Court,Leicester Road,Barnet,EN5 5EL,LV,100,,1,1,1,1,"144,064","108,048","36,016",,131.65,Flex Contract - Fixed Term,Tender Complete,No,Yes
Ferenc Gall,Sanctuary Housing Association,Balint Fabok,Elec,01/04/2013,31/03/2016,0,845,86,1030081173441,Doddington Court LL Supply,,,HH,,British Gas,Corporate,1 - 60 Doddington Court,Benwick Road,Doddington,PE15 0WD,LV,200,,1,1,1,1,"97,647","75,501","22,146",,,,Under Tender,No,Yes
Ferenc Gall,Sanctuary Housing Association,Balint Fabok,Elec,01/04/2013,31/03/2016,0,845,9,1200010120908,Pentonville Road,,,HH,,British Gas,Corporate,189 - 205 Pentonville Road,,London,N1 9NF,LV,300,,1,1,1,1,"1,114,078","835,558","278,519",,131.65,Flex Contract - Fixed Term,Tender Complete,No,Yes
Ferenc Gall,Sanctuary Housing Association,Balint Fabok,Elec,01/04/2013,31/03/2016,0,845,9,1200010195480,St Johns House,,,HH,,British Gas,Corporate,St Johns House,1 Westwell Road Approach ,London,SW16 5SH,LV,150,,1,1,1,1,"303,998","227,998","75,999",,131.65,Flex Contract - Fixed Term,Tender Complete,No,Yes
Ferenc Gall,Sanctuary Housing Association,Balint Fabok,Elec,01/04/2013,31/03/2016,0,845,9,1200010196535,Woodbourne Avenue,,,HH,,British Gas,Corporate,11 Woodbourne Avenue,,London,SW16 1UD,LV,285,,1,1,1,1,"182,814","137,110","45,703",,131.65,Flex Contract - Fixed Term,Tender Complete,No,Yes
Ferenc Gall,Sanctuary Housing Association,Balint Fabok,Elec,01/04/2013,31/03/2016,0,845,29,1200010202738,Joshua Oldfield House,,,HH,,British Gas,Corporate,Joshua Oldfield House,116 Mitcham Road,London,SW17 9JH,LV,260,,1,1,1,1,"166,561","124,921","41,640",,131.65,Flex Contract - Fixed Term,Tender Complete,No,Yes
Ferenc Gall,Sanctuary Housing Association,Balint Fabok,Elec,01/04/2013,31/03/2016,0,845,9,1200010205297,John Pounds House,,,HH,,British Gas,Corporate,John Pounds House,271 Garrat Lane,Wandsworth,SW18 4DU,LV,150,,1,1,1,1,"144,064","108,048","36,016",,131.65,Flex Contract - Fixed Term,Tender Complete,No,Yes
Ferenc Gall,Sanctuary Housing Association,Balint Fabok,Elec,01/04/2013,31/03/2016,0,845,9,1200040721734,Pocock Street,,,HH,,British Gas,Corporate,8 Pocock Street,,London,SE1 0BJ,LV,300,,1,1,1,1,"607,106","455,330","151,777",,131.65,Flex Contract - Fixed Term,Tender Complete,No,Yes
Ferenc Gall,Sanctuary Housing Association,Balint Fabok,Elec,01/04/2013,31/03/2016,0,845,9,1200050343580,Paul Robeson House,,,HH,,British Gas,Corporate,Paul Robeson House,1 Penton Rise,London,WC1X 9EH,LV,400,,1,1,1,1,"1,114,078","835,558","278,519",,131.65,Flex Contract - Fixed Term,Tender Complete,No,Yes
Ferenc Gall,Sanctuary Housing Association,Balint Fabok,Elec,01/04/2013,31/03/2016,0,845,9,1200050390711,Chadwell Heath,,,HH,,British Gas,Corporate,372 Chadwell Heath Land,,Redbridge,RM6 4YG,LV,100,,1,1,1,1,"251,067","188,300","62,767",,131.65,Flex Contract - Fixed Term,Tender Complete,No,Yes
Ferenc Gall,Sanctuary Housing Association,Balint Fabok,Elec,01/04/2013,31/03/2016,0,845,8,1200051665645,Don Gratton House,,,HH,,British Gas,Corporate,Don Gratton House,82 Old Montague St,London,E1 5NN,LV,1000,,1,1,1,1,,"349,574","116,525",,131.65,Flex Contract - Fixed Term,Tender Complete,No,Yes
Ferenc Gall,Sanctuary Housing Association,Balint Fabok,Elec,01/04/2013,31/03/2016,0,845,8,1200051942832,Crispin Street,,,HH,,British Gas,Corporate,47 - 50 Crispin Street, Lillian Knowles,London,E1 6HQ,LV,350,,1,1,1,1,,"575,817","191,939",,131.65,Flex Contract - Fixed Term,Tender Complete,No,Yes
Ferenc Gall,Sanctuary Housing Association,Balint Fabok,Elec,01/04/2013,31/03/2016,0,846,127,1420266100000,Hellaby House,,,HH,,British Gas,Corporate,"3 Hellaby House, Common Road",Four Oaks,Birmingham,B74 4NN,LV,156,,1,1,1,1,,"175,974","58,658",,131.65,Flex Contract - Fixed Term,Tender Complete,No,Yes
Ferenc Gall,Sanctuary Housing Association,Balint Fabok,Elec,01/04/2013,31/03/2016,0,845,127,1429872000007,Broadmeadow Court,,,HH,,British Gas,Corporate,Broadmeadow Court,London Rd,Newcastle Under Lyme,ST5 7JG,LV,168,,1,1,1,1,,"231,196","77,065",,131.65,Flex Contract - Fixed Term,Tender Complete,No,Yes
Ferenc Gall,Sanctuary Housing Association,Balint Fabok,Elec,01/04/2013,31/03/2016,0,845,127,1460001667607,Hindle House,,,HH,,British Gas,Corporate,Hindle House ,Trinity Way,Banbury,OX17 3SN,LV,250,,1,1,1,1,,"216,768","72,256",,131.65,Flex Contract - Fixed Term,Tender Complete,No,Yes
Ferenc Gall,Sanctuary Housing Association,Balint Fabok,Elec,01/04/2013,31/03/2016,0,845,127,1460001693458,Lickhill Rd 458,,,HH,,British Gas,Corporate,21 Lickhill Rd,,Stourport On Severn,DY13 8RU,LV,120,,1,1,1,1,,"160,920","53,640",,131.65,Flex Contract - Fixed Term,Tender Complete,No,Yes
Ferenc Gall,Sanctuary Housing Association,Balint Fabok,Elec,01/04/2013,31/03/2016,0,845,127,1460001900294,Lickhill Rd 294,,,HH,,British Gas,Corporate,21 Lickhill Rd,,Stourport On Severn,DY13 8RU,LV,150,,1,1,1,1,,"129,137","43,046",,131.65,Flex Contract - Fixed Term,Tender Complete,No,Yes
Ferenc Gall,Sanctuary Housing Association,Balint Fabok,Elec,01/04/2013,31/03/2016,0,845,365,1460002082342,Enterprise House,,,HH,,British Gas,Corporate,Enterprise House,Infirmary Walk,Worcester,WR1 3ZQ,HV,500,,1,1,1,1,,"1,967,690","655,897",,131.65,Flex Contract - Fixed Term,Tender Complete,No,Yes
Ferenc Gall,Sanctuary Housing Association,Balint Fabok,Elec,01/04/2013,31/03/2016,0,845,251,1620000032185,Heritage Wharf,,,HH,,British Gas,Corporate,Heritage Wharf,Welbeck Streeet,Ashton Under Lyne,OL7 0QB,LV,104,,1,1,1,1,,"231,196","77,065",,131.65,Flex Contract - Fixed Term,Tender Complete,No,Yes
Ferenc Gall,Sanctuary Housing Association,Balint Fabok,Elec,01/04/2013,31/03/2016,0,845,500,1800035342176,Cairn Cross House,,,HH,,British Gas,Corporate,Cairn Cross House,Kelvinhaugh Place,Glasgow,G3 8NH,LV,100,,1,1,1,1,,"195,669","65,223",,131.65,Flex Contract - Fixed Term,Tender Complete,No,Yes
Ferenc Gall,Sanctuary Housing Association,Balint Fabok,Elec,01/04/2013,31/03/2016,0,845,500,1800050503310,Kelvinhaugh Street,,,HH,,British Gas,Corporate,115 - 119 Kelvinhaugh,and 1- 15 Kelvinhaugh Gate,Glasgow,G3 8PX,LV,150,,1,1,1,1,,"385,605","128,535",,131.65,Flex Contract - Fixed Term,Tender Complete,No,Yes
Ferenc Gall,Sanctuary Housing Association,Balint Fabok,Elec,01/04/2013,31/03/2016,0,845,500,1800051942069,Bellshaugh Road,,,HH,,British Gas,Corporate,Bellshaugh Road,,Glasgow,G12 0SN,LV,250,,1,1,1,1,,"446,757","148,919",,131.65,Flex Contract - Fixed Term,Tender Complete,No,Yes
Ferenc Gall,Sanctuary Housing Association,Balint Fabok,Elec,01/04/2013,31/03/2016,0,845,453,2000027383935,Park Farm Eld Per F,,,HH,,British Gas,Corporate,Park Farm Eld Per F,The Street,Swindon,SN25 3ES,LV,450,,1,1,1,1,,"307,711","102,570",,131.65,Flex Contract - Fixed Term,Tender Complete,No,Yes
Ferenc Gall,Sanctuary Housing Association,Balint Fabok,Elec,01/04/2013,31/03/2016,0,845,453,2000027850694,Haydon Court,,,HH,,British Gas,Corporate,9 - 49 Haydon Court,Haydon Walk,Swindon,SN25 1QN,LV,300,,1,1,1,1,,"241,514","80,505",,131.65,Flex Contract - Fixed Term,Tender Complete,No,Yes
Ferenc Gall,Sanctuary Housing Association,Balint Fabok,Elec,01/04/2013,31/03/2016,0,845,453,2000027876210,Blackman Gardens,,,HH,,British Gas,Corporate,Blackman Gardens,Signal Way,Swindon,SN3 1RN,LV,325,,1,1,1,1,,"328,419","109,473",,131.65,Flex Contract - Fixed Term,Tender Complete,No,Yes
Ferenc Gall,Sanctuary Housing Association,Balint Fabok,Elec,01/04/2013,31/03/2016,0,845,570,2200031889949,Henry Scott Tuke House,,,HH,,British Gas,Corporate,Henry Scott Tuke House,Haydon Walk,Falmouth,TR11 2EA,LV,350,,1,1,1,1,,"182,173","60,724",,131.65,Flex Contract - Fixed Term,Tender Complete,No,Yes
Ferenc Gall,Sanctuary Housing Association,Balint Fabok,Elec,01/04/2013,31/03/2016,0,845,281,2380001525727,Roman Ridge,,,HH,,British Gas,Corporate,Roman Ridge ,2 Lavender Way,Sheffield,S5 6DD,LV,99,,1,1,1,1,,"184,077","61,359",,131.65,Flex Contract - Fixed Term,Tender Complete,No,Yes
Ferenc Gall,Sanctuary Housing Association,Balint Fabok,Elec,01/04/2013,31/03/2016,0,200,845,2700000329460,Yarnton Residental and Nursing Home,,,HH,,British Gas,Corporate,"Yarnton Res and Nursing, Rutten Lane",Yarton,Kidlington,OX5 1LW,LV,290,,1,1,1,1,,"185,012","61,671",,131.65,Flex Contract - Fixed Term,Tender Complete,No,Yes
Ferenc Gall,Sanctuary Housing Association,Balint Fabok,Elec,01/04/2013,31/03/2016,0,845,86,1014570532667,Sidegate Lane Nursing Home,,,HH,,British Gas,Corporate,Sidegate Lane Nursing Home ,248 Sidegate Lane,Ipswich,IP4 3DH,LV,180,,1,1,1,1,,"176,349","58,783",,131.65,Flex Contract - Fixed Term,Tender Complete,No,Yes
Ferenc Gall,Sanctuary Housing Association,Balint Fabok,Elec,01/04/2013,31/03/2016,0,845,86,1030048706185,Goodwin Court ,,,HH,,British Gas,Corporate,Goodwin Court,,Barnet,EN4 8FH,LV,110,,1,1,1,1,,"118,538","39,513",,131.65,Flex Contract - Fixed Term,Tender Complete,No,Yes
Ferenc Gall,Sanctuary Housing Association,Balint Fabok,Elec,01/04/2013,31/03/2016,0,846,127,1411524513006,Brambles,,,HH,,British Gas,Corporate,"Birches Oph, Brambles ",Birchfield Road,Redditch,B97 4LX,LV,140,,1,1,1,1,,"169,620","56,540",,131.65,Flex Contract - Fixed Term,Tender Complete,No,Yes
Ferenc Gall,Sanctuary Housing Association,Balint Fabok,Elec,01/04/2013,31/03/2016,0,845,127,1460000373832,Breme House,,,HH,,British Gas,Corporate,"OPH 46, Breme House",Providence Road,Bromsgrove,B61 8EF,LV,75,,1,1,1,1,,"213,555","71,185",,131.65,Flex Contract - Fixed Term,Tender Complete,No,Yes
